  7.32	  2.44	  0.58	  7.90	    10	
  7.99	  1.84	  0.49	  8.47	    10	
 37.75	  2.29	  0.33	 38.08	    10	
 67.41	  2.20	  0.76	 68.17	    10	
 76.87	  2.34	  0.46	 77.33	    10	
103.44	  1.62	  0.45	103.89	    10	
124.24	  2.03	  0.58	124.82	    10	
135.37	  2.00	  0.70	136.07	    10	
153.16	  1.81	  0.30	153.46	    10	
160.88	  2.07	  0.72	161.59	    10	
168.48	  2.45	  0.78	169.26	    10	
