  0.00	  0.01	
  0.25	  0.01	
  0.50	  0.01	
  0.75	  0.01	
  1.00	  0.01	
  1.25	  0.01	
  1.50	  0.01	
  1.75	  0.01	
  2.00	  0.01	
  2.25	  0.01	
  2.50	  0.01	
  2.75	  0.01	
  3.00	  0.01	
  3.25	  0.01	
  3.50	  0.01	
  3.75	  0.01	
  4.00	  0.01	
  4.25	  0.01	
  4.50	  0.01	
  4.75	  0.01	
  5.00	  0.01	
  5.25	  0.01	
  5.50	  0.01	
  5.75	  0.01	
  6.00	  0.01	
  6.25	  0.01	
  6.50	  0.01	
  6.75	  0.01	
  7.00	  0.01	
  7.25	  0.01	
  7.50	  0.01	
  7.75	  0.01	
  8.00	  0.01	
  8.25	  0.01	
  8.50	  0.01	
  8.75	  0.01	
  9.00	  0.01	
  9.25	  0.01	
  9.50	  0.01	
  9.75	  0.01	
 10.00	  0.01	
 10.25	  0.01	
 10.50	  0.13	
 10.75	  0.26	
 11.00	  0.24	
 11.25	  0.01	
 11.50	  0.35	
 11.75	  0.56	
 12.00	  0.62	
 12.25	  0.47	
 12.50	  0.31	
 12.75	  0.16	
 13.00	  0.01	
 13.25	  0.01	
 13.50	  0.01	
 13.75	  0.01	
 14.00	  0.08	
 14.25	  0.26	
 14.50	  0.30	
 14.75	  0.41	
 15.00	  0.51	
 15.25	  0.30	
 15.50	  0.20	
 15.75	  0.26	
 16.00	  0.56	
 16.25	  0.56	
 16.50	  0.70	
 16.75	  0.88	
 17.00	  0.92	
 17.25	  0.65	
 17.50	  0.49	
 17.75	  0.28	
 18.00	  0.28	
 18.25	  0.27	
 18.50	  0.34	
 18.75	  0.26	
 19.00	  0.25	
 19.25	  0.34	
 19.50	  0.46	
 19.75	  0.26	
 20.00	  0.03	
 20.25	  0.14	
 20.50	  0.26	
 20.75	  0.23	
 21.00	  0.01	
 21.25	  0.01	
 21.50	  0.01	
 21.75	  0.01	
 22.00	  0.01	
 22.25	  0.01	
 22.50	  0.01	
 22.75	  0.17	
 23.00	  0.83	
 23.25	  1.10	
 23.50	  0.72	
 23.75	  0.23	
 24.00	  0.01	
 24.25	  0.20	
 24.50	  0.26	
 24.75	  0.17	
 25.00	  0.01	
 25.25	  0.01	
 25.50	  0.01	
 25.75	  0.01	
 26.00	  0.01	
 26.25	  0.01	
 26.50	  0.01	
 26.75	  0.01	
 27.00	  0.01	
 27.25	  0.01	
 27.50	  0.01	
 27.75	  0.01	
 28.00	  0.01	
 28.25	  0.01	
 28.50	  0.01	
 28.75	  0.01	
 29.00	  0.01	
 29.25	  0.01	
 29.50	  0.01	
 29.75	  0.01	
 30.00	  0.01	
 30.25	  0.01	
 30.50	  0.01	
 30.75	  0.01	
 31.00	  0.01	
 31.25	  0.01	
 31.50	  0.01	
 31.75	  0.01	
 32.00	  0.01	
 32.25	  0.01	
 32.50	  0.01	
 32.75	  0.01	
 33.00	  0.01	
 33.25	  0.01	
 33.50	  0.01	
 33.75	  0.01	
 34.00	  0.01	
 34.25	  0.01	
 34.50	  0.37	
 34.75	  0.73	
 35.00	  0.94	
 35.25	  0.65	
 35.50	  0.59	
 35.75	  0.66	
 36.00	  1.37	
 36.25	  1.22	
 36.50	  0.68	
 36.75	  0.54	
 37.00	  0.65	
 37.25	  0.51	
 37.50	  0.36	
 37.75	  0.47	
 38.00	  0.47	
 38.25	  0.75	
 38.50	  1.24	
 38.75	  1.03	
 39.00	  0.23	
 39.25	  0.27	
 39.50	  0.51	
 39.75	  0.38	
 40.00	  0.35	
 40.25	  0.26	
 40.50	  0.10	
 40.75	  0.26	
 41.00	  0.34	
 41.25	  0.32	
 41.50	  0.64	
 41.75	  0.53	
 42.00	  0.28	
 42.25	  0.07	
 42.50	  0.26	
 42.75	  0.43	
 43.00	  0.32	
 43.25	  0.56	
 43.50	  0.51	
 43.75	  0.41	
 44.00	  0.26	
 44.25	  0.26	
 44.50	  0.16	
 44.75	  0.51	
 45.00	  0.48	
 45.25	  0.25	
 45.50	  0.28	
 45.75	  0.46	
 46.00	  0.32	
 46.25	  0.34	
 46.50	  0.55	
 46.75	  0.67	
 47.00	  0.64	
 47.25	  0.26	
 47.50	  0.42	
 47.75	  0.89	
 48.00	  1.16	
 48.25	  1.23	
 48.50	  0.76	
 48.75	  0.39	
 49.00	  0.02	
 49.25	  0.01	
 49.50	  0.01	
 49.75	  0.01	
 50.00	  0.01	
 50.25	  0.01	
 50.50	  0.01	
 50.75	  0.01	
 51.00	  0.01	
 51.25	  0.01	
 51.50	  0.01	
 51.75	  0.01	
 52.00	  0.01	
 52.25	  0.01	
 52.50	  0.01	
 52.75	  0.01	
 53.00	  0.01	
 53.25	  0.01	
 53.50	  0.01	
 53.75	  0.01	
 54.00	  0.01	
 54.25	  0.01	
 54.50	  0.01	
 54.75	  0.01	
 55.00	  0.01	
 55.25	  0.01	
 55.50	  0.01	
 55.75	  0.01	
 56.00	  0.01	
 56.25	  0.01	
 56.50	  0.01	
 56.75	  0.01	
 57.00	  0.01	
 57.25	  0.01	
 57.50	  0.01	
 57.75	  0.01	
 58.00	  0.01	
 58.25	  0.01	
 58.50	  0.06	
 58.75	  0.65	
 59.00	  1.29	
 59.25	  1.23	
 59.50	  0.43	
 59.75	  0.27	
 60.00	  0.76	
 60.25	  0.67	
 60.50	  0.15	
 60.75	  0.01	
 61.00	  0.09	
 61.25	  0.26	
 61.50	  0.26	
 61.75	  0.13	
 62.00	  0.41	
 62.25	  0.51	
 62.50	  0.44	
 62.75	  0.76	
 63.00	  0.97	
 63.25	  0.59	
 63.50	  0.59	
 63.75	  0.69	
 64.00	  0.66	
 64.25	  0.41	
 64.50	  0.42	
 64.75	  1.33	
 65.00	  1.33	
 65.25	  0.53	
 65.50	  0.01	
 65.75	  0.18	
 66.00	  0.86	
 66.25	  1.14	
 66.50	  1.16	
 66.75	  1.27	
 67.00	  1.01	
 67.25	  0.39	
 67.50	  0.38	
 67.75	  0.76	
 68.00	  0.67	
 68.25	  0.09	
 68.50	  0.09	
 68.75	  0.51	
 69.00	  0.51	
 69.25	  0.13	
 69.50	  0.01	
 69.75	  0.09	
 70.00	  0.53	
 70.25	  0.91	
 70.50	  0.71	
 70.75	  0.21	
 71.00	  0.14	
 71.25	  0.26	
 71.50	  0.23	
 71.75	  0.01	
 72.00	  0.01	
 72.25	  0.15	
 72.50	  0.51	
 72.75	  0.48	
 73.00	  0.10	
 73.25	  0.01	
 73.50	  0.01	
 73.75	  0.01	
 74.00	  0.01	
 74.25	  0.01	
 74.50	  0.01	
 74.75	  0.01	
 75.00	  0.01	
 75.25	  0.01	
 75.50	  0.01	
 75.75	  0.01	
 76.00	  0.01	
 76.25	  0.01	
 76.50	  0.01	
 76.75	  0.01	
 77.00	  0.01	
 77.25	  0.01	
 77.50	  0.01	
 77.75	  0.01	
 78.00	  0.01	
 78.25	  0.01	
 78.50	  0.01	
 78.75	  0.01	
 79.00	  0.01	
 79.25	  0.01	
 79.50	  0.01	
 79.75	  0.01	
 80.00	  0.01	
 80.25	  0.01	
 80.50	  0.01	
 80.75	  0.01	
 81.00	  0.01	
 81.25	  0.01	
 81.50	  0.01	
 81.75	  0.01	
 82.00	  0.01	
 82.25	  0.01	
 82.50	  0.01	
 82.75	  0.01	
 83.00	  0.12	
 83.25	  0.80	
 83.50	  1.00	
 83.75	  0.50	
 84.00	  0.14	
 84.25	  0.56	
 84.50	  0.74	
 84.75	  0.41	
 85.00	  0.01	
 85.25	  0.01	
 85.50	  0.01	
 85.75	  0.01	
 86.00	  0.01	
 86.25	  0.01	
 86.50	  0.01	
 86.75	  0.01	
 87.00	  0.01	
 87.25	  0.01	
 87.50	  0.01	
 87.75	  0.01	
 88.00	  0.01	
 88.25	  0.01	
 88.50	  0.01	
 88.75	  0.01	
 89.00	  0.01	
 89.25	  0.24	
 89.50	  0.61	
 89.75	  0.73	
 90.00	  0.61	
 90.25	  0.31	
 90.50	  0.26	
 90.75	  0.26	
 91.00	  0.06	
 91.25	  0.01	
 91.50	  0.09	
 91.75	  0.26	
 92.00	  0.26	
 92.25	  0.03	
 92.50	  0.04	
 92.75	  0.26	
 93.00	  0.26	
 93.25	  0.08	
 93.50	  0.01	
 93.75	  0.01	
 94.00	  0.09	
 94.25	  0.26	
 94.50	  0.26	
 94.75	  0.03	
 95.00	  0.01	
 95.25	  0.01	
 95.50	  0.15	
 95.75	  0.40	
 96.00	  0.52	
 96.25	  0.55	
 96.50	  0.51	
 96.75	  0.31	
 97.00	  0.03	
 97.25	  0.01	
 97.50	  0.01	
 97.75	  0.01	
 98.00	  0.01	
 98.25	  0.01	
 98.50	  0.01	
 98.75	  0.01	
 99.00	  0.01	
 99.25	  0.01	
 99.50	  0.01	
 99.75	  0.01	
100.00	  0.01	
100.25	  0.01	
100.50	  0.01	
100.75	  0.01	
101.00	  0.01	
101.25	  0.01	
101.50	  0.01	
101.75	  0.01	
102.00	  0.01	
102.25	  0.01	
102.50	  0.01	
102.75	  0.01	
103.00	  0.01	
103.25	  0.01	
103.50	  0.01	
103.75	  0.01	
104.00	  0.01	
104.25	  0.01	
104.50	  0.01	
104.75	  0.01	
105.00	  0.01	
105.25	  0.01	
105.50	  0.01	
105.75	  0.01	
106.00	  0.01	
106.25	  0.01	
106.50	  0.01	
106.75	  0.05	
107.00	  0.26	
107.25	  0.26	
107.50	  0.07	
107.75	  0.30	
108.00	  0.51	
108.25	  0.55	
108.50	  0.53	
108.75	  0.76	
109.00	  0.34	
109.25	  0.21	
109.50	  0.44	
109.75	  0.75	
110.00	  0.49	
110.25	  0.43	
110.50	  0.51	
110.75	  0.32	
111.00	  0.02	
111.25	  0.01	
111.50	  0.20	
111.75	  0.42	
112.00	  0.42	
112.25	  0.39	
112.50	  0.76	
112.75	  1.13	
113.00	  0.62	
113.25	  0.42	
113.50	  0.30	
113.75	  0.67	
114.00	  0.77	
114.25	  0.98	
114.50	  0.89	
114.75	  0.65	
115.00	  0.47	
115.25	  0.52	
115.50	  0.58	
115.75	  0.51	
116.00	  0.40	
116.25	  0.66	
116.50	  1.00	
116.75	  1.15	
117.00	  0.87	
117.25	  0.63	
117.50	  0.26	
117.75	  0.37	
118.00	  0.26	
118.25	  0.19	
118.50	  0.06	
118.75	  0.45	
119.00	  0.51	
119.25	  0.22	
119.50	  0.01	
119.75	  0.01	
120.00	  0.01	
120.25	  0.01	
120.50	  0.01	
120.75	  0.01	
121.00	  0.01	
121.25	  0.01	
121.50	  0.01	
121.75	  0.01	
122.00	  0.01	
122.25	  0.01	
122.50	  0.01	
122.75	  0.01	
123.00	  0.01	
123.25	  0.01	
123.50	  0.01	
123.75	  0.01	
124.00	  0.01	
124.25	  0.01	
124.50	  0.01	
124.75	  0.01	
125.00	  0.01	
125.25	  0.01	
125.50	  0.01	
125.75	  0.01	
126.00	  0.01	
126.25	  0.01	
126.50	  0.01	
126.75	  0.01	
127.00	  0.01	
127.25	  0.01	
127.50	  0.01	
127.75	  0.01	
128.00	  0.01	
128.25	  0.01	
128.50	  0.01	
128.75	  0.01	
129.00	  0.01	
129.25	  0.01	
129.50	  0.01	
129.75	  0.01	
130.00	  0.01	
130.25	  0.01	
130.50	  0.18	
130.75	  0.26	
131.00	  0.19	
131.25	  0.01	
131.50	  0.01	
131.75	  0.14	
132.00	  0.51	
132.25	  0.61	
132.50	  0.79	
132.75	  0.87	
133.00	  0.53	
133.25	  0.58	
133.50	  0.76	
133.75	  0.79	
134.00	  0.30	
134.25	  0.26	
134.50	  0.26	
134.75	  0.26	
135.00	  0.26	
135.25	  0.40	
135.50	  0.44	
135.75	  0.22	
136.00	  0.01	
136.25	  0.04	
136.50	  0.37	
136.75	  0.99	
137.00	  0.86	
137.25	  0.47	
137.50	  0.26	
137.75	  0.10	
138.00	  0.26	
138.25	  0.56	
138.50	  0.79	
138.75	  0.68	
139.00	  0.41	
139.25	  0.58	
139.50	  0.74	
139.75	  0.64	
140.00	  0.25	
140.25	  0.26	
140.50	  0.27	
140.75	  0.83	
141.00	  1.30	
141.25	  1.37	
141.50	  0.97	
141.75	  0.80	
142.00	  0.43	
142.25	  0.42	
142.50	  0.60	
142.75	  0.45	
143.00	  0.42	
143.25	  0.53	
143.50	  0.87	
143.75	  1.00	
144.00	  0.61	
144.25	  0.59	
144.50	  0.51	
144.75	  0.49	
145.00	  0.03	
145.25	  0.01	
145.50	  0.01	
145.75	  0.01	
146.00	  0.01	
146.25	  0.01	
146.50	  0.01	
146.75	  0.01	
147.00	  0.01	
147.25	  0.01	
147.50	  0.01	
147.75	  0.01	
148.00	  0.01	
148.25	  0.01	
148.50	  0.01	
148.75	  0.01	
149.00	  0.01	
149.25	  0.01	
149.50	  0.01	
149.75	  0.01	
150.00	  0.01	
150.25	  0.01	
150.50	  0.01	
150.75	  0.01	
151.00	  0.01	
151.25	  0.01	
151.50	  0.01	
151.75	  0.01	
152.00	  0.01	
152.25	  0.01	
152.50	  0.01	
152.75	  0.01	
153.00	  0.01	
153.25	  0.01	
153.50	  0.01	
153.75	  0.01	
154.00	  0.01	
154.25	  0.01	
154.50	  0.01	
154.75	  0.01	
155.00	  0.01	
155.25	  0.01	
155.50	  0.01	
155.75	  0.19	
156.00	  0.26	
156.25	  0.18	
156.50	  0.01	
156.75	  0.06	
157.00	  0.39	
157.25	  0.51	
157.50	  0.27	
157.75	  0.06	
158.00	  0.26	
158.25	  0.26	
158.50	  0.28	
158.75	  0.46	
159.00	  0.38	
159.25	  0.30	
159.50	  0.26	
159.75	  0.22	
160.00	  0.26	
160.25	  0.43	
160.50	  0.36	
160.75	  0.27	
161.00	  0.26	
161.25	  0.27	
161.50	  0.37	
161.75	  0.75	
162.00	  0.60	
162.25	  0.45	
162.50	  0.51	
162.75	  0.37	
163.00	  0.03	
163.25	  0.26	
163.50	  0.45	
163.75	  0.44	
164.00	  0.42	
164.25	  0.26	
164.50	  0.02	
164.75	  0.01	
165.00	  0.01	
165.25	  0.54	
165.50	  0.76	
165.75	  0.62	
166.00	  0.26	
166.25	  0.36	
166.50	  0.26	
166.75	  0.55	
167.00	  0.76	
167.25	  0.87	
167.50	  0.29	
167.75	  0.44	
168.00	  0.26	
