 24.45	  0.30	  0.56	 25.01	     6	
 72.58	  0.34	  0.79	 73.37	     6	
 72.89	  0.31	  0.88	 73.78	     6	
 75.35	  0.41	  0.52	 75.88	     6	
 76.64	  0.40	  0.87	 77.51	     6	
 85.78	  0.33	  0.97	 86.74	     6	
 91.26	  0.42	  0.60	 91.85	     6	
 92.03	  0.32	  0.90	 92.93	     6	
 92.10	  0.49	  0.51	 92.61	     6	
 94.44	  0.41	  0.61	 95.05	     6	
 95.50	  0.44	  0.82	 96.32	     6	
112.93	  0.33	  0.85	113.79	     6	
150.83	  0.37	  0.93	151.76	     6	
