  0.00	  0.04	
  0.25	  0.04	
  0.50	  0.04	
  0.75	  0.04	
  1.00	  0.04	
  1.25	  0.04	
  1.50	  0.04	
  1.75	  0.04	
  2.00	  0.31	
  2.25	  1.05	
  2.50	  1.50	
  2.75	  1.82	
  3.00	  2.07	
  3.25	  2.56	
  3.50	  3.09	
  3.75	  3.46	
  4.00	  3.57	
  4.25	  2.97	
  4.50	  2.44	
  4.75	  1.92	
  5.00	  1.31	
  5.25	  0.59	
  5.50	  0.46	
  5.75	  0.34	
  6.00	  0.18	
  6.25	  0.08	
  6.50	  0.04	
  6.75	  0.04	
  7.00	  0.04	
  7.25	  0.04	
  7.50	  0.04	
  7.75	  0.04	
  8.00	  0.04	
  8.25	  0.04	
  8.50	  0.04	
  8.75	  0.04	
  9.00	  0.04	
  9.25	  0.04	
  9.50	  0.04	
  9.75	  0.04	
 10.00	  0.04	
 10.25	  0.04	
 10.50	  0.04	
 10.75	  0.04	
 11.00	  0.04	
 11.25	  0.04	
 11.50	  0.04	
 11.75	  0.04	
 12.00	  0.04	
 12.25	  0.04	
 12.50	  0.04	
 12.75	  0.04	
 13.00	  0.04	
 13.25	  0.04	
 13.50	  0.04	
 13.75	  0.04	
 14.00	  0.04	
 14.25	  0.04	
 14.50	  0.04	
 14.75	  0.04	
 15.00	  0.04	
 15.25	  0.04	
 15.50	  0.04	
 15.75	  0.04	
 16.00	  0.04	
 16.25	  0.04	
 16.50	  0.04	
 16.75	  0.04	
 17.00	  0.04	
 17.25	  0.04	
 17.50	  0.04	
 17.75	  0.04	
 18.00	  0.04	
 18.25	  0.04	
 18.50	  0.04	
 18.75	  0.04	
 19.00	  0.04	
 19.25	  0.07	
 19.50	  0.09	
 19.75	  0.27	
 20.00	  0.40	
 20.25	  0.60	
 20.50	  0.53	
 20.75	  0.49	
 21.00	  0.55	
 21.25	  0.70	
 21.50	  0.62	
 21.75	  0.77	
 22.00	  0.74	
 22.25	  0.74	
 22.50	  0.65	
 22.75	  0.38	
 23.00	  0.29	
 23.25	  0.30	
 23.50	  0.23	
 23.75	  0.23	
 24.00	  0.23	
 24.25	  0.16	
 24.50	  0.14	
 24.75	  0.14	
 25.00	  0.09	
 25.25	  0.04	
 25.50	  0.04	
 25.75	  0.04	
 26.00	  0.36	
 26.25	  1.07	
 26.50	  1.74	
 26.75	  1.73	
 27.00	  1.82	
 27.25	  2.05	
 27.50	  2.17	
 27.75	  2.65	
 28.00	  2.89	
 28.25	  2.76	
 28.50	  2.49	
 28.75	  1.80	
 29.00	  1.39	
 29.25	  1.17	
 29.50	  0.90	
 29.75	  0.41	
 30.00	  0.38	
 30.25	  0.32	
 30.50	  0.27	
 30.75	  0.11	
 31.00	  0.04	
 31.25	  0.04	
 31.50	  0.04	
 31.75	  0.04	
 32.00	  0.04	
 32.25	  0.04	
 32.50	  0.04	
 32.75	  0.04	
 33.00	  0.04	
 33.25	  0.04	
 33.50	  0.04	
 33.75	  0.04	
 34.00	  0.04	
 34.25	  0.04	
 34.50	  0.04	
 34.75	  0.04	
 35.00	  0.04	
 35.25	  0.04	
 35.50	  0.04	
 35.75	  0.04	
 36.00	  0.04	
 36.25	  0.04	
 36.50	  0.04	
 36.75	  0.04	
 37.00	  0.04	
 37.25	  0.04	
 37.50	  0.04	
 37.75	  0.04	
 38.00	  0.04	
 38.25	  0.04	
 38.50	  0.04	
 38.75	  0.04	
 39.00	  0.04	
 39.25	  0.04	
 39.50	  0.04	
 39.75	  0.04	
 40.00	  0.04	
 40.25	  0.04	
 40.50	  0.04	
 40.75	  0.04	
 41.00	  0.04	
 41.25	  0.04	
 41.50	  0.04	
 41.75	  0.04	
 42.00	  0.04	
 42.25	  0.04	
 42.50	  0.04	
 42.75	  0.04	
 43.00	  0.09	
 43.25	  0.23	
 43.50	  0.23	
 43.75	  0.19	
 44.00	  0.10	
 44.25	  0.15	
 44.50	  0.21	
 44.75	  0.36	
 45.00	  0.41	
 45.25	  0.42	
 45.50	  0.36	
 45.75	  0.39	
 46.00	  0.41	
 46.25	  0.41	
 46.50	  0.23	
 46.75	  0.25	
 47.00	  0.33	
 47.25	  0.33	
 47.50	  0.33	
 47.75	  0.15	
 48.00	  0.04	
 48.25	  0.04	
 48.50	  0.04	
 48.75	  0.04	
 49.00	  0.04	
 49.25	  0.04	
 49.50	  0.04	
 49.75	  0.04	
 50.00	  0.16	
 50.25	  0.65	
 50.50	  1.11	
 50.75	  1.59	
 51.00	  1.89	
 51.25	  2.09	
 51.50	  2.47	
 51.75	  2.56	
 52.00	  2.26	
 52.25	  1.82	
 52.50	  1.59	
 52.75	  1.44	
 53.00	  1.33	
 53.25	  0.95	
 53.50	  0.79	
 53.75	  0.78	
 54.00	  0.78	
 54.25	  0.44	
 54.50	  0.04	
 54.75	  0.04	
 55.00	  0.04	
 55.25	  0.04	
 55.50	  0.04	
 55.75	  0.04	
 56.00	  0.04	
 56.25	  0.04	
 56.50	  0.04	
 56.75	  0.04	
 57.00	  0.04	
 57.25	  0.04	
 57.50	  0.04	
 57.75	  0.04	
 58.00	  0.04	
 58.25	  0.04	
 58.50	  0.04	
 58.75	  0.04	
 59.00	  0.04	
 59.25	  0.04	
 59.50	  0.04	
 59.75	  0.04	
 60.00	  0.04	
 60.25	  0.04	
 60.50	  0.04	
 60.75	  0.04	
 61.00	  0.04	
 61.25	  0.04	
 61.50	  0.04	
 61.75	  0.04	
 62.00	  0.04	
 62.25	  0.04	
 62.50	  0.04	
 62.75	  0.04	
 63.00	  0.04	
 63.25	  0.04	
 63.50	  0.04	
 63.75	  0.04	
 64.00	  0.04	
 64.25	  0.04	
 64.50	  0.04	
 64.75	  0.04	
 65.00	  0.04	
 65.25	  0.04	
 65.50	  0.04	
 65.75	  0.04	
 66.00	  0.04	
 66.25	  0.04	
 66.50	  0.04	
 66.75	  0.04	
 67.00	  0.04	
 67.25	  0.08	
 67.50	  0.17	
 67.75	  0.21	
 68.00	  0.23	
 68.25	  0.24	
 68.50	  0.31	
 68.75	  0.36	
 69.00	  0.47	
 69.25	  0.37	
 69.50	  0.35	
 69.75	  0.35	
 70.00	  0.35	
 70.25	  0.28	
 70.50	  0.18	
 70.75	  0.22	
 71.00	  0.24	
 71.25	  0.17	
 71.50	  0.22	
 71.75	  0.22	
 72.00	  0.22	
 72.25	  0.22	
 72.50	  0.22	
 72.75	  0.22	
 73.00	  0.21	
 73.25	  0.15	
 73.50	  0.15	
 73.75	  0.14	
 74.00	  0.15	
 74.25	  0.64	
 74.50	  1.39	
 74.75	  1.57	
 75.00	  1.81	
 75.25	  1.85	
 75.50	  2.37	
 75.75	  2.28	
 76.00	  1.70	
 76.25	  1.46	
 76.50	  1.46	
 76.75	  1.31	
 77.00	  0.97	
 77.25	  0.64	
 77.50	  0.57	
 77.75	  0.53	
 78.00	  0.27	
 78.25	  0.18	
 78.50	  0.09	
 78.75	  0.04	
 79.00	  0.04	
 79.25	  0.04	
 79.50	  0.04	
 79.75	  0.04	
 80.00	  0.04	
 80.25	  0.04	
 80.50	  0.04	
 80.75	  0.04	
 81.00	  0.04	
 81.25	  0.04	
 81.50	  0.04	
 81.75	  0.04	
 82.00	  0.04	
 82.25	  0.04	
 82.50	  0.04	
 82.75	  0.04	
 83.00	  0.04	
 83.25	  0.04	
 83.50	  0.04	
 83.75	  0.04	
 84.00	  0.04	
 84.25	  0.04	
 84.50	  0.04	
 84.75	  0.04	
 85.00	  0.04	
 85.25	  0.04	
 85.50	  0.04	
 85.75	  0.04	
 86.00	  0.04	
 86.25	  0.04	
 86.50	  0.04	
 86.75	  0.04	
 87.00	  0.04	
 87.25	  0.04	
 87.50	  0.04	
 87.75	  0.04	
 88.00	  0.04	
 88.25	  0.04	
 88.50	  0.04	
 88.75	  0.04	
 89.00	  0.04	
 89.25	  0.04	
 89.50	  0.04	
 89.75	  0.04	
 90.00	  0.04	
 90.25	  0.04	
 90.50	  0.04	
 90.75	  0.24	
 91.00	  0.32	
 91.25	  0.37	
 91.50	  0.37	
 91.75	  0.41	
 92.00	  0.42	
 92.25	  0.42	
 92.50	  0.42	
 92.75	  0.32	
 93.00	  0.41	
 93.25	  0.34	
 93.50	  0.34	
 93.75	  0.28	
 94.00	  0.28	
 94.25	  0.25	
 94.50	  0.23	
 94.75	  0.20	
 95.00	  0.16	
 95.25	  0.22	
 95.50	  0.29	
 95.75	  0.13	
 96.00	  0.12	
 96.25	  0.12	
 96.50	  0.06	
 96.75	  0.04	
 97.00	  0.04	
 97.25	  0.04	
 97.50	  0.04	
 97.75	  0.04	
 98.00	  0.73	
 98.25	  1.59	
 98.50	  1.65	
 98.75	  1.57	
 99.00	  1.49	
 99.25	  1.78	
 99.50	  1.96	
 99.75	  2.19	
100.00	  2.17	
100.25	  1.84	
100.50	  1.53	
100.75	  1.11	
101.00	  0.97	
101.25	  0.63	
101.50	  0.62	
101.75	  0.57	
102.00	  0.38	
102.25	  0.29	
102.50	  0.11	
102.75	  0.04	
103.00	  0.04	
103.25	  0.04	
103.50	  0.04	
103.75	  0.04	
104.00	  0.04	
104.25	  0.04	
104.50	  0.04	
104.75	  0.04	
105.00	  0.04	
105.25	  0.04	
105.50	  0.04	
105.75	  0.04	
106.00	  0.04	
106.25	  0.04	
106.50	  0.04	
106.75	  0.04	
107.00	  0.04	
107.25	  0.04	
107.50	  0.04	
107.75	  0.04	
108.00	  0.04	
108.25	  0.04	
108.50	  0.04	
108.75	  0.04	
109.00	  0.04	
109.25	  0.04	
109.50	  0.04	
109.75	  0.04	
110.00	  0.04	
110.25	  0.04	
110.50	  0.04	
110.75	  0.04	
111.00	  0.04	
111.25	  0.04	
111.50	  0.04	
111.75	  0.04	
112.00	  0.04	
112.25	  0.04	
112.50	  0.04	
112.75	  0.04	
113.00	  0.04	
113.25	  0.04	
113.50	  0.04	
113.75	  0.04	
114.00	  0.04	
114.25	  0.04	
114.50	  0.10	
114.75	  0.33	
115.00	  0.33	
115.25	  0.33	
115.50	  0.46	
115.75	  0.41	
116.00	  0.33	
116.25	  0.34	
116.50	  0.43	
116.75	  0.49	
117.00	  0.60	
117.25	  0.43	
117.50	  0.49	
117.75	  0.52	
118.00	  0.48	
118.25	  0.38	
118.50	  0.25	
118.75	  0.31	
119.00	  0.24	
119.25	  0.26	
119.50	  0.39	
119.75	  0.38	
120.00	  0.35	
120.25	  0.34	
120.50	  0.34	
120.75	  0.14	
121.00	  0.04	
121.25	  0.04	
121.50	  0.04	
121.75	  0.04	
122.00	  0.13	
122.25	  0.46	
122.50	  0.83	
122.75	  1.26	
123.00	  1.40	
123.25	  1.68	
123.50	  2.04	
123.75	  2.25	
124.00	  1.92	
124.25	  1.82	
124.50	  1.69	
124.75	  1.43	
125.00	  1.21	
125.25	  1.08	
125.50	  0.82	
125.75	  0.58	
126.00	  0.37	
126.25	  0.29	
126.50	  0.15	
126.75	  0.04	
127.00	  0.04	
127.25	  0.04	
127.50	  0.04	
127.75	  0.04	
128.00	  0.04	
128.25	  0.04	
128.50	  0.04	
128.75	  0.04	
129.00	  0.04	
129.25	  0.04	
129.50	  0.04	
129.75	  0.04	
130.00	  0.04	
130.25	  0.04	
130.50	  0.04	
130.75	  0.04	
131.00	  0.04	
131.25	  0.04	
131.50	  0.04	
131.75	  0.04	
132.00	  0.04	
132.25	  0.04	
132.50	  0.04	
132.75	  0.04	
133.00	  0.04	
133.25	  0.04	
133.50	  0.04	
133.75	  0.04	
134.00	  0.04	
134.25	  0.04	
134.50	  0.04	
134.75	  0.04	
135.00	  0.04	
135.25	  0.04	
135.50	  0.04	
135.75	  0.04	
136.00	  0.04	
136.25	  0.04	
136.50	  0.04	
136.75	  0.04	
137.00	  0.04	
137.25	  0.04	
137.50	  0.04	
137.75	  0.04	
138.00	  0.04	
138.25	  0.04	
138.50	  0.08	
138.75	  0.34	
139.00	  0.47	
139.25	  0.47	
139.50	  0.54	
139.75	  0.57	
140.00	  0.61	
140.25	  0.61	
140.50	  0.47	
140.75	  0.48	
141.00	  0.62	
141.25	  0.62	
141.50	  0.59	
141.75	  0.55	
142.00	  0.52	
142.25	  0.60	
142.50	  0.62	
142.75	  0.54	
143.00	  0.39	
143.25	  0.54	
143.50	  0.60	
143.75	  0.45	
144.00	  0.37	
144.25	  0.20	
144.50	  0.20	
144.75	  0.20	
145.00	  0.20	
145.25	  0.20	
145.50	  0.20	
145.75	  0.20	
146.00	  0.37	
146.25	  0.31	
146.50	  0.47	
146.75	  0.90	
147.00	  1.53	
147.25	  1.82	
147.50	  2.51	
147.75	  3.02	
148.00	  3.01	
148.25	  2.43	
148.50	  1.90	
148.75	  1.37	
149.00	  1.12	
149.25	  1.09	
149.50	  0.97	
149.75	  0.81	
150.00	  0.45	
150.25	  0.09	
150.50	  0.04	
150.75	  0.04	
151.00	  0.04	
151.25	  0.04	
151.50	  0.04	
151.75	  0.04	
152.00	  0.04	
152.25	  0.04	
152.50	  0.04	
152.75	  0.04	
153.00	  0.04	
153.25	  0.04	
153.50	  0.04	
153.75	  0.04	
154.00	  0.04	
154.25	  0.04	
154.50	  0.04	
154.75	  0.04	
155.00	  0.04	
155.25	  0.04	
155.50	  0.04	
155.75	  0.04	
156.00	  0.04	
156.25	  0.04	
156.50	  0.04	
156.75	  0.04	
157.00	  0.04	
157.25	  0.04	
157.50	  0.04	
157.75	  0.04	
158.00	  0.04	
158.25	  0.04	
158.50	  0.04	
158.75	  0.04	
159.00	  0.04	
159.25	  0.04	
159.50	  0.04	
159.75	  0.04	
160.00	  0.04	
160.25	  0.04	
160.50	  0.04	
160.75	  0.04	
161.00	  0.04	
161.25	  0.04	
161.50	  0.04	
161.75	  0.04	
162.00	  0.04	
162.25	  0.04	
162.50	  0.20	
162.75	  0.29	
163.00	  0.35	
163.25	  0.29	
163.50	  0.27	
163.75	  0.27	
164.00	  0.27	
164.25	  0.33	
164.50	  0.32	
164.75	  0.23	
165.00	  0.23	
165.25	  0.51	
165.50	  0.63	
165.75	  0.58	
166.00	  0.48	
166.25	  0.48	
166.50	  0.50	
166.75	  0.55	
167.00	  0.53	
167.25	  0.63	
167.50	  0.45	
167.75	  0.36	
168.00	  0.36	
