  0.00	  0.12	
  0.25	  0.12	
  0.50	  0.12	
  0.75	  0.12	
  1.00	  0.12	
  1.25	  0.12	
  1.50	  0.12	
  1.75	  0.12	
  2.00	  0.14	
  2.25	  0.40	
  2.50	  0.72	
  2.75	  1.12	
  3.00	  1.13	
  3.25	  1.39	
  3.50	  1.65	
  3.75	  1.86	
  4.00	  1.90	
  4.25	  1.78	
  4.50	  1.38	
  4.75	  1.18	
  5.00	  0.97	
  5.25	  0.80	
  5.50	  0.50	
  5.75	  0.27	
  6.00	  0.13	
  6.25	  0.11	
  6.50	  0.11	
  6.75	  0.11	
  7.00	  0.11	
  7.25	  0.11	
  7.50	  0.11	
  7.75	  0.11	
  8.00	  0.11	
  8.25	  0.11	
  8.50	  0.11	
  8.75	  0.11	
  9.00	  0.11	
  9.25	  0.11	
  9.50	  0.11	
  9.75	  0.11	
 10.00	  0.11	
 10.25	  0.11	
 10.50	  0.11	
 10.75	  0.11	
 11.00	  0.11	
 11.25	  0.11	
 11.50	  0.23	
 11.75	  0.48	
 12.00	  0.80	
 12.25	  0.60	
 12.50	  0.26	
 12.75	  0.34	
 13.00	  1.08	
 13.25	  1.47	
 13.50	  0.91	
 13.75	  0.37	
 14.00	  0.11	
 14.25	  0.11	
 14.50	  0.11	
 14.75	  0.11	
 15.00	  0.11	
 15.25	  0.18	
 15.50	  0.60	
 15.75	  0.60	
 16.00	  0.26	
 16.25	  0.11	
 16.50	  0.11	
 16.75	  0.11	
 17.00	  0.11	
 17.25	  0.11	
 17.50	  0.11	
 17.75	  0.11	
 18.00	  0.11	
 18.25	  0.11	
 18.50	  0.36	
 18.75	  2.16	
 19.00	  2.48	
 19.25	  2.67	
 19.50	  1.51	
 19.75	  1.29	
 20.00	  0.68	
 20.25	  0.27	
 20.50	  0.19	
 20.75	  0.19	
 21.00	  0.19	
 21.25	  0.26	
 21.50	  0.30	
 21.75	  0.30	
 22.00	  0.25	
 22.25	  0.36	
 22.50	  0.36	
 22.75	  0.49	
 23.00	  0.56	
 23.25	  0.50	
 23.50	  0.45	
 23.75	  0.38	
 24.00	  0.20	
 24.25	  0.11	
 24.50	  0.11	
 24.75	  0.11	
 25.00	  0.11	
 25.25	  0.11	
 25.50	  0.11	
 25.75	  0.11	
 26.00	  0.12	
 26.25	  0.25	
 26.50	  0.47	
 26.75	  0.70	
 27.00	  0.95	
 27.25	  1.25	
 27.50	  1.30	
 27.75	  1.61	
 28.00	  1.67	
 28.25	  1.51	
 28.50	  1.47	
 28.75	  1.44	
 29.00	  1.43	
 29.25	  1.20	
 29.50	  1.10	
 29.75	  0.95	
 30.00	  0.61	
 30.25	  0.49	
 30.50	  0.45	
 30.75	  0.16	
 31.00	  0.11	
 31.25	  0.11	
 31.50	  0.11	
 31.75	  0.11	
 32.00	  0.11	
 32.25	  0.11	
 32.50	  0.11	
 32.75	  0.11	
 33.00	  0.11	
 33.25	  0.11	
 33.50	  0.11	
 33.75	  0.11	
 34.00	  0.11	
 34.25	  0.11	
 34.50	  0.11	
 34.75	  0.11	
 35.00	  0.11	
 35.25	  0.11	
 35.50	  0.58	
 35.75	  1.28	
 36.00	  1.25	
 36.25	  0.98	
 36.50	  0.89	
 36.75	  1.24	
 37.00	  1.14	
 37.25	  0.83	
 37.50	  0.62	
 37.75	  0.47	
 38.00	  0.24	
 38.25	  0.22	
 38.50	  0.22	
 38.75	  0.22	
 39.00	  0.19	
 39.25	  0.11	
 39.50	  0.11	
 39.75	  0.24	
 40.00	  0.44	
 40.25	  0.44	
 40.50	  0.17	
 40.75	  0.11	
 41.00	  0.11	
 41.25	  0.11	
 41.50	  0.11	
 41.75	  0.11	
 42.00	  0.11	
 42.25	  0.11	
 42.50	  0.36	
 42.75	  0.86	
 43.00	  1.04	
 43.25	  1.58	
 43.50	  1.20	
 43.75	  0.74	
 44.00	  0.40	
 44.25	  0.27	
 44.50	  0.22	
 44.75	  0.23	
 45.00	  0.27	
 45.25	  0.39	
 45.50	  0.50	
 45.75	  0.55	
 46.00	  0.75	
 46.25	  0.77	
 46.50	  0.82	
 46.75	  0.93	
 47.00	  1.03	
 47.25	  1.02	
 47.50	  0.94	
 47.75	  0.76	
 48.00	  0.55	
 48.25	  0.32	
 48.50	  0.31	
 48.75	  0.27	
 49.00	  0.26	
 49.25	  0.41	
 49.50	  0.41	
 49.75	  0.41	
 50.00	  0.41	
 50.25	  0.52	
 50.50	  0.83	
 50.75	  1.04	
 51.00	  1.47	
 51.25	  1.70	
 51.50	  2.23	
 51.75	  2.18	
 52.00	  2.09	
 52.25	  1.93	
 52.50	  1.93	
 52.75	  1.78	
 53.00	  1.59	
 53.25	  1.30	
 53.50	  0.92	
 53.75	  0.68	
 54.00	  0.30	
 54.25	  0.37	
 54.50	  0.38	
 54.75	  0.38	
 55.00	  0.38	
 55.25	  1.21	
 55.50	  2.19	
 55.75	  2.09	
 56.00	  1.23	
 56.25	  0.63	
 56.50	  0.63	
 56.75	  0.61	
 57.00	  0.42	
 57.25	  0.55	
 57.50	  0.36	
 57.75	  0.31	
 58.00	  0.14	
 58.25	  0.11	
 58.50	  0.11	
 58.75	  0.11	
 59.00	  0.11	
 59.25	  0.11	
 59.50	  0.11	
 59.75	  0.45	
 60.00	  0.88	
 60.25	  0.97	
 60.50	  0.80	
 60.75	  0.80	
 61.00	  1.04	
 61.25	  1.29	
 61.50	  1.03	
 61.75	  0.38	
 62.00	  0.11	
 62.25	  0.11	
 62.50	  0.11	
 62.75	  0.11	
 63.00	  0.11	
 63.25	  0.11	
 63.50	  0.11	
 63.75	  0.11	
 64.00	  0.11	
 64.25	  0.11	
 64.50	  0.11	
 64.75	  0.11	
 65.00	  0.11	
 65.25	  0.11	
 65.50	  0.11	
 65.75	  0.11	
 66.00	  0.11	
 66.25	  0.11	
 66.50	  0.60	
 66.75	  1.15	
 67.00	  1.55	
 67.25	  1.13	
 67.50	  0.95	
 67.75	  0.70	
 68.00	  0.69	
 68.25	  1.00	
 68.50	  0.72	
 68.75	  0.50	
 69.00	  0.47	
 69.25	  0.47	
 69.50	  0.47	
 69.75	  0.50	
 70.00	  0.56	
 70.25	  0.60	
 70.50	  0.63	
 70.75	  0.57	
 71.00	  0.78	
 71.25	  0.90	
 71.50	  0.88	
 71.75	  0.83	
 72.00	  0.82	
 72.25	  0.69	
 72.50	  0.69	
 72.75	  0.69	
 73.00	  0.69	
 73.25	  0.62	
 73.50	  0.22	
 73.75	  0.11	
 74.00	  0.39	
 74.25	  0.92	
 74.50	  1.37	
 74.75	  1.48	
 75.00	  1.63	
 75.25	  1.68	
 75.50	  1.50	
 75.75	  1.87	
 76.00	  1.67	
 76.25	  1.38	
 76.50	  1.38	
 76.75	  1.38	
 77.00	  1.28	
 77.25	  1.17	
 77.50	  1.00	
 77.75	  0.45	
 78.00	  0.57	
 78.25	  0.48	
 78.50	  0.41	
 78.75	  0.29	
 79.00	  0.11	
 79.25	  0.11	
 79.50	  0.11	
 79.75	  0.11	
 80.00	  0.11	
 80.25	  0.11	
 80.50	  0.11	
 80.75	  0.11	
 81.00	  0.11	
 81.25	  0.11	
 81.50	  0.11	
 81.75	  0.11	
 82.00	  0.11	
 82.25	  0.11	
 82.50	  0.11	
 82.75	  0.11	
 83.00	  0.11	
 83.25	  0.11	
 83.50	  0.11	
 83.75	  0.11	
 84.00	  0.50	
 84.25	  0.63	
 84.50	  0.68	
 84.75	  0.40	
 85.00	  0.45	
 85.25	  0.37	
 85.50	  0.43	
 85.75	  0.36	
 86.00	  0.21	
 86.25	  0.11	
 86.50	  0.11	
 86.75	  0.11	
 87.00	  0.11	
 87.25	  0.11	
 87.50	  0.27	
 87.75	  0.39	
 88.00	  0.78	
 88.25	  0.90	
 88.50	  0.58	
 88.75	  0.34	
 89.00	  0.11	
 89.25	  0.11	
 89.50	  0.11	
 89.75	  0.11	
 90.00	  0.11	
 90.25	  0.11	
 90.50	  0.46	
 90.75	  1.11	
 91.00	  1.09	
 91.25	  0.39	
 91.50	  0.44	
 91.75	  0.88	
 92.00	  0.88	
 92.25	  0.67	
 92.50	  0.60	
 92.75	  0.47	
 93.00	  0.45	
 93.25	  0.47	
 93.50	  0.59	
 93.75	  0.70	
 94.00	  0.56	
 94.25	  0.55	
 94.50	  0.55	
 94.75	  0.53	
 95.00	  0.51	
 95.25	  0.37	
 95.50	  0.26	
 95.75	  0.23	
 96.00	  0.23	
 96.25	  0.23	
 96.50	  0.23	
 96.75	  0.23	
 97.00	  0.18	
 97.25	  0.11	
 97.50	  0.11	
 97.75	  0.11	
 98.00	  0.50	
 98.25	  1.01	
 98.50	  1.31	
 98.75	  1.65	
 99.00	  1.96	
 99.25	  2.09	
 99.50	  2.52	
 99.75	  2.21	
100.00	  2.00	
100.25	  1.48	
100.50	  1.16	
100.75	  0.93	
101.00	  0.81	
101.25	  0.70	
101.50	  0.67	
101.75	  0.40	
102.00	  0.25	
102.25	  0.11	
102.50	  0.11	
102.75	  0.11	
103.00	  0.11	
103.25	  0.11	
103.50	  0.11	
103.75	  0.11	
104.00	  0.11	
104.25	  0.11	
104.50	  0.11	
104.75	  0.11	
105.00	  0.11	
105.25	  0.11	
105.50	  0.11	
105.75	  0.11	
106.00	  0.11	
106.25	  0.11	
106.50	  0.11	
106.75	  0.11	
107.00	  0.11	
107.25	  0.11	
107.50	  0.29	
107.75	  0.36	
108.00	  0.35	
108.25	  0.36	
108.50	  0.57	
108.75	  0.69	
109.00	  1.39	
109.25	  1.47	
109.50	  0.83	
109.75	  0.23	
110.00	  0.11	
110.25	  0.11	
110.50	  0.11	
110.75	  0.11	
111.00	  0.11	
111.25	  0.11	
111.50	  0.41	
111.75	  0.73	
112.00	  0.73	
112.25	  0.33	
112.50	  0.11	
112.75	  0.11	
113.00	  0.11	
113.25	  0.11	
113.50	  0.11	
113.75	  0.11	
114.00	  0.11	
114.25	  0.11	
114.50	  0.33	
114.75	  0.72	
115.00	  0.81	
115.25	  0.40	
115.50	  0.11	
115.75	  0.31	
116.00	  0.44	
116.25	  0.48	
116.50	  0.19	
116.75	  0.19	
117.00	  0.23	
117.25	  0.36	
117.50	  0.50	
117.75	  0.65	
118.00	  0.71	
118.25	  0.74	
118.50	  0.75	
118.75	  0.58	
119.00	  0.42	
119.25	  0.33	
119.50	  0.33	
119.75	  0.33	
120.00	  0.29	
120.25	  0.18	
120.50	  0.18	
120.75	  0.18	
121.00	  0.18	
121.25	  0.12	
121.50	  0.11	
121.75	  0.11	
122.00	  0.12	
122.25	  0.48	
122.50	  0.63	
122.75	  0.80	
123.00	  1.23	
123.25	  1.39	
123.50	  1.65	
123.75	  1.87	
124.00	  1.83	
124.25	  1.77	
124.50	  1.73	
124.75	  1.65	
125.00	  1.42	
125.25	  1.27	
125.50	  1.06	
125.75	  0.96	
126.00	  0.75	
126.25	  0.48	
126.50	  0.28	
126.75	  0.16	
127.00	  0.11	
127.25	  0.11	
127.50	  0.11	
127.75	  0.11	
128.00	  0.11	
128.25	  0.11	
128.50	  0.11	
128.75	  0.11	
129.00	  0.11	
129.25	  0.11	
129.50	  0.11	
129.75	  0.11	
130.00	  0.11	
130.25	  0.11	
130.50	  0.11	
130.75	  0.11	
131.00	  0.11	
131.25	  0.11	
131.50	  0.22	
131.75	  0.36	
132.00	  0.41	
132.25	  0.36	
132.50	  0.93	
132.75	  1.40	
133.00	  1.25	
133.25	  0.58	
133.50	  0.61	
133.75	  0.58	
134.00	  0.19	
134.25	  0.11	
134.50	  0.11	
134.75	  0.11	
135.00	  0.11	
135.25	  0.11	
135.50	  0.41	
135.75	  0.74	
136.00	  0.74	
136.25	  0.25	
136.50	  0.11	
136.75	  0.11	
137.00	  0.11	
137.25	  0.11	
137.50	  0.11	
137.75	  0.11	
138.00	  0.11	
138.25	  1.62	
138.50	  2.21	
138.75	  2.54	
139.00	  1.68	
139.25	  1.03	
139.50	  0.45	
139.75	  0.90	
140.00	  1.40	
140.25	  1.75	
140.50	  1.12	
140.75	  0.66	
141.00	  0.34	
141.25	  0.37	
141.50	  0.33	
141.75	  0.19	
142.00	  0.19	
142.25	  0.19	
142.50	  0.19	
142.75	  0.19	
143.00	  0.19	
143.25	  0.19	
143.50	  0.19	
143.75	  0.19	
144.00	  0.12	
144.25	  0.11	
144.50	  0.11	
144.75	  0.11	
145.00	  0.11	
145.25	  0.11	
145.50	  0.11	
145.75	  0.11	
146.00	  0.20	
146.25	  0.34	
146.50	  0.39	
146.75	  0.52	
147.00	  0.53	
147.25	  0.73	
147.50	  0.87	
147.75	  1.12	
148.00	  1.18	
148.25	  1.04	
148.50	  0.82	
148.75	  0.66	
149.00	  0.35	
149.25	  0.11	
149.50	  0.11	
149.75	  0.11	
150.00	  0.11	
150.25	  0.11	
150.50	  0.11	
150.75	  0.11	
151.00	  0.11	
151.25	  0.11	
151.50	  0.11	
151.75	  0.11	
152.00	  0.11	
152.25	  0.11	
152.50	  0.11	
152.75	  0.11	
153.00	  0.11	
153.25	  0.11	
153.50	  0.11	
153.75	  0.11	
154.00	  0.11	
154.25	  0.11	
154.50	  0.11	
154.75	  0.11	
155.00	  0.11	
155.25	  0.11	
155.50	  0.32	
155.75	  0.61	
156.00	  0.95	
156.25	  0.64	
156.50	  0.81	
156.75	  0.86	
157.00	  0.73	
157.25	  0.22	
157.50	  0.36	
157.75	  0.36	
158.00	  0.19	
158.25	  0.11	
158.50	  0.11	
158.75	  0.11	
159.00	  0.11	
159.25	  0.11	
159.50	  0.11	
159.75	  0.11	
160.00	  0.11	
160.25	  0.11	
160.50	  0.11	
160.75	  0.11	
161.00	  0.11	
161.25	  0.11	
161.50	  0.11	
161.75	  0.11	
162.00	  0.11	
162.25	  0.11	
162.50	  0.35	
162.75	  0.42	
163.00	  0.87	
163.25	  1.27	
163.50	  2.09	
163.75	  1.64	
164.00	  1.33	
164.25	  1.06	
164.50	  0.82	
164.75	  0.34	
165.00	  0.26	
165.25	  0.25	
165.50	  0.25	
165.75	  0.27	
166.00	  0.30	
166.25	  0.19	
166.50	  0.17	
166.75	  0.17	
167.00	  0.17	
167.25	  0.17	
167.50	  0.13	
167.75	  0.11	
168.00	  0.11	
