 74.56	  4.49	
 74.92	  8.84	
 75.02	 12.77	
 75.18	  8.40	
 75.68	  4.48	
 75.75	  0.12	
 78.11	  3.81	
 79.08	  0.12	
 84.79	  3.15	
 85.28	  7.09	
 85.41	 11.42	
 85.45	  8.39	
 85.78	  4.45	
 86.19	  0.12	
 90.84	  3.59	
 91.71	  0.12	
 93.54	  4.19	
 94.22	  0.12	
 95.42	  3.35	
 96.02	  0.12	
