  9.37	  0.61	  0.71	 10.08	     2	
 33.07	  0.61	  0.50	 33.57	     2	
 33.62	  0.63	  0.64	 34.26	     2	
 36.98	  0.32	  0.68	 37.66	     2	
 41.89	  0.54	  0.64	 42.53	     2	
 55.07	  0.41	  0.71	 55.79	     2	
 55.40	  0.41	  0.70	 56.10	     2	
 79.85	  0.30	  0.63	 80.48	     2	
 90.49	  0.51	  0.50	 90.99	     2	
104.43	  0.37	  0.54	104.96	     2	
105.80	  0.31	  0.65	106.45	     2	
126.96	  0.63	  0.54	127.50	     2	
133.46	  0.39	  0.59	134.05	     2	
135.96	  0.67	  0.58	136.55	     2	
159.98	  0.56	  0.54	160.52	     2	
