  5.25	  0.24	
  6.94	  0.05	
 20.73	  0.18	
 21.38	  0.40	
 23.22	  0.18	
 23.32	  0.35	
 24.38	  0.18	
 24.56	  0.05	
 59.03	  0.20	
 60.59	  0.05	
 62.78	  0.17	
 63.27	  0.39	
 63.66	  0.28	
 63.75	  0.05	
 70.63	  0.16	
 71.53	  0.05	
 73.58	  0.19	
 76.71	  0.05	
 78.70	  0.25	
 79.34	  0.41	
 80.67	  0.21	
 81.42	  0.05	
 83.00	  0.34	
 85.49	  0.05	
 86.41	  0.24	
 87.31	  0.41	
 90.18	  0.22	
 91.28	  0.05	
 94.41	  0.21	
 97.20	  0.05	
116.07	  0.31	
117.43	  0.05	
124.60	  0.16	
125.36	  0.42	
126.30	  0.16	
126.51	  0.05	
150.34	  0.24	
154.19	  0.05	
