  2.06	  0.19	  1.95	  4.02	     4	
  2.23	  0.19	  0.50	  2.73	     4	
  2.25	  0.08	  0.39	  2.63	     4	
  2.26	  0.16	  0.77	  3.03	     4	
  2.29	  0.15	  1.89	  4.17	     4	
  2.46	  0.08	  1.94	  4.40	     4	
  2.48	  0.11	  0.39	  2.87	     4	
  2.61	  0.16	  0.86	  3.47	     4	
  2.68	  0.11	  1.21	  3.89	     4	
  2.80	  0.06	  1.96	  4.76	     4	
  2.83	  0.11	  1.61	  4.44	     4	
  2.86	  0.15	  1.92	  4.77	     4	
  2.90	  0.16	  2.79	  5.69	     4	
  3.16	  0.06	  1.62	  4.78	     4	
  3.21	  0.09	  2.81	  6.02	     4	
  3.32	  0.19	  2.56	  5.88	     4	
  3.36	  0.15	  1.85	  5.21	     4	
  3.54	  0.15	  1.52	  5.07	     4	
  3.75	  0.20	  1.77	  5.52	     4	
  3.87	  0.12	  0.98	  4.85	     4	
  3.88	  0.09	  0.41	  4.29	     4	
  3.91	  0.10	  1.88	  5.79	     4	
 18.54	  0.05	  0.79	 19.34	     4	
 18.74	  0.09	  2.39	 21.13	     4	
 18.86	  0.17	  1.09	 19.95	     4	
 19.16	  0.06	  0.69	 19.85	     4	
 19.21	  0.12	  1.85	 21.06	     4	
 20.53	  0.07	  2.23	 22.77	     4	
 20.86	  0.12	  2.66	 23.52	     4	
 21.29	  0.07	  0.93	 22.22	     4	
 21.65	  0.04	  2.16	 23.82	     4	
 22.00	  0.08	  0.21	 22.21	     4	
 22.41	  0.20	  0.62	 23.03	     4	
 22.52	  0.18	  1.47	 23.99	     4	
 26.03	  0.18	  0.44	 26.47	     4	
 26.03	  0.15	  0.96	 27.00	     4	
 26.09	  0.06	  1.03	 27.12	     4	
 26.09	  0.10	  2.02	 28.11	     4	
 26.13	  0.03	  1.19	 27.32	     4	
 26.38	  0.10	  1.93	 28.30	     4	
 26.52	  0.09	  1.28	 27.80	     4	
 26.60	  0.09	  2.29	 28.89	     4	
 26.67	  0.03	  1.07	 27.75	     4	
 26.78	  0.13	  0.30	 27.08	     4	
 26.85	  0.08	  0.37	 27.22	     4	
 27.45	  0.15	  0.43	 27.88	     4	
 27.68	  0.13	  1.55	 29.23	     4	
 27.71	  0.20	  0.41	 28.12	     4	
 27.72	  0.04	  0.96	 28.68	     4	
 27.74	  0.14	  2.53	 30.27	     4	
 27.78	  0.14	  1.91	 29.69	     4	
 27.83	  0.20	  2.82	 30.65	     4	
 27.84	  0.19	  0.22	 28.06	     4	
 27.90	  0.09	  1.00	 28.91	     4	
 28.00	  0.18	  1.19	 29.19	     4	
 44.12	  0.17	  0.81	 44.93	     4	
 45.42	  0.18	  1.07	 46.49	     4	
 45.64	  0.10	  2.44	 48.08	     4	
 45.86	  0.12	  1.73	 47.59	     4	
 46.15	  0.18	  0.14	 46.29	     4	
 46.16	  0.11	  2.97	 49.13	     4	
 46.59	  0.12	  1.39	 47.98	     4	
 46.63	  0.17	  2.28	 48.91	     4	
 46.84	  0.15	  1.47	 48.31	     4	
 46.92	  0.06	  2.62	 49.54	     4	
 47.20	  0.03	  1.02	 48.22	     4	
 50.07	  0.12	  0.51	 50.59	     4	
 50.09	  0.07	  0.74	 50.82	     4	
 50.20	  0.11	  2.87	 53.07	     4	
 50.20	  0.06	  2.94	 53.14	     4	
 50.31	  0.19	  0.20	 50.51	     4	
 50.31	  0.06	  2.77	 53.08	     4	
 50.44	  0.20	  2.61	 53.04	     4	
 50.46	  0.13	  2.19	 52.65	     4	
 50.49	  0.10	  2.88	 53.37	     4	
 50.63	  0.05	  0.93	 51.56	     4	
 50.67	  0.10	  2.42	 53.08	     4	
 50.79	  0.20	  2.84	 53.62	     4	
 50.92	  0.06	  2.55	 53.47	     4	
 50.94	  0.03	  0.64	 51.58	     4	
 51.04	  0.13	  0.55	 51.59	     4	
 51.06	  0.14	  0.25	 51.31	     4	
 51.11	  0.12	  2.36	 53.47	     4	
 51.11	  0.05	  1.66	 52.77	     4	
 51.33	  0.20	  2.00	 53.33	     4	
 51.40	  0.17	  1.52	 52.92	     4	
 51.54	  0.11	  1.43	 52.96	     4	
 51.67	  0.08	  0.12	 51.79	     4	
 51.71	  0.18	  0.81	 52.52	     4	
 51.83	  0.11	  1.31	 53.15	     4	
 51.98	  0.15	  0.25	 52.22	     4	
 51.98	  0.06	  1.60	 53.59	     4	
 51.99	  0.10	  0.42	 52.41	     4	
 66.62	  0.05	  2.03	 68.65	     4	
 67.64	  0.03	  2.72	 70.36	     4	
 68.39	  0.03	  1.67	 70.06	     4	
 69.22	  0.05	  2.73	 71.95	     4	
 69.54	  0.05	  0.86	 70.41	     4	
 69.94	  0.18	  2.36	 72.30	     4	
 70.09	  0.11	  1.63	 71.72	     4	
 70.09	  0.03	  2.42	 72.51	     4	
 70.25	  0.16	  1.50	 71.75	     4	
 70.41	  0.16	  0.13	 70.55	     4	
 71.08	  0.03	  2.58	 73.66	     4	
 71.23	  0.19	  1.00	 72.23	     4	
 74.03	  0.16	  0.91	 74.94	     4	
 74.08	  0.16	  0.81	 74.89	     4	
 74.39	  0.06	  2.14	 76.54	     4	
 74.46	  0.11	  2.88	 77.34	     4	
 74.57	  0.13	  1.28	 75.85	     4	
 74.72	  0.11	  2.24	 76.96	     4	
 74.75	  0.08	  0.38	 75.13	     4	
 74.78	  0.17	  2.39	 77.17	     4	
 74.84	  0.17	  1.97	 76.81	     4	
 74.87	  0.15	  0.79	 75.66	     4	
 74.93	  0.04	  1.44	 76.37	     4	
 74.94	  0.07	  0.23	 75.17	     4	
 74.94	  0.19	  0.71	 75.65	     4	
 75.09	  0.16	  0.68	 75.77	     4	
 75.10	  0.12	  2.44	 77.54	     4	
 75.25	  0.05	  0.48	 75.73	     4	
 75.50	  0.16	  1.59	 77.10	     4	
 75.55	  0.16	  1.42	 76.97	     4	
 75.71	  0.08	  0.56	 76.27	     4	
 75.79	  0.15	  2.91	 78.70	     4	
 75.79	  0.20	  0.46	 76.25	     4	
 75.80	  0.10	  0.33	 76.14	     4	
 75.87	  0.07	  2.82	 78.69	     4	
 75.91	  0.13	  0.76	 76.67	     4	
 92.28	  0.04	  1.19	 93.48	     4	
 92.33	  0.09	  1.51	 93.84	     4	
 93.67	  0.11	  0.30	 93.97	     4	
 95.23	  0.04	  0.31	 95.54	     4	
 95.36	  0.03	  0.77	 96.13	     4	
 98.01	  0.16	  1.58	 99.59	     4	
 98.06	  0.09	  1.48	 99.55	     4	
 98.08	  0.12	  2.36	100.44	     4	
 98.13	  0.04	  0.16	 98.29	     4	
 98.22	  0.07	  0.38	 98.60	     4	
 98.29	  0.17	  1.65	 99.94	     4	
 98.30	  0.07	  2.41	100.71	     4	
 98.45	  0.06	  0.24	 98.69	     4	
 98.58	  0.15	  2.87	101.45	     4	
 98.81	  0.05	  1.50	100.31	     4	
 98.83	  0.11	  0.54	 99.36	     4	
 98.89	  0.17	  2.66	101.55	     4	
 99.12	  0.07	  1.80	100.91	     4	
 99.15	  0.10	  1.59	100.74	     4	
 99.31	  0.13	  0.80	100.11	     4	
 99.32	  0.17	  0.81	100.13	     4	
 99.35	  0.12	  1.79	101.15	     4	
 99.48	  0.11	  0.82	100.30	     4	
 99.53	  0.09	  1.59	101.11	     4	
 99.55	  0.04	  1.44	100.99	     4	
 99.62	  0.20	  0.65	100.27	     4	
 99.64	  0.06	  0.55	100.19	     4	
 99.70	  0.17	  0.71	100.40	     4	
 99.70	  0.13	  2.24	101.94	     4	
 99.75	  0.19	  2.76	102.50	     4	
 99.82	  0.06	  1.47	101.30	     4	
 99.84	  0.08	  0.64	100.48	     4	
114.62	  0.10	  0.83	115.45	     4	
115.22	  0.17	  2.82	118.04	     4	
115.41	  0.14	  0.57	115.98	     4	
115.56	  0.08	  2.51	118.07	     4	
115.69	  0.19	  2.09	117.78	     4	
116.63	  0.13	  1.69	118.32	     4	
116.96	  0.11	  1.90	118.86	     4	
118.48	  0.10	  2.94	121.41	     4	
118.50	  0.12	  1.85	120.35	     4	
118.50	  0.15	  2.81	121.31	     4	
118.50	  0.07	  1.90	120.40	     4	
122.68	  0.06	  2.51	125.19	     4	
122.74	  0.08	  2.38	125.12	     4	
122.83	  0.08	  2.94	125.77	     4	
122.95	  0.10	  1.58	124.53	     4	
122.99	  0.09	  0.50	123.49	     4	
123.10	  0.13	  1.85	124.95	     4	
123.16	  0.15	  0.15	123.31	     4	
123.24	  0.19	  1.70	124.94	     4	
123.49	  0.13	  1.06	124.54	     4	
123.57	  0.16	  0.17	123.74	     4	
123.57	  0.15	  2.75	126.32	     4	
123.69	  0.17	  2.49	126.18	     4	
123.78	  0.08	  2.66	126.44	     4	
123.79	  0.09	  1.81	125.60	     4	
123.84	  0.07	  0.39	124.23	     4	
123.89	  0.04	  1.33	125.21	     4	
123.98	  0.05	  2.09	126.08	     4	
139.40	  0.11	  0.82	140.22	     4	
140.00	  0.12	  1.30	141.30	     4	
140.43	  0.10	  1.49	141.92	     4	
140.91	  0.16	  2.35	143.26	     4	
141.11	  0.18	  1.61	142.72	     4	
141.17	  0.18	  0.55	141.73	     4	
141.20	  0.14	  0.50	141.70	     4	
141.47	  0.19	  1.53	142.99	     4	
141.54	  0.12	  0.48	142.02	     4	
142.31	  0.14	  0.93	143.24	     4	
142.45	  0.04	  0.91	143.37	     4	
142.56	  0.15	  0.74	143.30	     4	
142.73	  0.09	  1.78	144.51	     4	
143.04	  0.06	  0.97	144.01	     4	
146.05	  0.04	  0.77	146.82	     4	
146.11	  0.18	  1.96	148.08	     4	
146.17	  0.08	  0.34	146.51	     4	
146.23	  0.15	  2.80	149.03	     4	
146.28	  0.14	  2.41	148.69	     4	
146.35	  0.09	  2.51	148.86	     4	
146.37	  0.03	  0.51	146.87	     4	
146.42	  0.20	  2.67	149.09	     4	
146.43	  0.19	  1.60	148.03	     4	
146.46	  0.07	  1.91	148.37	     4	
146.57	  0.13	  1.78	148.35	     4	
146.68	  0.13	  0.80	147.48	     4	
146.77	  0.06	  0.91	147.68	     4	
146.81	  0.10	  0.65	147.46	     4	
146.95	  0.08	  1.76	148.71	     4	
146.98	  0.03	  0.90	147.88	     4	
147.11	  0.19	  2.09	149.20	     4	
147.12	  0.10	  2.30	149.42	     4	
147.24	  0.05	  1.79	149.03	     4	
147.25	  0.20	  0.82	148.07	     4	
147.32	  0.19	  0.36	147.68	     4	
147.33	  0.14	  2.41	149.74	     4	
147.38	  0.04	  1.01	148.39	     4	
147.40	  0.09	  1.89	149.28	     4	
147.42	  0.18	  0.74	148.16	     4	
147.53	  0.20	  1.51	149.03	     4	
147.57	  0.16	  1.16	148.73	     4	
147.61	  0.15	  1.92	149.53	     4	
147.73	  0.15	  0.70	148.43	     4	
147.77	  0.04	  2.10	149.87	     4	
147.84	  0.17	  2.50	150.34	     4	
147.88	  0.04	  0.95	148.83	     4	
147.89	  0.03	  1.81	149.71	     4	
147.90	  0.15	  1.97	149.86	     4	
162.59	  0.20	  2.16	164.75	     4	
162.83	  0.04	  2.15	164.98	     4	
163.63	  0.05	  1.96	165.59	     4	
163.76	  0.19	  0.49	164.25	     4	
164.21	  0.15	  0.44	164.64	     4	
164.66	  0.05	  1.82	166.48	     4	
164.68	  0.12	  2.63	167.31	     4	
164.84	  0.17	  2.27	167.11	     4	
165.18	  0.19	  1.20	166.38	     4	
166.33	  0.14	  0.61	166.94	     4	
166.98	  0.04	  1.52	168.50	     4	
