 10.63	  0.26	
 11.23	  0.01	
 11.51	  0.26	
 11.66	  0.51	
 11.95	  0.76	
 12.11	  0.51	
 12.26	  0.26	
 12.30	  0.51	
 12.55	  0.26	
 12.90	  0.01	
 14.18	  0.26	
 14.71	  0.51	
 14.78	  0.26	
 14.88	  0.51	
 15.31	  0.26	
 15.48	  0.01	
 15.56	  0.26	
 16.02	  0.51	
 16.10	  0.76	
 16.16	  0.51	
 16.45	  0.76	
 16.62	  0.51	
 16.64	  0.76	
 16.70	  0.51	
 16.73	  0.76	
 16.88	  1.01	
 17.05	  0.76	
 17.13	  1.01	
 17.24	  0.76	
 17.33	  0.51	
 17.42	  0.76	
 17.48	  0.51	
 17.73	  0.26	
 17.98	  0.51	
 18.02	  0.26	
 18.49	  0.51	
 18.58	  0.26	
 19.09	  0.01	
 19.10	  0.26	
 19.42	  0.51	
 19.70	  0.26	
 20.02	  0.01	
 20.37	  0.26	
 20.97	  0.01	
 22.86	  0.26	
 22.98	  0.51	
 23.06	  0.76	
 23.12	  1.01	
 23.37	  1.26	
 23.46	  1.01	
 23.58	  0.76	
 23.66	  0.51	
 23.72	  0.26	
 23.97	  0.01	
 24.31	  0.26	
 24.91	  0.01	
 34.53	  0.26	
 34.60	  0.51	
 34.79	  0.76	
 34.99	  1.01	
 35.13	  0.76	
 35.16	  1.01	
 35.20	  0.76	
 35.39	  0.51	
 35.51	  0.76	
 35.59	  0.51	
 35.76	  0.26	
 35.79	  0.51	
 35.91	  0.76	
 35.94	  1.01	
 35.97	  1.26	
 36.00	  1.51	
 36.11	  1.26	
 36.39	  1.01	
 36.42	  1.26	
 36.51	  1.01	
 36.54	  0.76	
 36.55	  1.01	
 36.57	  0.76	
 36.60	  0.51	
 36.97	  0.76	
 37.02	  0.51	
 37.03	  0.76	
 37.15	  0.51	
 37.57	  0.26	
 37.60	  0.51	
 37.63	  0.26	
 37.79	  0.51	
 38.20	  0.26	
 38.24	  0.51	
 38.36	  0.76	
 38.37	  1.01	
 38.39	  0.76	
 38.42	  1.01	
 38.52	  1.26	
 38.84	  1.01	
 38.96	  0.76	
 38.97	  0.51	
 39.02	  0.26	
 39.12	  0.01	
 39.17	  0.26	
 39.49	  0.51	
 39.77	  0.26	
 39.90	  0.51	
 40.09	  0.26	
 40.50	  0.01	
 40.66	  0.26	
 41.17	  0.51	
 41.26	  0.26	
 41.45	  0.51	
 41.62	  0.76	
 41.77	  0.51	
 42.05	  0.26	
 42.22	  0.01	
 42.44	  0.26	
 42.83	  0.51	
 43.04	  0.26	
 43.23	  0.51	
 43.38	  0.76	
 43.43	  0.51	
 43.83	  0.26	
 43.91	  0.51	
 43.98	  0.26	
 44.51	  0.01	
 44.62	  0.26	
 44.74	  0.51	
 45.22	  0.26	
 45.34	  0.01	
 45.35	  0.26	
 45.73	  0.51	
 45.95	  0.26	
 46.19	  0.51	
 46.33	  0.26	
 46.53	  0.51	
 46.67	  0.76	
 46.79	  0.51	
 46.88	  0.76	
 47.13	  0.51	
 47.27	  0.26	
 47.48	  0.01	
 47.53	  0.26	
 47.56	  0.51	
 47.81	  0.76	
 47.90	  1.01	
 47.91	  1.26	
 48.13	  1.01	
 48.14	  1.26	
 48.16	  1.01	
 48.28	  1.26	
 48.41	  1.01	
 48.41	  1.26	
 48.50	  1.01	
 48.51	  0.76	
 48.74	  0.51	
 48.88	  0.26	
 49.01	  0.01	
 58.70	  0.26	
 58.86	  0.51	
 58.87	  0.76	
 58.88	  1.01	
 59.07	  1.26	
 59.14	  1.51	
 59.30	  1.26	
 59.46	  1.01	
 59.47	  0.76	
 59.48	  0.51	
 59.67	  0.26	
 59.74	  0.01	
 59.81	  0.26	
 59.94	  0.51	
 60.00	  0.76	
 60.41	  0.51	
 60.54	  0.26	
 60.60	  0.01	
 61.17	  0.26	
 61.77	  0.01	
 61.90	  0.26	
 62.10	  0.51	
 62.50	  0.26	
 62.63	  0.51	
 62.69	  0.76	
 62.70	  0.51	
 62.70	  0.76	
 63.02	  1.01	
 63.23	  0.76	
 63.25	  1.01	
 63.29	  0.76	
 63.30	  0.51	
 63.55	  0.76	
 63.62	  0.51	
 63.82	  0.76	
 63.85	  1.01	
 63.85	  0.76	
 64.15	  0.51	
 64.42	  0.26	
 64.45	  0.01	
 64.47	  0.26	
 64.67	  0.51	
 64.67	  0.76	
 64.78	  1.01	
 64.82	  1.26	
 64.84	  1.51	
 65.07	  1.26	
 65.27	  1.01	
 65.27	  0.76	
 65.38	  0.51	
 65.42	  0.26	
 65.44	  0.01	
 65.91	  0.26	
 65.93	  0.51	
 65.99	  0.76	
 66.15	  1.01	
 66.37	  1.26	
 66.51	  1.01	
 66.52	  1.26	
 66.53	  1.51	
 66.53	  1.26	
 66.59	  1.01	
 66.70	  1.26	
 66.73	  1.51	
 66.75	  1.26	
 66.96	  1.51	
 66.97	  1.26	
 67.12	  1.01	
 67.13	  0.76	
 67.30	  0.51	
 67.33	  0.26	
 67.56	  0.51	
 67.56	  0.26	
 67.68	  0.51	
 67.71	  0.76	
 68.16	  0.51	
 68.28	  0.26	
 68.31	  0.01	
 68.67	  0.26	
 68.75	  0.51	
 69.27	  0.26	
 69.35	  0.01	
 69.92	  0.26	
 70.08	  0.51	
 70.15	  0.76	
 70.35	  1.01	
 70.52	  0.76	
 70.68	  0.51	
 70.75	  0.26	
 70.95	  0.01	
 71.12	  0.26	
 71.72	  0.01	
 72.37	  0.26	
 72.49	  0.51	
 72.97	  0.26	
 73.09	  0.01	
 83.14	  0.26	
 83.25	  0.51	
 83.29	  0.76	
 83.41	  1.01	
 83.74	  0.76	
 83.85	  0.51	
 83.89	  0.26	
 84.01	  0.01	
 84.13	  0.26	
 84.32	  0.51	
 84.38	  0.76	
 84.73	  0.51	
 84.92	  0.26	
 84.98	  0.01	
 89.27	  0.26	
 89.53	  0.51	
 89.62	  0.76	
 89.87	  0.51	
 89.90	  0.76	
 90.13	  0.51	
 90.22	  0.26	
 90.45	  0.51	
 90.50	  0.26	
 91.05	  0.01	
 91.67	  0.26	
 92.27	  0.01	
 92.72	  0.26	
 93.32	  0.01	
 94.17	  0.26	
 94.77	  0.01	
 95.61	  0.26	
 95.86	  0.51	
 96.20	  0.76	
 96.21	  0.51	
 96.42	  0.76	
 96.46	  0.51	
 96.80	  0.26	
 97.02	  0.01	
106.96	  0.26	
107.56	  0.01	
107.86	  0.26	
107.86	  0.51	
108.41	  0.76	
108.46	  0.51	
108.46	  0.26	
108.47	  0.51	
108.73	  0.76	
109.01	  0.51	
109.07	  0.26	
109.33	  0.01	
109.39	  0.26	
109.59	  0.51	
109.73	  0.76	
109.99	  0.51	
110.19	  0.26	
110.21	  0.51	
110.33	  0.26	
110.41	  0.51	
110.81	  0.26	
111.01	  0.01	
111.56	  0.26	
111.84	  0.51	
112.16	  0.26	
112.39	  0.51	
112.42	  0.76	
112.44	  0.51	
112.50	  0.76	
112.77	  1.01	
112.85	  1.26	
112.99	  1.01	
113.02	  0.76	
113.10	  0.51	
113.37	  0.26	
113.41	  0.51	
113.45	  0.26	
113.71	  0.51	
113.84	  0.76	
114.01	  0.51	
114.07	  0.76	
114.17	  1.01	
114.29	  1.26	
114.31	  1.01	
114.44	  0.76	
114.54	  1.01	
114.67	  0.76	
114.77	  0.51	
114.78	  0.76	
114.89	  0.51	
115.14	  0.26	
115.18	  0.51	
115.36	  0.76	
115.38	  0.51	
115.68	  0.76	
115.78	  0.51	
115.96	  0.26	
116.17	  0.51	
116.19	  0.76	
116.28	  0.51	
116.38	  0.76	
116.51	  1.01	
116.76	  1.26	
116.76	  1.51	
116.77	  1.26	
116.79	  1.01	
116.89	  1.26	
116.98	  1.01	
117.11	  0.76	
117.34	  1.01	
117.36	  0.76	
117.36	  0.51	
117.49	  0.26	
117.83	  0.51	
117.94	  0.26	
118.43	  0.01	
118.70	  0.26	
118.81	  0.51	
119.30	  0.26	
119.41	  0.01	
130.58	  0.26	
131.18	  0.01	
131.88	  0.26	
131.99	  0.51	
132.38	  0.76	
132.48	  0.51	
132.50	  0.76	
132.57	  1.01	
132.59	  0.76	
132.87	  1.01	
132.98	  0.76	
133.10	  0.51	
133.17	  0.26	
133.35	  0.51	
133.36	  0.76	
133.44	  1.01	
133.47	  0.76	
133.88	  1.01	
133.95	  0.76	
133.96	  0.51	
134.04	  0.26	
134.47	  0.51	
134.48	  0.26	
135.07	  0.01	
135.08	  0.26	
135.36	  0.51	
135.68	  0.26	
135.96	  0.01	
136.47	  0.26	
136.65	  0.51	
136.75	  0.76	
136.77	  1.01	
137.07	  0.76	
137.22	  1.01	
137.25	  0.76	
137.35	  0.51	
137.37	  0.26	
137.82	  0.01	
137.98	  0.26	
138.34	  0.51	
138.36	  0.76	
138.55	  1.01	
138.58	  0.76	
138.94	  0.51	
138.96	  0.26	
138.98	  0.51	
139.15	  0.26	
139.29	  0.51	
139.40	  0.76	
139.58	  0.51	
139.59	  0.76	
139.89	  0.51	
140.00	  0.26	
140.19	  0.01	
140.20	  0.26	
140.74	  0.51	
140.77	  0.76	
140.80	  0.51	
140.88	  0.76	
140.91	  1.01	
140.92	  1.26	
141.21	  1.51	
141.34	  1.26	
141.37	  1.01	
141.37	  1.26	
141.46	  1.51	
141.48	  1.26	
141.51	  1.01	
141.52	  0.76	
141.57	  1.01	
141.81	  0.76	
141.97	  0.51	
142.06	  0.76	
142.06	  0.51	
142.17	  0.26	
142.34	  0.51	
142.57	  0.76	
142.66	  0.51	
142.94	  0.26	
143.01	  0.51	
143.17	  0.26	
143.32	  0.51	
143.43	  0.76	
143.47	  1.01	
143.61	  0.76	
143.80	  1.01	
143.89	  1.26	
143.92	  1.01	
144.03	  0.76	
144.07	  0.51	
144.38	  0.76	
144.40	  0.51	
144.42	  0.76	
144.49	  0.51	
144.98	  0.26	
145.02	  0.01	
155.82	  0.26	
156.42	  0.01	
156.95	  0.26	
157.12	  0.51	
157.55	  0.26	
157.72	  0.01	
157.95	  0.26	
158.52	  0.51	
158.55	  0.26	
158.80	  0.51	
159.12	  0.26	
159.36	  0.51	
159.40	  0.26	
159.96	  0.01	
160.00	  0.26	
160.33	  0.51	
160.60	  0.26	
160.92	  0.51	
160.93	  0.26	
161.49	  0.51	
161.52	  0.26	
161.66	  0.51	
161.76	  0.76	
162.09	  0.51	
162.26	  0.26	
162.26	  0.51	
162.36	  0.26	
162.41	  0.51	
162.86	  0.26	
163.01	  0.01	
163.24	  0.26	
163.56	  0.51	
163.84	  0.26	
163.91	  0.51	
164.16	  0.26	
164.51	  0.01	
165.29	  0.26	
165.34	  0.51	
165.34	  0.76	
165.89	  0.51	
165.90	  0.76	
165.94	  0.51	
165.94	  0.26	
166.40	  0.51	
166.50	  0.26	
166.88	  0.51	
166.91	  0.76	
166.92	  1.01	
167.00	  0.76	
167.36	  1.01	
167.48	  0.76	
167.51	  0.51	
167.52	  0.26	
167.79	  0.51	
167.96	  0.26	
168.37	  0.51	
168.39	  0.26	
168.97	  0.01	
