  8.33	  0.32	
  9.01	  0.02	
  9.30	  0.68	
  9.37	  1.29	
  9.92	  0.63	
 10.08	  0.02	
 11.51	  0.50	
 12.21	  0.02	
 15.47	  0.51	
 16.07	  0.02	
 33.07	  0.63	
 33.29	  1.11	
 33.57	  0.51	
 33.62	  1.14	
 33.92	  0.65	
 34.26	  0.02	
 35.32	  0.40	
 35.90	  0.02	
 36.98	  0.34	
 37.66	  0.02	
 39.91	  0.35	
 40.55	  0.02	
 41.67	  0.44	
 41.89	  0.99	
 42.14	  1.65	
 42.27	  1.23	
 42.53	  0.69	
 42.68	  0.02	
 55.07	  0.43	
 55.39	  0.85	
 55.40	  1.26	
 55.79	  0.85	
 55.94	  0.43	
 56.10	  0.02	
 56.73	  0.38	
 57.21	  0.94	
 57.39	  0.59	
 57.78	  0.02	
 58.83	  0.67	
 59.54	  0.02	
 60.98	  0.33	
 61.63	  0.02	
 66.17	  0.38	
 66.77	  0.02	
 78.58	  0.54	
 78.58	  0.88	
 79.13	  0.54	
 79.30	  0.02	
 79.85	  0.32	
 80.48	  0.02	
 81.38	  0.70	
 82.02	  0.02	
 88.06	  0.53	
 88.07	  1.03	
 88.57	  1.36	
 88.59	  0.85	
 88.79	  0.35	
 89.12	  0.02	
 90.49	  0.53	
 90.99	  0.02	
103.77	  0.38	
104.43	  0.74	
104.51	  0.39	
104.96	  0.02	
105.80	  0.33	
106.45	  0.02	
111.63	  0.63	
112.34	  0.02	
126.96	  0.65	
127.50	  0.02	
129.28	  0.59	
129.50	  0.98	
129.83	  0.41	
130.06	  0.02	
130.73	  0.40	
131.32	  0.02	
132.78	  0.44	
133.46	  0.82	
133.49	  0.41	
133.50	  1.05	
134.05	  0.66	
134.14	  0.02	
135.38	  0.57	
135.63	  1.19	
135.92	  0.64	
135.96	  1.31	
136.30	  0.69	
136.55	  0.02	
154.35	  0.62	
154.87	  0.02	
155.57	  0.62	
156.28	  0.02	
156.47	  0.34	
156.98	  0.02	
158.47	  0.53	
159.08	  0.02	
159.98	  0.58	
160.52	  0.02	
161.74	  0.39	
162.26	  0.02	
162.34	  0.49	
163.03	  0.02	
