  2.07	  0.08	  2.38	  4.45	     4	
  2.09	  0.14	  0.66	  2.75	     4	
  2.11	  0.12	  0.47	  2.57	     4	
  2.11	  0.18	  1.52	  3.63	     4	
  2.17	  0.03	  2.75	  4.93	     4	
  2.20	  0.12	  1.19	  3.39	     4	
  2.26	  0.14	  2.15	  4.40	     4	
  2.26	  0.13	  0.89	  3.15	     4	
  2.36	  0.05	  2.99	  5.35	     4	
  2.37	  0.16	  0.95	  3.32	     4	
  2.79	  0.12	  2.72	  5.51	     4	
  2.82	  0.08	  0.54	  3.36	     4	
  2.89	  0.16	  0.53	  3.42	     4	
  2.89	  0.10	  0.70	  3.59	     4	
  2.93	  0.04	  1.36	  4.29	     4	
  2.99	  0.12	  0.75	  3.74	     4	
  3.04	  0.18	  2.08	  5.11	     4	
  3.07	  0.08	  2.14	  5.21	     4	
  3.07	  0.04	  1.33	  4.40	     4	
  3.24	  0.14	  2.66	  5.89	     4	
  3.26	  0.19	  0.24	  3.49	     4	
  3.29	  0.05	  1.61	  4.90	     4	
  3.32	  0.10	  2.94	  6.26	     4	
  3.44	  0.20	  2.60	  6.04	     4	
  3.53	  0.15	  2.62	  6.15	     4	
  3.71	  0.15	  2.46	  6.17	     4	
  3.78	  0.14	  0.81	  4.59	     4	
  3.78	  0.07	  2.61	  6.39	     4	
  3.84	  0.14	  2.86	  6.70	     4	
  3.92	  0.10	  0.15	  4.07	     4	
  3.94	  0.15	  1.17	  5.11	     4	
  8.33	  0.30	  0.68	  9.01	     2	
 10.86	  0.25	  0.60	 11.46	     3	
 10.91	  0.25	  0.60	 11.51	     3	
 10.93	  0.25	  0.60	 11.53	     3	
 11.01	  0.25	  0.60	 11.61	     3	
 11.51	  0.25	  0.60	 12.11	     3	
 11.73	  0.25	  0.60	 12.33	     3	
 11.98	  0.25	  0.60	 12.58	     3	
 12.38	  0.25	  0.60	 12.98	     3	
 12.55	  0.25	  0.60	 13.15	     3	
 12.74	  0.25	  0.60	 13.34	     3	
 12.90	  0.25	  0.60	 13.50	     3	
 13.12	  0.25	  0.60	 13.72	     3	
 13.25	  0.25	  0.60	 13.85	     3	
 13.32	  0.25	  0.60	 13.92	     3	
 14.57	  0.25	  0.60	 15.17	     3	
 14.85	  0.25	  0.60	 15.45	     3	
 15.13	  0.25	  0.60	 15.73	     3	
 15.36	  0.25	  0.60	 15.96	     3	
 15.53	  0.25	  0.60	 16.13	     3	
 15.60	  0.26	  0.37	 15.97	     5	
 15.75	  0.25	  0.60	 16.35	     3	
 16.77	  0.25	  0.60	 17.37	     3	
 17.67	  0.25	  0.60	 18.27	     3	
 17.82	  0.25	  0.60	 18.42	     3	
 17.88	  0.25	  0.60	 18.48	     3	
 17.95	  0.25	  0.60	 18.55	     3	
 18.34	  0.25	  0.60	 18.94	     3	
 18.39	  0.25	  0.60	 18.99	     3	
 18.52	  0.25	  0.60	 19.12	     3	
 18.70	  0.25	  0.60	 19.30	     3	
 18.75	  0.15	  1.73	 20.48	     4	
 18.89	  0.25	  0.60	 19.49	     3	
 19.08	  0.14	  1.01	 20.09	     4	
 19.15	  0.25	  0.60	 19.75	     3	
 19.24	  1.85	  0.61	 19.86	     1	
 19.26	  0.25	  0.60	 19.86	     3	
 19.28	  0.20	  2.34	 21.62	     4	
 19.29	  0.25	  0.60	 19.89	     3	
 19.82	  0.25	  0.60	 20.42	     3	
 20.11	  0.25	  0.60	 20.71	     3	
 20.12	  0.06	  0.16	 20.28	     4	
 20.26	  0.25	  0.60	 20.86	     3	
 20.27	  0.11	  2.46	 22.74	     4	
 20.92	  0.25	  0.60	 21.52	     3	
 21.13	  0.07	  0.93	 22.06	     4	
 21.20	  0.25	  0.60	 21.80	     3	
 21.73	  0.25	  0.60	 22.33	     3	
 22.23	  0.04	  0.89	 23.12	     4	
 22.34	  0.25	  0.60	 22.94	     3	
 22.73	  0.25	  0.60	 23.33	     3	
 22.76	  0.09	  1.67	 24.43	     4	
 22.96	  0.25	  0.60	 23.56	     3	
 23.09	  0.10	  1.27	 24.36	     4	
 23.33	  0.25	  0.60	 23.93	     3	
 23.36	  0.25	  0.60	 23.96	     3	
 23.70	  0.25	  0.60	 24.30	     3	
 23.91	  0.25	  0.60	 24.51	     3	
 23.92	  0.25	  0.60	 24.52	     3	
 23.96	  0.25	  0.60	 24.56	     3	
 24.16	  0.25	  0.60	 24.76	     3	
 24.48	  0.25	  0.60	 25.08	     3	
 24.49	  0.25	  0.60	 25.09	     3	
 25.43	  0.18	  1.09	 26.51	     5	
 26.12	  0.04	  1.26	 27.38	     4	
 26.13	  0.10	  2.30	 28.43	     4	
 26.14	  0.13	  2.05	 28.20	     4	
 26.26	  0.09	  2.92	 29.18	     4	
 26.39	  0.03	  2.71	 29.10	     4	
 26.46	  0.10	  2.35	 28.80	     4	
 26.47	  0.10	  2.05	 28.52	     4	
 26.48	  0.14	  1.90	 28.38	     4	
 26.49	  0.05	  0.72	 27.21	     4	
 26.65	  0.15	  1.35	 27.99	     4	
 26.72	  0.06	  0.82	 27.54	     4	
 26.82	  0.12	  1.60	 28.42	     4	
 26.90	  0.06	  0.56	 27.46	     4	
 26.96	  0.15	  1.79	 28.75	     4	
 27.08	  0.08	  2.94	 30.02	     4	
 27.14	  0.07	  2.81	 29.95	     4	
 27.25	  0.20	  0.37	 27.62	     4	
 27.31	  0.10	  0.87	 28.18	     4	
 27.38	  0.11	  1.10	 28.48	     4	
 27.47	  0.04	  2.50	 29.97	     4	
 27.63	  0.13	  1.12	 28.74	     4	
 27.70	  0.13	  3.13	 30.84	     5	
 27.77	  0.18	  0.62	 28.38	     4	
 27.88	  0.14	  1.40	 29.28	     4	
 27.97	  0.20	  0.75	 28.72	     4	
 27.99	  0.07	  1.95	 29.94	     4	
 29.49	  0.11	  2.53	 32.02	     5	
 34.79	  0.25	  0.60	 35.39	     3	
 35.13	  0.25	  0.60	 35.73	     3	
 35.18	  0.25	  0.60	 35.78	     3	
 35.32	  0.38	  0.58	 35.90	     2	
 35.42	  0.25	  0.60	 36.02	     3	
 35.69	  0.25	  0.60	 36.29	     3	
 35.83	  0.25	  0.60	 36.43	     3	
 35.84	  0.25	  0.60	 36.44	     3	
 36.81	  2.03	  0.82	 37.63	     1	
 37.36	  0.25	  0.60	 37.96	     3	
 37.61	  0.25	  0.60	 38.21	     3	
 37.73	  0.25	  0.60	 38.33	     3	
 38.15	  0.25	  0.60	 38.75	     3	
 38.19	  0.25	  0.60	 38.79	     3	
 39.27	  0.25	  0.60	 39.87	     3	
 39.70	  0.25	  0.60	 40.30	     3	
 40.52	  0.25	  0.60	 41.12	     3	
 40.55	  0.25	  0.60	 41.15	     3	
 40.71	  0.25	  0.60	 41.31	     3	
 40.94	  0.13	  2.76	 43.69	     5	
 41.43	  0.25	  0.60	 42.03	     3	
 41.47	  0.25	  0.60	 42.07	     3	
 41.58	  0.25	  0.60	 42.18	     3	
 41.94	  0.25	  0.60	 42.54	     3	
 42.14	  0.67	  0.54	 42.68	     2	
 42.34	  0.25	  0.60	 42.94	     3	
 43.00	  0.14	  3.21	 46.21	     5	
 43.48	  0.25	  0.60	 44.08	     3	
 43.52	  0.25	  0.60	 44.12	     3	
 43.58	  0.25	  0.60	 44.18	     3	
 43.59	  0.16	  1.38	 44.96	     4	
 43.62	  0.25	  0.60	 44.22	     3	
 43.69	  0.03	  1.39	 45.09	     4	
 43.69	  0.13	  1.49	 45.18	     4	
 43.86	  0.25	  0.60	 44.46	     3	
 44.24	  0.10	  1.09	 45.34	     4	
 44.41	  0.25	  0.60	 45.01	     3	
 44.50	  1.51	  0.63	 45.13	     1	
 44.60	  0.25	  0.60	 45.20	     3	
 44.75	  0.07	  1.46	 46.21	     4	
 44.81	  0.19	  0.71	 45.53	     4	
 44.93	  0.25	  0.60	 45.53	     3	
 44.99	  0.25	  0.60	 45.59	     3	
 45.14	  0.25	  0.60	 45.74	     3	
 45.22	  0.17	  1.00	 46.21	     4	
 45.23	  0.25	  0.60	 45.83	     3	
 45.39	  0.25	  0.60	 45.99	     3	
 45.41	  0.25	  0.60	 46.01	     3	
 45.93	  0.25	  0.60	 46.53	     3	
 46.23	  0.25	  0.60	 46.83	     3	
 46.62	  0.25	  0.60	 47.22	     3	
 47.15	  0.07	  1.74	 48.90	     4	
 47.80	  0.25	  0.60	 48.40	     3	
 48.15	  0.25	  0.60	 48.75	     3	
 48.28	  0.25	  0.60	 48.88	     3	
 50.06	  0.15	  1.00	 51.05	     4	
 50.06	  0.18	  1.72	 51.78	     4	
 50.10	  0.04	  0.37	 50.48	     4	
 50.11	  0.17	  2.38	 52.49	     4	
 50.17	  0.12	  0.80	 50.96	     4	
 50.31	  0.13	  1.27	 51.58	     4	
 50.32	  0.07	  1.79	 52.11	     4	
 50.38	  0.05	  1.38	 51.76	     4	
 50.49	  0.11	  2.77	 53.26	     4	
 50.66	  0.16	  0.46	 51.12	     4	
 50.70	  0.14	  0.91	 51.61	     4	
 50.71	  0.15	  0.69	 51.40	     4	
 50.85	  0.12	  0.15	 51.00	     4	
 50.86	  0.19	  0.40	 51.26	     4	
 50.88	  0.07	  2.75	 53.63	     4	
 50.90	  0.10	  0.72	 51.62	     4	
 50.90	  0.15	  0.21	 51.11	     4	
 50.90	  0.16	  1.56	 52.47	     4	
 50.91	  0.07	  0.30	 51.22	     4	
 50.93	  0.20	  0.20	 51.13	     4	
 50.95	  0.10	  0.78	 51.73	     4	
 50.98	  0.07	  1.28	 52.26	     4	
 51.00	  0.09	  1.35	 52.35	     4	
 51.12	  0.10	  0.43	 51.54	     4	
 51.22	  0.13	  0.51	 51.72	     4	
 51.25	  0.03	  2.98	 54.23	     4	
 51.26	  0.24	  0.48	 51.73	     5	
 51.45	  0.09	  1.28	 52.73	     4	
 51.47	  0.11	  0.30	 51.77	     4	
 51.49	  0.17	  1.30	 52.79	     4	
 51.57	  0.16	  1.04	 52.61	     4	
 51.60	  0.08	  1.44	 53.04	     4	
 51.61	  0.05	  2.02	 53.63	     4	
 51.65	  0.17	  2.47	 54.12	     4	
 51.73	  0.20	  0.19	 51.91	     4	
 51.91	  0.06	  0.64	 52.55	     4	
 51.92	  0.16	  2.31	 54.23	     4	
 52.00	  0.16	  2.49	 54.49	     4	
 53.78	  0.16	  3.57	 57.35	     5	
 55.23	  0.11	  2.61	 57.84	     5	
 56.73	  0.36	  0.65	 57.39	     2	
 58.58	  0.25	  0.60	 59.18	     3	
 58.81	  0.25	  0.60	 59.41	     3	
 58.82	  0.25	  0.60	 59.42	     3	
 58.83	  0.65	  0.72	 59.54	     2	
 60.14	  0.25	  0.60	 60.74	     3	
 60.18	  0.25	  0.60	 60.78	     3	
 60.23	  0.25	  0.60	 60.83	     3	
 60.26	  1.78	  0.67	 60.93	     1	
 60.72	  0.25	  0.60	 61.32	     3	
 60.85	  0.25	  0.60	 61.45	     3	
 60.98	  0.31	  0.65	 61.63	     2	
 61.08	  0.25	  0.60	 61.68	     3	
 61.94	  0.25	  0.60	 62.54	     3	
 62.38	  0.25	  0.60	 62.98	     3	
 62.46	  0.25	  0.60	 63.06	     3	
 63.13	  0.25	  0.60	 63.73	     3	
 63.15	  0.25	  0.60	 63.75	     3	
 63.57	  0.25	  0.60	 64.17	     3	
 63.82	  0.25	  0.60	 64.42	     3	
 63.86	  0.25	  0.60	 64.46	     3	
 63.99	  0.25	  0.60	 64.59	     3	
 64.10	  0.25	  0.60	 64.70	     3	
 64.42	  0.25	  0.60	 65.02	     3	
 64.67	  0.25	  0.60	 65.27	     3	
 64.81	  0.25	  0.60	 65.41	     3	
 65.17	  0.25	  0.60	 65.77	     3	
 65.82	  0.25	  0.60	 66.42	     3	
 66.01	  0.25	  0.60	 66.61	     3	
 66.05	  0.25	  0.60	 66.65	     3	
 66.17	  0.36	  0.61	 66.77	     2	
 66.41	  0.25	  0.60	 67.01	     3	
 66.52	  0.25	  0.60	 67.12	     3	
 66.72	  0.19	  2.16	 68.88	     4	
 66.77	  0.07	  1.28	 68.05	     4	
 66.80	  0.25	  0.60	 67.40	     3	
 67.35	  0.08	  0.10	 67.45	     4	
 67.39	  0.25	  0.60	 67.99	     3	
 67.40	  0.25	  0.60	 68.00	     3	
 67.56	  0.25	  0.60	 68.16	     3	
 67.60	  0.25	  0.60	 68.20	     3	
 67.64	  0.12	  1.18	 68.82	     4	
 67.94	  0.25	  0.60	 68.54	     3	
 68.08	  0.14	  1.88	 69.97	     4	
 69.08	  0.25	  0.60	 69.68	     3	
 69.35	  0.12	  0.78	 70.13	     4	
 69.73	  0.25	  0.60	 70.33	     3	
 69.98	  0.13	  0.86	 70.84	     5	
 70.49	  0.14	  2.28	 72.77	     4	
 70.67	  0.13	  1.05	 71.72	     4	
 70.98	  0.25	  0.60	 71.58	     3	
 70.99	  0.04	  2.47	 73.47	     4	
 71.01	  0.25	  0.60	 71.61	     3	
 71.02	  0.25	  0.60	 71.62	     3	
 71.04	  0.25	  0.60	 71.64	     3	
 71.83	  0.25	  0.60	 72.43	     3	
 71.87	  0.25	  0.60	 72.47	     3	
 72.05	  0.25	  0.60	 72.65	     3	
 72.24	  0.25	  0.60	 72.84	     3	
 74.01	  0.13	  1.82	 75.83	     4	
 74.14	  0.17	  1.76	 75.90	     4	
 74.22	  0.06	  1.29	 75.50	     4	
 74.26	  0.18	  1.26	 75.52	     4	
 74.27	  0.04	  1.12	 75.39	     4	
 74.28	  0.15	  0.42	 74.70	     4	
 74.28	  0.07	  1.95	 76.23	     4	
 74.61	  0.08	  0.76	 75.37	     4	
 74.63	  0.12	  1.01	 75.63	     4	
 74.63	  0.10	  2.23	 76.86	     4	
 74.68	  0.10	  1.86	 76.54	     4	
 74.68	  0.11	  2.90	 77.58	     4	
 74.74	  0.05	  2.60	 77.33	     4	
 74.74	  0.10	  1.21	 75.94	     4	
 74.81	  0.06	  0.60	 75.41	     4	
 74.82	  0.04	  1.96	 76.79	     4	
 74.88	  0.11	  0.77	 75.65	     4	
 74.93	  0.11	  1.23	 76.16	     4	
 74.95	  0.08	  0.41	 75.36	     4	
 74.95	  0.16	  2.12	 77.07	     4	
 75.03	  0.14	  1.90	 76.93	     4	
 75.04	  0.03	  1.79	 76.83	     4	
 75.31	  0.17	  0.86	 76.17	     4	
 75.41	  0.11	  1.24	 76.65	     4	
 75.43	  0.16	  2.24	 77.67	     4	
 75.49	  0.06	  1.84	 77.33	     4	
 75.61	  0.04	  2.31	 77.92	     4	
 75.62	  0.19	  0.82	 76.45	     4	
 75.67	  0.10	  1.72	 77.39	     4	
 75.67	  0.12	  1.27	 76.94	     4	
 75.72	  0.15	  1.31	 77.02	     4	
 75.79	  0.07	  0.75	 76.53	     4	
 75.79	  0.11	  2.77	 78.57	     4	
 75.84	  0.20	  1.05	 76.89	     4	
 75.95	  0.12	  1.58	 77.52	     4	
 75.98	  0.03	  2.06	 78.04	     4	
 78.58	  0.52	  0.72	 79.30	     2	
 78.58	  0.34	  0.54	 79.13	     2	
 81.38	  0.68	  0.63	 82.02	     2	
 83.04	  0.25	  0.60	 83.64	     3	
 83.05	  0.25	  0.60	 83.65	     3	
 83.15	  0.25	  0.60	 83.75	     3	
 83.38	  0.29	  1.13	 84.51	     5	
 83.56	  1.17	  0.35	 83.91	     1	
 84.26	  0.25	  0.60	 84.86	     3	
 84.69	  0.25	  0.60	 85.29	     3	
 85.27	  0.25	  0.60	 85.87	     3	
 85.29	  2.07	  0.93	 86.22	     1	
 86.89	  0.25	  0.60	 87.49	     3	
 86.98	  0.25	  0.60	 87.58	     3	
 88.01	  0.25	  0.60	 88.61	     3	
 88.29	  0.25	  0.60	 88.89	     3	
 88.49	  0.18	  2.03	 90.51	     5	
 88.86	  0.25	  0.60	 89.46	     3	
 88.99	  0.25	  0.60	 89.59	     3	
 89.75	  0.25	  0.60	 90.35	     3	
 89.87	  0.25	  0.60	 90.47	     3	
 89.98	  0.25	  0.60	 90.58	     3	
 90.68	  0.25	  0.60	 91.28	     3	
 91.19	  1.54	  0.92	 92.11	     1	
 91.27	  0.25	  0.60	 91.87	     3	
 91.37	  0.25	  0.60	 91.97	     3	
 91.45	  0.25	  0.60	 92.05	     3	
 91.65	  0.16	  2.64	 94.29	     4	
 91.78	  0.13	  1.57	 93.35	     4	
 91.89	  0.17	  1.48	 93.37	     4	
 92.36	  0.08	  1.96	 94.33	     4	
 92.41	  0.12	  0.96	 93.37	     5	
 92.46	  0.18	  1.86	 94.32	     4	
 92.63	  0.14	  0.19	 92.82	     4	
 92.93	  0.11	  1.84	 94.77	     4	
 93.63	  0.25	  0.60	 94.23	     3	
 93.73	  0.12	  2.02	 95.75	     4	
 94.44	  0.10	  2.97	 97.40	     4	
 95.00	  0.25	  0.60	 95.60	     3	
 95.04	  0.25	  0.60	 95.64	     3	
 95.19	  0.07	  0.97	 96.16	     4	
 95.45	  0.09	  1.93	 97.38	     4	
 95.73	  0.25	  0.60	 96.33	     3	
 96.02	  0.25	  0.60	 96.62	     3	
 96.20	  0.25	  0.60	 96.80	     3	
 96.27	  0.25	  0.60	 96.87	     3	
 96.27	  0.20	  2.74	 99.02	     5	
 96.35	  0.25	  0.60	 96.95	     3	
 98.03	  0.06	  1.04	 99.07	     4	
 98.04	  0.06	  1.93	 99.97	     4	
 98.11	  0.18	  1.61	 99.71	     4	
 98.24	  0.12	  1.21	 99.45	     4	
 98.26	  0.04	  0.22	 98.48	     4	
 98.26	  0.12	  2.65	100.91	     4	
 98.39	  0.13	  1.40	 99.79	     4	
 98.45	  0.11	  2.24	100.70	     4	
 98.52	  0.06	  0.15	 98.67	     4	
 98.61	  0.16	  1.75	100.36	     4	
 98.71	  0.16	  2.77	101.48	     4	
 98.76	  0.17	  0.53	 99.28	     4	
 98.84	  0.05	  1.87	100.71	     4	
 98.86	  0.06	  2.00	100.86	     4	
 98.93	  0.15	  2.28	101.20	     4	
 98.96	  0.18	  1.74	100.70	     4	
 98.99	  0.16	  2.17	101.16	     4	
 99.00	  0.13	  2.12	101.12	     4	
 99.01	  0.16	  0.61	 99.62	     4	
 99.05	  0.18	  2.64	101.69	     4	
 99.05	  0.16	  1.75	100.80	     4	
 99.09	  0.12	  2.99	102.08	     4	
 99.14	  0.17	  0.29	 99.44	     4	
 99.20	  0.06	  1.21	100.40	     4	
 99.37	  0.12	  1.09	100.47	     4	
 99.41	  0.19	  1.39	100.80	     4	
 99.41	  0.17	  0.29	 99.71	     4	
 99.62	  0.08	  2.71	102.33	     4	
 99.75	  0.04	  2.18	101.93	     4	
 99.76	  0.18	  0.25	100.02	     4	
 99.82	  0.12	  2.66	102.49	     4	
 99.89	  0.04	  1.69	101.58	     4	
103.77	  0.36	  0.73	104.51	     2	
105.52	  0.51	  0.61	106.13	     2	
106.53	  0.25	  0.60	107.13	     3	
106.72	  0.25	  0.60	107.32	     3	
106.75	  0.25	  0.60	107.35	     3	
107.27	  0.25	  0.60	107.87	     3	
107.34	  0.34	  0.70	108.04	     2	
107.36	  0.25	  0.60	107.96	     3	
107.42	  0.25	  0.60	108.02	     3	
107.61	  0.25	  0.60	108.21	     3	
107.89	  0.25	  0.60	108.49	     3	
108.20	  0.16	  1.30	109.50	     5	
108.21	  0.25	  0.60	108.81	     3	
108.42	  0.25	  0.60	109.02	     3	
108.84	  0.25	  0.60	109.44	     3	
108.86	  0.25	  0.60	109.46	     3	
109.36	  1.83	  1.12	110.48	     1	
109.49	  0.25	  0.60	110.09	     3	
109.79	  0.25	  0.60	110.39	     3	
109.88	  0.25	  0.60	110.48	     3	
110.36	  0.25	  0.60	110.96	     3	
110.43	  0.25	  0.60	111.03	     3	
111.31	  0.25	  0.60	111.91	     3	
111.79	  0.25	  0.60	112.39	     3	
112.30	  0.25	  0.60	112.90	     3	
112.89	  0.25	  0.60	113.49	     3	
113.95	  0.25	  0.60	114.55	     3	
114.10	  0.25	  0.60	114.70	     3	
114.21	  0.25	  0.60	114.81	     3	
114.49	  0.25	  0.60	115.09	     3	
115.11	  0.25	  0.60	115.71	     3	
115.12	  0.25	  0.60	115.72	     3	
115.26	  0.25	  0.60	115.86	     3	
115.29	  0.25	  0.60	115.89	     3	
115.35	  1.18	  0.82	116.17	     1	
115.45	  0.07	  2.38	117.83	     4	
115.50	  0.25	  0.60	116.10	     3	
115.51	  0.11	  1.75	117.26	     4	
115.53	  0.25	  0.60	116.13	     3	
115.64	  0.07	  2.24	117.88	     4	
116.30	  0.25	  0.60	116.90	     3	
116.39	  0.25	  0.60	116.99	     3	
116.69	  0.25	  0.60	117.29	     3	
116.83	  0.25	  0.60	117.43	     3	
116.89	  0.25	  0.60	117.49	     3	
117.01	  0.25	  0.60	117.61	     3	
117.18	  0.12	  2.87	120.05	     4	
117.22	  0.20	  2.71	119.92	     4	
117.58	  0.13	  1.41	118.99	     4	
117.82	  0.25	  0.60	118.42	     3	
117.86	  0.20	  0.52	118.37	     4	
117.88	  0.25	  0.60	118.48	     3	
118.08	  0.25	  0.60	118.68	     3	
118.88	  0.25	  0.60	119.48	     3	
118.95	  0.25	  0.60	119.55	     3	
119.01	  0.19	  0.67	119.69	     4	
119.05	  0.16	  1.36	120.40	     4	
119.07	  0.25	  0.60	119.67	     3	
119.31	  0.25	  0.60	119.91	     3	
119.40	  0.18	  1.99	121.39	     4	
119.46	  0.25	  0.60	120.06	     3	
119.59	  0.25	  0.60	120.19	     3	
120.25	  0.25	  0.60	120.85	     3	
122.03	  0.10	  0.90	122.94	     4	
122.08	  0.11	  2.93	125.01	     4	
122.09	  0.17	  2.47	124.57	     4	
122.12	  0.12	  2.92	125.04	     4	
122.16	  0.09	  0.61	122.77	     4	
122.23	  0.19	  1.40	123.63	     4	
122.24	  0.08	  2.55	124.79	     4	
122.26	  0.16	  1.51	123.77	     4	
122.26	  0.06	  2.40	124.66	     4	
122.35	  0.13	  1.04	123.39	     4	
122.40	  0.08	  1.21	123.61	     4	
122.44	  0.19	  2.94	125.37	     4	
122.50	  0.19	  2.35	124.85	     4	
122.63	  0.09	  0.56	123.19	     4	
122.65	  0.04	  0.57	123.22	     4	
122.79	  0.12	  2.59	125.38	     4	
122.85	  0.09	  2.94	125.79	     4	
122.85	  0.07	  0.47	123.33	     4	
122.87	  0.13	  1.12	123.99	     4	
122.91	  0.11	  1.03	123.93	     4	
122.91	  0.07	  1.25	124.16	     4	
123.03	  0.12	  2.83	125.86	     4	
123.03	  0.05	  2.38	125.41	     4	
123.03	  0.12	  1.52	124.55	     4	
123.06	  0.09	  0.57	123.63	     4	
123.07	  0.16	  0.91	123.98	     4	
123.21	  0.09	  1.00	124.21	     4	
123.29	  0.13	  0.61	123.90	     4	
123.31	  0.05	  0.41	123.72	     4	
123.34	  0.05	  0.65	123.99	     4	
123.34	  0.13	  2.78	126.12	     4	
123.36	  0.07	  2.22	125.58	     4	
123.36	  0.10	  2.69	126.05	     4	
123.38	  0.05	  2.93	126.31	     4	
123.38	  0.10	  2.93	126.31	     4	
123.46	  0.08	  2.94	126.40	     4	
123.68	  0.05	  0.42	124.10	     4	
123.69	  0.13	  0.47	124.15	     4	
123.78	  0.16	  2.67	126.46	     4	
123.88	  0.19	  0.42	124.30	     4	
123.88	  0.14	  0.56	124.44	     4	
123.89	  0.08	  0.87	124.76	     4	
123.91	  0.09	  2.16	126.07	     4	
123.94	  0.08	  1.73	125.67	     4	
129.91	  0.23	  1.38	131.30	     5	
130.52	  0.25	  0.60	131.12	     3	
130.73	  0.38	  0.59	131.32	     2	
130.84	  0.25	  0.60	131.44	     3	
130.94	  0.25	  0.60	131.54	     3	
132.16	  0.25	  0.60	132.76	     3	
132.26	  0.25	  0.60	132.86	     3	
132.30	  0.25	  0.60	132.90	     3	
132.97	  0.25	  0.60	133.57	     3	
133.04	  0.25	  0.60	133.64	     3	
133.39	  0.25	  0.60	133.99	     3	
133.50	  0.64	  0.64	134.14	     2	
133.92	  0.25	  0.60	134.52	     3	
134.09	  0.25	  0.60	134.69	     3	
134.49	  0.25	  0.60	135.09	     3	
134.67	  0.25	  0.60	135.27	     3	
134.74	  0.25	  0.60	135.34	     3	
135.09	  0.25	  0.60	135.69	     3	
135.23	  0.25	  0.60	135.83	     3	
135.23	  0.25	  0.60	135.83	     3	
135.30	  0.25	  0.60	135.90	     3	
135.38	  0.55	  0.55	135.92	     2	
135.61	  0.25	  0.60	136.21	     3	
135.73	  0.25	  0.60	136.33	     3	
136.03	  0.25	  0.60	136.63	     3	
136.04	  0.25	  0.60	136.64	     3	
136.15	  0.25	  0.60	136.75	     3	
136.45	  0.25	  0.60	137.05	     3	
136.71	  0.25	  0.60	137.31	     3	
136.79	  0.25	  0.60	137.39	     3	
136.81	  0.25	  0.60	137.41	     3	
137.06	  0.25	  0.60	137.66	     3	
137.16	  0.25	  0.60	137.76	     3	
137.96	  0.25	  0.60	138.56	     3	
138.66	  0.25	  0.60	139.26	     3	
138.75	  0.25	  0.60	139.35	     3	
138.89	  0.25	  0.60	139.49	     3	
138.99	  0.16	  0.35	139.35	     4	
139.18	  0.25	  0.60	139.78	     3	
139.28	  0.16	  2.10	141.39	     4	
139.34	  2.12	  0.37	139.71	     1	
139.78	  0.25	  0.60	140.38	     3	
139.90	  0.04	  2.60	142.50	     4	
140.50	  0.25	  0.60	141.10	     3	
140.56	  0.25	  0.60	141.16	     3	
140.58	  0.13	  1.56	142.14	     4	
140.71	  0.09	  2.51	143.22	     4	
140.75	  0.25	  0.60	141.35	     3	
140.78	  0.25	  0.60	141.38	     3	
140.88	  0.08	  2.99	143.87	     4	
140.89	  0.14	  0.48	141.37	     4	
141.37	  0.15	  0.35	141.72	     4	
141.37	  0.25	  0.60	141.97	     3	
141.37	  0.25	  0.60	141.97	     3	
142.10	  0.04	  1.17	143.26	     4	
142.56	  0.17	  2.03	144.59	     4	
142.66	  0.25	  0.60	143.26	     3	
143.25	  0.14	  2.41	145.66	     4	
143.26	  0.11	  1.12	144.39	     4	
143.33	  0.25	  0.60	143.93	     3	
143.44	  0.25	  0.60	144.04	     3	
143.69	  0.25	  0.60	144.29	     3	
146.12	  0.20	  0.33	146.45	     4	
146.26	  0.19	  1.53	147.79	     5	
146.52	  0.15	  1.19	147.70	     4	
146.60	  0.08	  1.95	148.54	     4	
146.61	  0.08	  1.38	147.98	     4	
146.70	  0.14	  2.92	149.62	     4	
146.71	  0.17	  0.65	147.36	     4	
146.88	  0.08	  2.00	148.88	     4	
146.99	  0.11	  1.55	148.54	     4	
147.00	  0.07	  1.08	148.08	     4	
147.06	  0.17	  2.24	149.30	     4	
147.12	  0.03	  1.13	148.26	     4	
147.18	  0.06	  1.57	148.75	     4	
147.22	  0.13	  1.94	149.15	     4	
147.25	  0.12	  2.82	150.07	     4	
147.27	  0.18	  0.13	147.39	     4	
147.40	  0.12	  1.44	148.84	     4	
147.40	  0.15	  1.67	149.07	     4	
147.43	  0.15	  1.42	148.86	     4	
147.43	  0.10	  1.17	148.60	     4	
147.47	  0.15	  1.52	148.99	     4	
147.63	  0.11	  0.54	148.17	     4	
147.69	  0.03	  1.07	148.77	     4	
147.86	  0.09	  0.53	148.39	     4	
147.89	  0.07	  0.95	148.84	     4	
147.93	  0.13	  2.34	150.27	     5	
147.97	  0.19	  0.23	148.19	     4	
147.97	  0.15	  0.82	148.79	     4	
147.99	  0.07	  2.36	150.35	     4	
154.59	  0.25	  0.60	155.19	     3	
154.70	  0.25	  0.60	155.30	     3	
155.15	  0.25	  0.60	155.75	     3	
155.51	  0.25	  0.60	156.11	     3	
155.57	  0.60	  0.70	156.28	     2	
156.19	  0.25	  0.60	156.79	     3	
156.40	  0.25	  0.60	157.00	     3	
156.51	  1.41	  0.86	157.37	     1	
157.48	  0.25	  0.60	158.08	     3	
158.22	  0.25	  0.60	158.82	     3	
158.33	  0.25	  0.60	158.93	     3	
160.94	  0.25	  0.60	161.54	     3	
161.74	  0.37	  0.53	162.26	     2	
161.74	  0.25	  0.60	162.34	     3	
161.81	  0.25	  0.60	162.41	     3	
162.34	  0.47	  0.69	163.03	     2	
162.52	  0.25	  0.60	163.12	     3	
162.92	  0.25	  0.60	163.52	     3	
162.97	  0.25	  0.60	163.57	     3	
164.04	  0.16	  2.55	166.59	     4	
164.17	  0.25	  0.60	164.77	     3	
164.55	  0.25	  0.60	165.15	     3	
164.56	  0.25	  0.60	165.16	     3	
164.81	  0.13	  0.44	165.25	     4	
164.83	  2.09	  1.02	165.85	     1	
164.89	  0.25	  0.60	165.49	     3	
164.95	  0.25	  0.60	165.55	     3	
165.03	  0.25	  0.60	165.63	     3	
165.07	  0.25	  0.60	165.67	     3	
165.13	  0.25	  0.60	165.73	     3	
165.47	  0.05	  2.47	167.94	     4	
165.69	  0.25	  0.60	166.29	     3	
165.69	  0.25	  0.60	166.29	     3	
165.85	  0.25	  0.60	166.45	     3	
165.93	  0.25	  0.60	166.53	     3	
166.24	  0.25	  0.60	166.84	     3	
166.28	  0.09	  0.97	167.25	     4	
166.36	  0.25	  0.60	166.96	     3	
166.47	  0.25	  0.60	167.07	     3	
166.49	  0.05	  1.93	168.42	     4	
167.07	  0.20	  0.15	167.21	     4	
167.25	  0.25	  0.60	167.85	     3	
167.31	  0.13	  1.71	169.02	     4	
167.32	  0.12	  0.15	167.47	     4	
167.34	  0.25	  0.60	167.94	     3	
167.38	  0.08	  1.51	168.89	     4	
167.67	  0.25	  0.60	168.27	     3	
168.29	  0.25	  0.60	168.89	     3	
