  6.30	  1.81	
  6.87	  0.00	
 13.35	  2.26	
 13.84	  0.00	
 18.25	  1.62	
 18.61	  0.00	
 27.73	  1.85	
 28.31	  0.00	
 41.64	  1.74	
 42.26	  0.00	
 50.13	  1.95	
 50.55	  0.00	
 50.89	  2.20	
 51.27	  0.00	
 55.20	  2.13	
 55.79	  0.00	
 72.47	  2.35	
 73.16	  0.00	
 98.08	  2.19	
 98.72	  0.00	
104.45	  1.93	
105.01	  0.00	
115.81	  2.05	
116.42	  0.00	
119.65	  1.69	
120.28	  0.00	
140.04	  1.51	
140.69	  0.00	
162.29	  1.93	
162.79	  0.00	
