  2.06	  0.19	  1.95	  4.02	     4	
  2.07	  0.10	  2.47	  4.54	     4	
  2.07	  0.08	  2.38	  4.45	     4	
  2.08	  0.10	  0.65	  2.73	     4	
  2.09	  0.14	  0.66	  2.75	     4	
  2.11	  0.12	  0.47	  2.57	     4	
  2.11	  0.18	  1.52	  3.63	     4	
  2.15	  0.15	  0.24	  2.39	     4	
  2.17	  0.03	  2.75	  4.93	     4	
  2.18	  0.07	  1.69	  3.87	     4	
  2.20	  0.12	  1.19	  3.39	     4	
  2.21	  0.16	  2.29	  4.50	     4	
  2.21	  0.19	  0.46	  2.67	     4	
  2.23	  0.19	  2.62	  4.85	     4	
  2.23	  0.19	  0.50	  2.73	     4	
  2.25	  0.08	  0.39	  2.63	     4	
  2.26	  0.14	  2.15	  4.40	     4	
  2.26	  0.13	  0.89	  3.15	     4	
  2.26	  0.16	  0.77	  3.03	     4	
  2.28	  0.18	  0.95	  3.22	     4	
  2.29	  0.15	  1.89	  4.17	     4	
  2.34	  0.16	  2.27	  4.60	     4	
  2.36	  0.05	  2.99	  5.35	     4	
  2.37	  0.16	  0.95	  3.32	     4	
  2.41	  0.15	  1.87	  4.28	     4	
  2.41	  0.13	  2.87	  5.29	     4	
  2.45	  0.16	  2.29	  4.74	     4	
  2.46	  0.08	  1.94	  4.40	     4	
  2.48	  0.11	  0.39	  2.87	     4	
  2.50	  0.10	  2.94	  5.44	     4	
  2.52	  0.14	  0.33	  2.85	     4	
  2.55	  0.14	  0.87	  3.42	     4	
  2.58	  0.07	  2.63	  5.21	     4	
  2.60	  0.16	  0.44	  3.04	     4	
  2.61	  0.16	  0.86	  3.47	     4	
  2.68	  0.11	  1.21	  3.89	     4	
  2.70	  0.05	  1.82	  4.51	     4	
  2.70	  0.18	  1.47	  4.18	     4	
  2.73	  0.12	  2.18	  4.91	     4	
  2.76	  0.11	  2.23	  4.99	     4	
  2.79	  0.12	  2.72	  5.51	     4	
  2.80	  0.06	  1.96	  4.76	     4	
  2.81	  0.09	  2.23	  5.04	     4	
  2.82	  0.08	  0.54	  3.36	     4	
  2.83	  0.14	  1.24	  4.06	     4	
  2.83	  0.19	  2.94	  5.77	     4	
  2.83	  0.11	  1.61	  4.44	     4	
  2.84	  0.09	  0.25	  3.10	     4	
  2.86	  0.15	  1.92	  4.77	     4	
  2.87	  0.17	  0.32	  3.19	     4	
  2.89	  0.16	  0.53	  3.42	     4	
  2.89	  0.10	  0.70	  3.59	     4	
  2.90	  0.07	  2.73	  5.64	     4	
  2.90	  0.16	  2.79	  5.69	     4	
  2.92	  0.06	  0.60	  3.53	     4	
  2.93	  0.04	  1.36	  4.29	     4	
  2.99	  0.12	  0.75	  3.74	     4	
  3.04	  0.18	  2.08	  5.11	     4	
  3.04	  0.05	  0.97	  4.01	     4	
  3.07	  0.08	  2.14	  5.21	     4	
  3.07	  0.04	  1.33	  4.40	     4	
  3.09	  0.20	  2.13	  5.22	     4	
  3.16	  0.06	  1.62	  4.78	     4	
  3.19	  0.17	  0.58	  3.77	     4	
  3.21	  0.09	  2.81	  6.02	     4	
  3.22	  0.13	  1.73	  4.95	     4	
  3.23	  0.18	  1.30	  4.52	     4	
  3.24	  0.14	  2.66	  5.89	     4	
  3.24	  0.10	  2.80	  6.04	     4	
  3.26	  0.19	  0.24	  3.49	     4	
  3.28	  0.17	  2.25	  5.54	     4	
  3.29	  0.10	  0.71	  4.00	     4	
  3.29	  0.05	  1.61	  4.90	     4	
  3.32	  0.19	  2.56	  5.88	     4	
  3.32	  0.10	  2.94	  6.26	     4	
  3.36	  0.15	  1.85	  5.21	     4	
  3.36	  0.16	  1.58	  4.94	     4	
  3.37	  0.19	  1.32	  4.69	     4	
  3.37	  0.03	  1.24	  4.61	     4	
  3.38	  0.05	  1.74	  5.13	     4	
  3.40	  0.12	  0.96	  4.36	     4	
  3.44	  0.20	  2.60	  6.04	     4	
  3.45	  0.18	  0.27	  3.73	     4	
  3.52	  0.15	  1.76	  5.28	     4	
  3.53	  0.15	  2.62	  6.15	     4	
  3.54	  0.06	  0.79	  4.34	     4	
  3.54	  0.15	  1.52	  5.07	     4	
  3.60	  0.13	  2.72	  6.32	     4	
  3.62	  0.19	  1.69	  5.31	     4	
  3.66	  0.13	  1.49	  5.15	     4	
  3.68	  0.13	  0.51	  4.19	     4	
  3.70	  0.14	  1.30	  5.00	     4	
  3.71	  0.15	  2.46	  6.17	     4	
  3.71	  0.06	  2.16	  5.87	     4	
  3.75	  0.20	  1.77	  5.52	     4	
  3.76	  0.16	  0.76	  4.52	     4	
  3.77	  0.05	  0.27	  4.04	     4	
  3.77	  0.13	  0.83	  4.60	     4	
  3.78	  0.14	  0.81	  4.59	     4	
  3.78	  0.07	  2.61	  6.39	     4	
  3.84	  0.14	  2.86	  6.70	     4	
  3.87	  0.12	  0.98	  4.85	     4	
  3.88	  0.09	  0.41	  4.29	     4	
  3.90	  0.19	  0.34	  4.24	     4	
  3.91	  0.10	  1.88	  5.79	     4	
  3.92	  0.10	  0.15	  4.07	     4	
  3.94	  0.15	  1.17	  5.11	     4	
  3.96	  0.20	  1.39	  5.35	     4	
  3.98	  0.18	  2.03	  6.01	     4	
  3.99	  0.10	  1.70	  5.69	     4	
 18.54	  0.05	  0.79	 19.34	     4	
 18.74	  0.09	  2.39	 21.13	     4	
 18.75	  0.15	  1.73	 20.48	     4	
 18.86	  0.17	  1.09	 19.95	     4	
 19.08	  0.14	  1.01	 20.09	     4	
 19.16	  0.06	  0.69	 19.85	     4	
 19.21	  0.12	  1.85	 21.06	     4	
 19.28	  0.20	  2.34	 21.62	     4	
 19.28	  0.08	  2.74	 22.02	     4	
 19.35	  0.05	  1.51	 20.86	     4	
 19.84	  0.08	  0.68	 20.52	     4	
 19.84	  0.19	  3.00	 22.84	     4	
 20.12	  0.06	  0.16	 20.28	     4	
 20.19	  0.13	  1.33	 21.52	     4	
 20.25	  0.11	  2.47	 22.71	     4	
 20.27	  0.11	  2.46	 22.74	     4	
 20.53	  0.07	  2.23	 22.77	     4	
 20.86	  0.12	  2.66	 23.52	     4	
 21.13	  0.07	  0.93	 22.06	     4	
 21.14	  0.18	  0.84	 21.98	     4	
 21.29	  0.07	  0.93	 22.22	     4	
 21.33	  0.11	  2.03	 23.36	     4	
 21.37	  0.09	  2.09	 23.46	     4	
 21.65	  0.04	  2.16	 23.82	     4	
 21.80	  0.18	  0.84	 22.64	     4	
 21.92	  0.14	  1.17	 23.09	     4	
 22.00	  0.08	  0.21	 22.21	     4	
 22.21	  0.14	  1.67	 23.88	     4	
 22.23	  0.04	  0.89	 23.12	     4	
 22.41	  0.20	  0.62	 23.03	     4	
 22.52	  0.18	  1.47	 23.99	     4	
 22.76	  0.09	  1.67	 24.43	     4	
 22.84	  0.19	  1.28	 24.11	     4	
 22.88	  0.10	  2.25	 25.12	     4	
 23.09	  0.10	  1.27	 24.36	     4	
 23.22	  0.08	  1.09	 24.31	     4	
 26.00	  0.03	  1.67	 27.67	     4	
 26.01	  0.05	  0.86	 26.87	     4	
 26.03	  0.18	  0.44	 26.47	     4	
 26.03	  0.15	  0.96	 27.00	     4	
 26.07	  0.05	  0.73	 26.80	     4	
 26.08	  0.10	  1.28	 27.36	     4	
 26.09	  0.06	  1.03	 27.12	     4	
 26.09	  0.10	  2.02	 28.11	     4	
 26.12	  0.04	  1.26	 27.38	     4	
 26.13	  0.14	  2.43	 28.56	     4	
 26.13	  0.03	  1.19	 27.32	     4	
 26.13	  0.10	  2.30	 28.43	     4	
 26.14	  0.13	  2.05	 28.20	     4	
 26.15	  0.17	  2.64	 28.79	     4	
 26.21	  0.03	  0.63	 26.85	     4	
 26.26	  0.09	  2.92	 29.18	     4	
 26.26	  0.15	  0.66	 26.92	     4	
 26.26	  0.03	  1.96	 28.22	     4	
 26.28	  0.18	  1.42	 27.70	     4	
 26.34	  0.07	  1.46	 27.80	     4	
 26.35	  0.04	  2.99	 29.34	     4	
 26.38	  0.10	  1.93	 28.30	     4	
 26.39	  0.03	  2.71	 29.10	     4	
 26.40	  0.07	  1.59	 27.98	     4	
 26.40	  0.09	  0.34	 26.74	     4	
 26.41	  0.11	  0.66	 27.07	     4	
 26.43	  0.04	  0.62	 27.05	     4	
 26.44	  0.07	  2.61	 29.06	     4	
 26.45	  0.18	  2.31	 28.75	     4	
 26.46	  0.10	  2.35	 28.80	     4	
 26.47	  0.10	  2.05	 28.52	     4	
 26.47	  0.10	  0.53	 27.01	     4	
 26.48	  0.14	  1.90	 28.38	     4	
 26.49	  0.05	  0.72	 27.21	     4	
 26.52	  0.08	  2.99	 29.51	     4	
 26.52	  0.09	  1.28	 27.80	     4	
 26.53	  0.20	  1.48	 28.01	     4	
 26.58	  0.08	  2.70	 29.28	     4	
 26.60	  0.09	  2.29	 28.89	     4	
 26.62	  0.05	  2.03	 28.64	     4	
 26.65	  0.15	  1.35	 27.99	     4	
 26.66	  0.07	  0.81	 27.47	     4	
 26.67	  0.03	  1.07	 27.75	     4	
 26.72	  0.06	  0.82	 27.54	     4	
 26.75	  0.10	  1.14	 27.89	     4	
 26.75	  0.14	  0.85	 27.60	     4	
 26.78	  0.13	  0.30	 27.08	     4	
 26.82	  0.12	  1.60	 28.42	     4	
 26.85	  0.08	  0.37	 27.22	     4	
 26.90	  0.06	  0.56	 27.46	     4	
 26.94	  0.13	  1.49	 28.43	     4	
 26.96	  0.15	  1.79	 28.75	     4	
 26.97	  0.12	  0.50	 27.46	     4	
 26.98	  0.04	  1.37	 28.35	     4	
 26.98	  0.11	  2.24	 29.22	     4	
 27.07	  0.12	  0.49	 27.57	     4	
 27.08	  0.06	  2.97	 30.04	     4	
 27.08	  0.08	  2.94	 30.02	     4	
 27.08	  0.09	  1.82	 28.90	     4	
 27.10	  0.14	  2.38	 29.48	     4	
 27.12	  0.11	  2.12	 29.24	     4	
 27.14	  0.07	  2.81	 29.95	     4	
 27.14	  0.05	  1.08	 28.22	     4	
 27.24	  0.06	  1.86	 29.11	     4	
 27.25	  0.20	  0.37	 27.62	     4	
 27.25	  0.12	  0.88	 28.14	     4	
 27.29	  0.09	  0.51	 27.80	     4	
 27.31	  0.10	  0.87	 28.18	     4	
 27.33	  0.03	  0.80	 28.13	     4	
 27.36	  0.13	  1.59	 28.95	     4	
 27.38	  0.11	  1.10	 28.48	     4	
 27.38	  0.11	  2.36	 29.75	     4	
 27.39	  0.07	  0.92	 28.31	     4	
 27.45	  0.15	  0.43	 27.88	     4	
 27.47	  0.04	  2.50	 29.97	     4	
 27.48	  0.18	  0.17	 27.65	     4	
 27.55	  0.15	  2.30	 29.85	     4	
 27.61	  0.14	  2.08	 29.69	     4	
 27.63	  0.13	  1.12	 28.74	     4	
 27.68	  0.13	  1.55	 29.23	     4	
 27.69	  0.12	  1.06	 28.75	     4	
 27.70	  0.08	  1.14	 28.84	     4	
 27.71	  0.12	  1.26	 28.96	     4	
 27.71	  0.18	  2.21	 29.92	     4	
 27.71	  0.20	  0.41	 28.12	     4	
 27.72	  0.04	  0.96	 28.68	     4	
 27.74	  0.08	  0.21	 27.95	     4	
 27.74	  0.14	  2.53	 30.27	     4	
 27.77	  0.18	  0.62	 28.38	     4	
 27.77	  0.09	  0.90	 28.67	     4	
 27.78	  0.14	  1.91	 29.69	     4	
 27.83	  0.20	  2.82	 30.65	     4	
 27.83	  0.15	  1.89	 29.72	     4	
 27.83	  0.09	  2.34	 30.17	     4	
 27.84	  0.16	  2.28	 30.11	     4	
 27.84	  0.19	  0.22	 28.06	     4	
 27.84	  0.16	  2.83	 30.67	     4	
 27.84	  0.07	  2.80	 30.64	     4	
 27.86	  0.06	  2.30	 30.16	     4	
 27.87	  0.16	  2.91	 30.78	     4	
 27.88	  0.14	  1.40	 29.28	     4	
 27.90	  0.12	  1.40	 29.30	     4	
 27.90	  0.09	  1.00	 28.91	     4	
 27.93	  0.20	  1.75	 29.68	     4	
 27.93	  0.12	  2.97	 30.91	     4	
 27.94	  0.14	  2.86	 30.79	     4	
 27.97	  0.20	  0.75	 28.72	     4	
 27.98	  0.05	  0.66	 28.64	     4	
 27.99	  0.07	  1.95	 29.94	     4	
 28.00	  0.18	  1.19	 29.19	     4	
 43.08	  0.06	  2.52	 45.59	     4	
 43.21	  0.18	  1.11	 44.32	     4	
 43.24	  0.13	  0.69	 43.92	     4	
 43.26	  0.10	  2.24	 45.50	     4	
 43.59	  0.16	  1.38	 44.96	     4	
 43.69	  0.03	  1.39	 45.09	     4	
 43.69	  0.13	  1.49	 45.18	     4	
 44.12	  0.17	  0.81	 44.93	     4	
 44.24	  0.10	  1.09	 45.34	     4	
 44.40	  0.11	  2.12	 46.53	     4	
 44.75	  0.07	  1.46	 46.21	     4	
 44.81	  0.19	  0.71	 45.53	     4	
 44.81	  0.20	  0.80	 45.61	     4	
 44.95	  0.05	  2.53	 47.48	     4	
 45.22	  0.17	  1.00	 46.21	     4	
 45.27	  0.11	  1.56	 46.83	     4	
 45.42	  0.18	  1.07	 46.49	     4	
 45.47	  0.10	  1.07	 46.54	     4	
 45.49	  0.05	  2.61	 48.10	     4	
 45.64	  0.10	  2.44	 48.08	     4	
 45.78	  0.16	  1.99	 47.77	     4	
 45.86	  0.12	  1.73	 47.59	     4	
 45.93	  0.10	  2.97	 48.90	     4	
 45.97	  0.15	  1.99	 47.96	     4	
 46.15	  0.18	  0.14	 46.29	     4	
 46.16	  0.11	  2.97	 49.13	     4	
 46.39	  0.04	  1.15	 47.55	     4	
 46.59	  0.12	  1.39	 47.98	     4	
 46.63	  0.17	  2.28	 48.91	     4	
 46.66	  0.10	  2.34	 49.00	     4	
 46.75	  0.06	  1.52	 48.27	     4	
 46.84	  0.15	  1.47	 48.31	     4	
 46.91	  0.13	  1.02	 47.93	     4	
 46.92	  0.20	  0.90	 47.82	     4	
 46.92	  0.06	  2.62	 49.54	     4	
 47.15	  0.07	  1.74	 48.90	     4	
 47.20	  0.03	  1.02	 48.22	     4	
 50.06	  0.15	  1.00	 51.05	     4	
 50.06	  0.18	  1.72	 51.78	     4	
 50.07	  0.12	  0.51	 50.59	     4	
 50.09	  0.07	  0.74	 50.82	     4	
 50.10	  0.04	  0.37	 50.48	     4	
 50.11	  0.17	  2.38	 52.49	     4	
 50.11	  0.18	  1.05	 51.16	     4	
 50.16	  0.03	  0.78	 50.94	     4	
 50.17	  0.12	  0.80	 50.96	     4	
 50.20	  0.11	  2.87	 53.07	     4	
 50.20	  0.06	  2.94	 53.14	     4	
 50.24	  0.17	  1.54	 51.78	     4	
 50.25	  0.09	  1.41	 51.67	     4	
 50.31	  0.19	  0.20	 50.51	     4	
 50.31	  0.13	  1.27	 51.58	     4	
 50.31	  0.06	  2.77	 53.08	     4	
 50.32	  0.07	  1.79	 52.11	     4	
 50.32	  0.09	  0.10	 50.42	     4	
 50.33	  0.13	  1.39	 51.72	     4	
 50.34	  0.07	  1.59	 51.93	     4	
 50.36	  0.06	  2.88	 53.24	     4	
 50.38	  0.05	  1.38	 51.76	     4	
 50.41	  0.06	  1.76	 52.17	     4	
 50.42	  0.06	  2.65	 53.07	     4	
 50.44	  0.20	  2.61	 53.04	     4	
 50.46	  0.03	  0.46	 50.92	     4	
 50.46	  0.13	  2.19	 52.65	     4	
 50.49	  0.11	  2.77	 53.26	     4	
 50.49	  0.10	  2.88	 53.37	     4	
 50.52	  0.10	  0.37	 50.89	     4	
 50.56	  0.12	  2.99	 53.55	     4	
 50.56	  0.18	  0.81	 51.37	     4	
 50.63	  0.17	  1.36	 51.98	     4	
 50.63	  0.12	  1.80	 52.42	     4	
 50.63	  0.20	  2.17	 52.80	     4	
 50.63	  0.05	  0.93	 51.56	     4	
 50.66	  0.16	  0.46	 51.12	     4	
 50.66	  0.04	  0.10	 50.77	     4	
 50.67	  0.10	  2.42	 53.08	     4	
 50.69	  0.19	  1.50	 52.19	     4	
 50.70	  0.14	  0.91	 51.61	     4	
 50.71	  0.15	  0.69	 51.40	     4	
 50.79	  0.20	  2.84	 53.62	     4	
 50.84	  0.13	  0.88	 51.73	     4	
 50.85	  0.13	  2.68	 53.53	     4	
 50.85	  0.12	  0.15	 51.00	     4	
 50.86	  0.19	  0.40	 51.26	     4	
 50.88	  0.07	  2.75	 53.63	     4	
 50.89	  0.04	  1.22	 52.12	     4	
 50.90	  0.10	  0.72	 51.62	     4	
 50.90	  0.15	  0.21	 51.11	     4	
 50.90	  0.16	  2.18	 53.08	     4	
 50.90	  0.16	  1.56	 52.47	     4	
 50.91	  0.07	  0.30	 51.22	     4	
 50.92	  0.06	  2.55	 53.47	     4	
 50.93	  0.20	  0.20	 51.13	     4	
 50.94	  0.05	  2.63	 53.56	     4	
 50.94	  0.03	  0.64	 51.58	     4	
 50.94	  0.18	  2.31	 53.25	     4	
 50.95	  0.10	  0.78	 51.73	     4	
 50.98	  0.07	  1.28	 52.26	     4	
 51.00	  0.09	  1.35	 52.35	     4	
 51.01	  0.06	  2.79	 53.80	     4	
 51.04	  0.04	  1.70	 52.74	     4	
 51.04	  0.13	  0.55	 51.59	     4	
 51.05	  0.18	  1.40	 52.45	     4	
 51.06	  0.07	  1.00	 52.06	     4	
 51.06	  0.14	  0.25	 51.31	     4	
 51.07	  0.14	  1.73	 52.80	     4	
 51.11	  0.12	  2.36	 53.47	     4	
 51.11	  0.05	  1.66	 52.77	     4	
 51.12	  0.10	  0.43	 51.54	     4	
 51.13	  0.16	  1.13	 52.25	     4	
 51.14	  0.07	  0.28	 51.42	     4	
 51.22	  0.13	  0.51	 51.72	     4	
 51.25	  0.03	  2.98	 54.23	     4	
 51.26	  0.03	  0.37	 51.63	     4	
 51.31	  0.12	  0.91	 52.23	     4	
 51.32	  0.11	  2.71	 54.03	     4	
 51.32	  0.16	  0.35	 51.67	     4	
 51.33	  0.20	  2.00	 53.33	     4	
 51.37	  0.10	  2.95	 54.32	     4	
 51.40	  0.04	  0.49	 51.89	     4	
 51.40	  0.17	  1.52	 52.92	     4	
 51.41	  0.08	  1.96	 53.37	     4	
 51.45	  0.09	  1.28	 52.73	     4	
 51.46	  0.17	  2.02	 53.48	     4	
 51.47	  0.11	  0.30	 51.77	     4	
 51.48	  0.07	  2.97	 54.45	     4	
 51.49	  0.17	  1.30	 52.79	     4	
 51.50	  0.11	  0.48	 51.98	     4	
 51.53	  0.11	  1.67	 53.20	     4	
 51.53	  0.07	  2.90	 54.43	     4	
 51.54	  0.15	  2.18	 53.72	     4	
 51.54	  0.11	  1.43	 52.96	     4	
 51.55	  0.10	  0.56	 52.11	     4	
 51.57	  0.16	  1.04	 52.61	     4	
 51.60	  0.08	  1.44	 53.04	     4	
 51.60	  0.14	  2.39	 53.99	     4	
 51.61	  0.05	  2.02	 53.63	     4	
 51.65	  0.15	  1.51	 53.16	     4	
 51.65	  0.17	  2.47	 54.12	     4	
 51.66	  0.16	  2.30	 53.96	     4	
 51.67	  0.08	  0.12	 51.79	     4	
 51.67	  0.09	  2.66	 54.34	     4	
 51.68	  0.11	  2.82	 54.50	     4	
 51.71	  0.18	  0.81	 52.52	     4	
 51.73	  0.20	  0.19	 51.91	     4	
 51.77	  0.17	  2.56	 54.33	     4	
 51.80	  0.05	  0.16	 51.96	     4	
 51.83	  0.11	  1.31	 53.15	     4	
 51.84	  0.19	  2.48	 54.32	     4	
 51.90	  0.19	  1.44	 53.35	     4	
 51.91	  0.06	  0.64	 52.55	     4	
 51.92	  0.16	  2.31	 54.23	     4	
 51.97	  0.11	  2.52	 54.49	     4	
 51.98	  0.15	  0.25	 52.22	     4	
 51.98	  0.06	  1.60	 53.59	     4	
 51.99	  0.10	  0.42	 52.41	     4	
 52.00	  0.16	  2.49	 54.49	     4	
 66.51	  0.13	  1.35	 67.86	     4	
 66.62	  0.05	  2.03	 68.65	     4	
 66.72	  0.19	  2.16	 68.88	     4	
 66.77	  0.07	  1.28	 68.05	     4	
 67.35	  0.08	  0.10	 67.45	     4	
 67.43	  0.13	  1.87	 69.30	     4	
 67.64	  0.03	  2.72	 70.36	     4	
 67.64	  0.12	  1.18	 68.82	     4	
 67.94	  0.15	  0.17	 68.10	     4	
 68.08	  0.14	  1.88	 69.97	     4	
 68.25	  0.08	  1.84	 70.09	     4	
 68.36	  0.14	  2.87	 71.23	     4	
 68.39	  0.03	  1.67	 70.06	     4	
 68.41	  0.15	  2.23	 70.64	     4	
 68.85	  0.13	  1.84	 70.69	     4	
 68.93	  0.16	  1.47	 70.40	     4	
 69.22	  0.05	  2.73	 71.95	     4	
 69.35	  0.12	  0.78	 70.13	     4	
 69.54	  0.05	  0.86	 70.41	     4	
 69.94	  0.18	  2.36	 72.30	     4	
 69.95	  0.14	  2.29	 72.23	     4	
 70.09	  0.11	  1.63	 71.72	     4	
 70.09	  0.03	  2.42	 72.51	     4	
 70.25	  0.16	  1.50	 71.75	     4	
 70.28	  0.08	  0.65	 70.93	     4	
 70.41	  0.16	  0.13	 70.55	     4	
 70.49	  0.14	  2.28	 72.77	     4	
 70.67	  0.13	  1.05	 71.72	     4	
 70.86	  0.07	  2.37	 73.23	     4	
 70.91	  0.18	  2.73	 73.65	     4	
 70.99	  0.04	  2.47	 73.47	     4	
 71.08	  0.03	  2.58	 73.66	     4	
 71.23	  0.19	  1.00	 72.23	     4	
 71.36	  0.11	  2.63	 73.98	     4	
 71.41	  0.20	  2.04	 73.46	     4	
 74.01	  0.13	  1.82	 75.83	     4	
 74.03	  0.16	  0.91	 74.94	     4	
 74.03	  0.09	  1.95	 75.98	     4	
 74.08	  0.16	  0.81	 74.89	     4	
 74.09	  0.16	  1.38	 75.47	     4	
 74.12	  0.09	  2.71	 76.84	     4	
 74.14	  0.17	  1.76	 75.90	     4	
 74.14	  0.19	  0.64	 74.78	     4	
 74.14	  0.13	  2.06	 76.21	     4	
 74.22	  0.06	  1.29	 75.50	     4	
 74.23	  0.13	  0.31	 74.54	     4	
 74.26	  0.18	  1.26	 75.52	     4	
 74.27	  0.13	  0.65	 74.92	     4	
 74.27	  0.04	  1.12	 75.39	     4	
 74.28	  0.15	  0.42	 74.70	     4	
 74.28	  0.07	  1.95	 76.23	     4	
 74.28	  0.15	  1.24	 75.52	     4	
 74.29	  0.18	  1.91	 76.20	     4	
 74.38	  0.11	  1.01	 75.39	     4	
 74.38	  0.04	  1.58	 75.96	     4	
 74.39	  0.06	  2.14	 76.54	     4	
 74.42	  0.05	  1.13	 75.55	     4	
 74.44	  0.15	  0.69	 75.13	     4	
 74.44	  0.18	  1.51	 75.95	     4	
 74.44	  0.13	  2.94	 77.38	     4	
 74.46	  0.11	  2.88	 77.34	     4	
 74.49	  0.19	  0.69	 75.19	     4	
 74.50	  0.07	  1.07	 75.57	     4	
 74.55	  0.18	  1.57	 76.12	     4	
 74.57	  0.14	  0.14	 74.71	     4	
 74.57	  0.13	  1.28	 75.85	     4	
 74.59	  0.17	  1.40	 75.98	     4	
 74.61	  0.08	  0.76	 75.37	     4	
 74.62	  0.11	  1.59	 76.21	     4	
 74.62	  0.14	  1.40	 76.02	     4	
 74.63	  0.11	  1.49	 76.11	     4	
 74.63	  0.12	  1.01	 75.63	     4	
 74.63	  0.10	  2.23	 76.86	     4	
 74.68	  0.10	  1.86	 76.54	     4	
 74.68	  0.11	  2.90	 77.58	     4	
 74.72	  0.11	  2.24	 76.96	     4	
 74.73	  0.04	  1.54	 76.28	     4	
 74.74	  0.05	  2.60	 77.33	     4	
 74.74	  0.10	  1.21	 75.94	     4	
 74.75	  0.08	  0.38	 75.13	     4	
 74.76	  0.18	  2.17	 76.92	     4	
 74.78	  0.17	  2.39	 77.17	     4	
 74.81	  0.06	  0.60	 75.41	     4	
 74.82	  0.04	  1.96	 76.79	     4	
 74.84	  0.17	  1.97	 76.81	     4	
 74.85	  0.19	  2.88	 77.74	     4	
 74.87	  0.15	  0.79	 75.66	     4	
 74.88	  0.11	  0.77	 75.65	     4	
 74.93	  0.04	  1.44	 76.37	     4	
 74.93	  0.11	  1.23	 76.16	     4	
 74.94	  0.07	  0.23	 75.17	     4	
 74.94	  0.19	  0.71	 75.65	     4	
 74.95	  0.05	  1.85	 76.80	     4	
 74.95	  0.08	  0.41	 75.36	     4	
 74.95	  0.16	  2.12	 77.07	     4	
 75.00	  0.15	  0.95	 75.95	     4	
 75.03	  0.14	  1.90	 76.93	     4	
 75.04	  0.20	  0.67	 75.71	     4	
 75.04	  0.03	  1.79	 76.83	     4	
 75.09	  0.16	  0.68	 75.77	     4	
 75.10	  0.12	  2.44	 77.54	     4	
 75.11	  0.19	  2.59	 77.69	     4	
 75.13	  0.03	  0.79	 75.92	     4	
 75.13	  0.13	  0.26	 75.39	     4	
 75.25	  0.05	  0.48	 75.73	     4	
 75.31	  0.17	  0.86	 76.17	     4	
 75.38	  0.10	  1.77	 77.15	     4	
 75.39	  0.20	  1.87	 77.26	     4	
 75.40	  0.13	  2.84	 78.24	     4	
 75.41	  0.11	  1.24	 76.65	     4	
 75.43	  0.16	  2.24	 77.67	     4	
 75.43	  0.17	  2.59	 78.02	     4	
 75.49	  0.06	  1.84	 77.33	     4	
 75.50	  0.16	  1.59	 77.10	     4	
 75.51	  0.18	  0.40	 75.91	     4	
 75.52	  0.06	  2.86	 78.38	     4	
 75.55	  0.16	  1.42	 76.97	     4	
 75.56	  0.12	  1.73	 77.29	     4	
 75.56	  0.15	  1.47	 77.03	     4	
 75.59	  0.05	  2.24	 77.83	     4	
 75.61	  0.04	  2.31	 77.92	     4	
 75.62	  0.19	  0.82	 76.45	     4	
 75.67	  0.10	  1.72	 77.39	     4	
 75.67	  0.12	  1.27	 76.94	     4	
 75.68	  0.11	  2.51	 78.19	     4	
 75.71	  0.08	  0.56	 76.27	     4	
 75.72	  0.15	  1.31	 77.02	     4	
 75.73	  0.12	  1.29	 77.02	     4	
 75.73	  0.11	  0.24	 75.97	     4	
 75.79	  0.15	  2.91	 78.70	     4	
 75.79	  0.20	  0.46	 76.25	     4	
 75.79	  0.07	  0.75	 76.53	     4	
 75.79	  0.11	  2.77	 78.57	     4	
 75.80	  0.10	  0.33	 76.14	     4	
 75.82	  0.20	  1.89	 77.71	     4	
 75.84	  0.20	  1.05	 76.89	     4	
 75.86	  0.14	  2.23	 78.09	     4	
 75.87	  0.07	  2.82	 78.69	     4	
 75.91	  0.13	  0.76	 76.67	     4	
 75.92	  0.11	  1.69	 77.61	     4	
 75.93	  0.09	  2.53	 78.46	     4	
 75.95	  0.12	  1.58	 77.52	     4	
 75.98	  0.03	  2.06	 78.04	     4	
 76.00	  0.11	  2.61	 78.61	     4	
 90.79	  0.19	  2.09	 92.88	     4	
 90.83	  0.06	  2.92	 93.74	     4	
 90.84	  0.07	  1.83	 92.67	     4	
 91.14	  0.07	  2.12	 93.26	     4	
 91.58	  0.18	  0.87	 92.45	     4	
 91.65	  0.16	  2.64	 94.29	     4	
 91.74	  0.10	  1.07	 92.81	     4	
 91.78	  0.13	  1.57	 93.35	     4	
 91.78	  0.18	  2.24	 94.02	     4	
 91.81	  0.05	  2.56	 94.36	     4	
 91.89	  0.17	  1.48	 93.37	     4	
 92.28	  0.04	  1.19	 93.48	     4	
 92.33	  0.09	  1.51	 93.84	     4	
 92.36	  0.08	  1.96	 94.33	     4	
 92.41	  0.15	  2.86	 95.27	     4	
 92.46	  0.18	  1.86	 94.32	     4	
 92.63	  0.14	  0.19	 92.82	     4	
 92.93	  0.11	  1.84	 94.77	     4	
 93.01	  0.19	  1.95	 94.96	     4	
 93.46	  0.12	  0.72	 94.17	     4	
 93.67	  0.11	  0.30	 93.97	     4	
 93.71	  0.13	  1.86	 95.57	     4	
 93.73	  0.12	  2.02	 95.75	     4	
 94.17	  0.04	  0.75	 94.92	     4	
 94.44	  0.10	  2.97	 97.40	     4	
 95.08	  0.17	  0.69	 95.77	     4	
 95.19	  0.07	  0.97	 96.16	     4	
 95.23	  0.04	  0.31	 95.54	     4	
 95.36	  0.03	  0.77	 96.13	     4	
 95.45	  0.09	  1.93	 97.38	     4	
 95.45	  0.08	  1.11	 96.57	     4	
 98.00	  0.09	  1.04	 99.05	     4	
 98.01	  0.16	  1.58	 99.59	     4	
 98.02	  0.08	  0.73	 98.75	     4	
 98.03	  0.06	  1.04	 99.07	     4	
 98.03	  0.15	  0.28	 98.31	     4	
 98.04	  0.06	  1.93	 99.97	     4	
 98.05	  0.09	  2.35	100.40	     4	
 98.05	  0.16	  1.40	 99.45	     4	
 98.06	  0.09	  1.48	 99.55	     4	
 98.08	  0.12	  0.37	 98.45	     4	
 98.08	  0.12	  2.36	100.44	     4	
 98.11	  0.18	  1.61	 99.71	     4	
 98.12	  0.15	  2.55	100.67	     4	
 98.13	  0.04	  0.16	 98.29	     4	
 98.14	  0.13	  0.74	 98.88	     4	
 98.15	  0.20	  2.48	100.63	     4	
 98.15	  0.15	  2.46	100.61	     4	
 98.16	  0.19	  2.99	101.15	     4	
 98.17	  0.12	  2.27	100.44	     4	
 98.17	  0.10	  0.95	 99.11	     4	
 98.17	  0.17	  0.12	 98.29	     4	
 98.19	  0.05	  2.58	100.77	     4	
 98.21	  0.15	  0.20	 98.41	     4	
 98.22	  0.07	  0.38	 98.60	     4	
 98.24	  0.12	  1.21	 99.45	     4	
 98.26	  0.04	  0.22	 98.48	     4	
 98.26	  0.12	  2.65	100.91	     4	
 98.27	  0.10	  2.78	101.05	     4	
 98.29	  0.17	  1.65	 99.94	     4	
 98.29	  0.12	  2.20	100.49	     4	
 98.30	  0.07	  2.41	100.71	     4	
 98.31	  0.06	  1.92	100.23	     4	
 98.32	  0.19	  0.37	 98.69	     4	
 98.32	  0.07	  0.43	 98.75	     4	
 98.34	  0.09	  1.26	 99.61	     4	
 98.35	  0.14	  0.74	 99.09	     4	
 98.39	  0.13	  1.40	 99.79	     4	
 98.40	  0.15	  1.76	100.16	     4	
 98.43	  0.16	  1.43	 99.86	     4	
 98.45	  0.06	  0.24	 98.69	     4	
 98.45	  0.11	  2.24	100.70	     4	
 98.49	  0.19	  2.78	101.26	     4	
 98.52	  0.06	  0.15	 98.67	     4	
 98.58	  0.15	  2.87	101.45	     4	
 98.61	  0.16	  1.75	100.36	     4	
 98.63	  0.08	  1.70	100.32	     4	
 98.71	  0.16	  2.77	101.48	     4	
 98.71	  0.19	  1.21	 99.92	     4	
 98.76	  0.17	  0.53	 99.28	     4	
 98.78	  0.06	  1.33	100.11	     4	
 98.80	  0.15	  0.63	 99.43	     4	
 98.81	  0.05	  1.50	100.31	     4	
 98.83	  0.11	  0.54	 99.36	     4	
 98.84	  0.05	  1.87	100.71	     4	
 98.86	  0.14	  1.08	 99.94	     4	
 98.86	  0.06	  2.00	100.86	     4	
 98.89	  0.13	  2.81	101.70	     4	
 98.89	  0.17	  2.66	101.55	     4	
 98.92	  0.16	  0.82	 99.73	     4	
 98.93	  0.15	  2.28	101.20	     4	
 98.95	  0.10	  0.97	 99.93	     4	
 98.96	  0.10	  0.56	 99.52	     4	
 98.96	  0.18	  1.74	100.70	     4	
 98.99	  0.16	  2.17	101.16	     4	
 99.00	  0.13	  2.12	101.12	     4	
 99.01	  0.16	  0.61	 99.62	     4	
 99.05	  0.18	  2.64	101.69	     4	
 99.05	  0.16	  1.75	100.80	     4	
 99.08	  0.06	  2.78	101.86	     4	
 99.08	  0.05	  0.90	 99.98	     4	
 99.09	  0.12	  2.99	102.08	     4	
 99.12	  0.07	  1.80	100.91	     4	
 99.14	  0.17	  0.29	 99.44	     4	
 99.15	  0.10	  1.59	100.74	     4	
 99.20	  0.06	  1.21	100.40	     4	
 99.25	  0.09	  1.50	100.75	     4	
 99.26	  0.07	  2.92	102.18	     4	
 99.29	  0.18	  0.93	100.22	     4	
 99.31	  0.13	  0.80	100.11	     4	
 99.32	  0.17	  0.81	100.13	     4	
 99.35	  0.17	  0.11	 99.46	     4	
 99.35	  0.07	  1.35	100.70	     4	
 99.35	  0.12	  1.79	101.15	     4	
 99.37	  0.12	  1.09	100.47	     4	
 99.40	  0.13	  0.88	100.27	     4	
 99.41	  0.10	  0.71	100.11	     4	
 99.41	  0.19	  1.39	100.80	     4	
 99.41	  0.17	  0.29	 99.71	     4	
 99.42	  0.09	  0.10	 99.52	     4	
 99.48	  0.08	  1.02	100.50	     4	
 99.48	  0.15	  2.26	101.74	     4	
 99.48	  0.11	  0.82	100.30	     4	
 99.49	  0.15	  2.88	102.36	     4	
 99.53	  0.09	  1.59	101.11	     4	
 99.54	  0.09	  2.47	102.01	     4	
 99.54	  0.12	  1.26	100.80	     4	
 99.55	  0.19	  2.56	102.11	     4	
 99.55	  0.04	  1.44	100.99	     4	
 99.56	  0.15	  0.22	 99.78	     4	
 99.59	  0.09	  2.38	101.97	     4	
 99.62	  0.20	  0.65	100.27	     4	
 99.62	  0.08	  2.71	102.33	     4	
 99.64	  0.06	  0.55	100.19	     4	
 99.69	  0.19	  1.49	101.18	     4	
 99.70	  0.17	  0.71	100.40	     4	
 99.70	  0.13	  2.24	101.94	     4	
 99.75	  0.19	  2.76	102.50	     4	
 99.75	  0.04	  2.18	101.93	     4	
 99.76	  0.18	  0.25	100.02	     4	
 99.82	  0.06	  1.47	101.30	     4	
 99.82	  0.12	  2.66	102.49	     4	
 99.83	  0.11	  0.97	100.79	     4	
 99.84	  0.08	  0.64	100.48	     4	
 99.89	  0.04	  1.69	101.58	     4	
 99.92	  0.18	  2.68	102.59	     4	
 99.93	  0.09	  0.19	100.12	     4	
 99.96	  0.05	  1.91	101.87	     4	
 99.97	  0.20	  0.29	100.26	     4	
114.62	  0.10	  0.83	115.45	     4	
114.67	  0.06	  2.35	117.02	     4	
114.70	  0.06	  2.88	117.58	     4	
114.71	  0.17	  2.52	117.23	     4	
115.22	  0.17	  2.82	118.04	     4	
115.41	  0.14	  0.57	115.98	     4	
115.45	  0.07	  2.38	117.83	     4	
115.51	  0.11	  1.75	117.26	     4	
115.53	  0.15	  0.36	115.89	     4	
115.56	  0.08	  2.51	118.07	     4	
115.64	  0.07	  2.24	117.88	     4	
115.69	  0.19	  2.09	117.78	     4	
115.78	  0.07	  0.72	116.49	     4	
116.24	  0.07	  2.40	118.64	     4	
116.41	  0.05	  1.67	118.08	     4	
116.63	  0.12	  1.82	118.44	     4	
116.63	  0.13	  1.69	118.32	     4	
116.96	  0.11	  1.90	118.86	     4	
117.01	  0.09	  0.39	117.40	     4	
117.04	  0.10	  1.53	118.58	     4	
117.18	  0.12	  2.87	120.05	     4	
117.19	  0.18	  1.63	118.82	     4	
117.22	  0.20	  2.71	119.92	     4	
117.47	  0.03	  1.47	118.95	     4	
117.51	  0.15	  2.67	120.19	     4	
117.57	  0.17	  0.70	118.27	     4	
117.58	  0.13	  1.41	118.99	     4	
117.83	  0.15	  1.33	119.16	     4	
117.84	  0.05	  1.17	119.01	     4	
117.86	  0.20	  0.52	118.37	     4	
118.26	  0.10	  0.71	118.97	     4	
118.39	  0.07	  2.89	121.28	     4	
118.48	  0.10	  2.94	121.41	     4	
118.50	  0.12	  1.85	120.35	     4	
118.50	  0.15	  2.81	121.31	     4	
118.50	  0.07	  1.90	120.40	     4	
118.53	  0.05	  1.02	119.55	     4	
118.81	  0.11	  2.04	120.85	     4	
118.88	  0.04	  1.17	120.05	     4	
119.01	  0.19	  0.67	119.69	     4	
119.05	  0.16	  1.36	120.40	     4	
119.40	  0.18	  1.99	121.39	     4	
119.47	  0.19	  1.36	120.83	     4	
122.03	  0.10	  0.90	122.94	     4	
122.08	  0.05	  2.81	124.88	     4	
122.08	  0.11	  2.93	125.01	     4	
122.09	  0.17	  2.47	124.57	     4	
122.12	  0.12	  2.92	125.04	     4	
122.15	  0.05	  2.90	125.05	     4	
122.16	  0.08	  1.68	123.84	     4	
122.16	  0.09	  0.61	122.77	     4	
122.23	  0.19	  1.40	123.63	     4	
122.23	  0.03	  2.72	124.95	     4	
122.24	  0.07	  2.17	124.42	     4	
122.24	  0.08	  2.55	124.79	     4	
122.25	  0.18	  1.44	123.69	     4	
122.26	  0.16	  1.51	123.77	     4	
122.26	  0.06	  2.40	124.66	     4	
122.30	  0.06	  2.71	125.01	     4	
122.35	  0.15	  0.42	122.77	     4	
122.35	  0.13	  1.04	123.39	     4	
122.38	  0.15	  1.00	123.38	     4	
122.40	  0.08	  1.21	123.61	     4	
122.41	  0.06	  0.38	122.79	     4	
122.41	  0.08	  2.95	125.36	     4	
122.42	  0.18	  2.18	124.61	     4	
122.44	  0.19	  2.94	125.37	     4	
122.50	  0.19	  2.35	124.85	     4	
122.59	  0.08	  0.30	122.88	     4	
122.63	  0.09	  0.56	123.19	     4	
122.65	  0.04	  0.57	123.22	     4	
122.66	  0.15	  2.42	125.08	     4	
122.68	  0.06	  2.51	125.19	     4	
122.69	  0.15	  2.86	125.55	     4	
122.74	  0.11	  0.52	123.26	     4	
122.74	  0.08	  2.38	125.12	     4	
122.74	  0.17	  1.33	124.07	     4	
122.77	  0.18	  1.27	124.05	     4	
122.79	  0.12	  2.59	125.38	     4	
122.83	  0.08	  2.94	125.77	     4	
122.85	  0.09	  2.94	125.79	     4	
122.85	  0.07	  0.47	123.33	     4	
122.87	  0.13	  1.12	123.99	     4	
122.87	  0.05	  1.38	124.26	     4	
122.89	  0.19	  0.69	123.57	     4	
122.91	  0.11	  1.03	123.93	     4	
122.91	  0.07	  1.25	124.16	     4	
122.93	  0.10	  2.25	125.18	     4	
122.95	  0.10	  1.58	124.53	     4	
122.97	  0.12	  2.25	125.22	     4	
122.98	  0.10	  1.94	124.93	     4	
122.99	  0.09	  0.50	123.49	     4	
123.03	  0.12	  2.83	125.86	     4	
123.03	  0.05	  2.38	125.41	     4	
123.03	  0.12	  1.52	124.55	     4	
123.05	  0.10	  1.71	124.76	     4	
123.06	  0.09	  0.57	123.63	     4	
123.07	  0.16	  0.91	123.98	     4	
123.10	  0.13	  1.85	124.95	     4	
123.11	  0.14	  2.42	125.53	     4	
123.15	  0.16	  2.82	125.97	     4	
123.16	  0.15	  0.15	123.31	     4	
123.21	  0.09	  1.00	124.21	     4	
123.23	  0.15	  2.35	125.58	     4	
123.24	  0.19	  1.70	124.94	     4	
123.26	  0.19	  0.76	124.01	     4	
123.29	  0.13	  0.61	123.90	     4	
123.31	  0.05	  0.41	123.72	     4	
123.34	  0.05	  0.65	123.99	     4	
123.34	  0.10	  2.84	126.18	     4	
123.34	  0.13	  2.78	126.12	     4	
123.36	  0.07	  2.22	125.58	     4	
123.36	  0.10	  2.69	126.05	     4	
123.38	  0.05	  2.93	126.31	     4	
123.38	  0.10	  2.93	126.31	     4	
123.43	  0.17	  2.42	125.85	     4	
123.46	  0.08	  2.94	126.40	     4	
123.47	  0.04	  1.15	124.62	     4	
123.49	  0.13	  1.06	124.54	     4	
123.53	  0.14	  0.31	123.84	     4	
123.56	  0.06	  0.33	123.89	     4	
123.56	  0.19	  2.60	126.15	     4	
123.57	  0.16	  0.17	123.74	     4	
123.57	  0.15	  2.75	126.32	     4	
123.57	  0.15	  2.03	125.60	     4	
123.62	  0.13	  2.99	126.61	     4	
123.63	  0.16	  2.97	126.61	     4	
123.65	  0.19	  2.66	126.32	     4	
123.67	  0.09	  2.94	126.62	     4	
123.68	  0.05	  0.42	124.10	     4	
123.69	  0.13	  0.47	124.15	     4	
123.69	  0.17	  2.49	126.18	     4	
123.73	  0.18	  2.18	125.91	     4	
123.78	  0.08	  2.66	126.44	     4	
123.78	  0.16	  2.67	126.46	     4	
123.79	  0.09	  1.81	125.60	     4	
123.80	  0.09	  2.66	126.46	     4	
123.84	  0.07	  0.39	124.23	     4	
123.84	  0.09	  1.03	124.87	     4	
123.88	  0.19	  0.42	124.30	     4	
123.88	  0.14	  0.56	124.44	     4	
123.89	  0.04	  1.33	125.21	     4	
123.89	  0.08	  0.87	124.76	     4	
123.90	  0.07	  1.01	124.91	     4	
123.91	  0.09	  2.16	126.07	     4	
123.94	  0.08	  1.73	125.67	     4	
123.96	  0.11	  2.91	126.87	     4	
123.98	  0.05	  2.09	126.08	     4	
138.62	  0.07	  1.94	140.56	     4	
138.81	  0.16	  1.98	140.79	     4	
138.87	  0.15	  1.74	140.60	     4	
138.88	  0.05	  2.72	141.61	     4	
138.93	  0.05	  2.22	141.15	     4	
138.99	  0.16	  0.35	139.35	     4	
139.00	  0.04	  0.42	139.42	     4	
139.28	  0.16	  2.10	141.39	     4	
139.40	  0.11	  0.82	140.22	     4	
139.53	  0.08	  2.87	142.41	     4	
139.90	  0.04	  2.60	142.50	     4	
139.92	  0.06	  1.96	141.87	     4	
140.00	  0.12	  1.30	141.30	     4	
140.43	  0.10	  1.49	141.92	     4	
140.58	  0.13	  1.56	142.14	     4	
140.68	  0.18	  1.02	141.70	     4	
140.71	  0.09	  2.51	143.22	     4	
140.71	  0.04	  2.15	142.87	     4	
140.85	  0.17	  2.99	143.85	     4	
140.88	  0.08	  2.99	143.87	     4	
140.88	  0.18	  2.04	142.92	     4	
140.89	  0.14	  0.48	141.37	     4	
140.91	  0.16	  2.35	143.26	     4	
141.11	  0.18	  1.61	142.72	     4	
141.17	  0.18	  0.55	141.73	     4	
141.18	  0.07	  2.83	144.01	     4	
141.20	  0.14	  0.50	141.70	     4	
141.37	  0.15	  0.35	141.72	     4	
141.47	  0.19	  1.53	142.99	     4	
141.54	  0.12	  0.48	142.02	     4	
142.10	  0.04	  1.17	143.26	     4	
142.31	  0.14	  0.93	143.24	     4	
142.35	  0.18	  1.88	144.23	     4	
142.45	  0.04	  0.91	143.37	     4	
142.56	  0.17	  2.03	144.59	     4	
142.56	  0.15	  0.74	143.30	     4	
142.73	  0.09	  1.78	144.51	     4	
143.04	  0.06	  0.97	144.01	     4	
143.25	  0.14	  2.41	145.66	     4	
143.26	  0.11	  1.12	144.39	     4	
143.27	  0.05	  0.49	143.76	     4	
143.35	  0.16	  2.89	146.23	     4	
146.03	  0.14	  2.30	148.33	     4	
146.05	  0.04	  0.77	146.82	     4	
146.11	  0.10	  1.19	147.30	     4	
146.11	  0.18	  1.96	148.08	     4	
146.12	  0.05	  1.26	147.37	     4	
146.12	  0.20	  0.33	146.45	     4	
146.12	  0.06	  0.82	146.94	     4	
146.12	  0.06	  0.39	146.51	     4	
146.17	  0.08	  0.34	146.51	     4	
146.23	  0.15	  2.80	149.03	     4	
146.28	  0.14	  2.41	148.69	     4	
146.35	  0.09	  2.51	148.86	     4	
146.37	  0.03	  0.51	146.87	     4	
146.38	  0.12	  2.26	148.64	     4	
146.42	  0.20	  2.67	149.09	     4	
146.43	  0.19	  1.60	148.03	     4	
146.44	  0.08	  2.51	148.95	     4	
146.46	  0.07	  1.91	148.37	     4	
146.52	  0.15	  1.19	147.70	     4	
146.57	  0.13	  1.78	148.35	     4	
146.59	  0.06	  2.47	149.06	     4	
146.60	  0.08	  1.95	148.54	     4	
146.61	  0.08	  1.38	147.98	     4	
146.68	  0.13	  0.80	147.48	     4	
146.69	  0.18	  2.96	149.65	     4	
146.70	  0.14	  2.92	149.62	     4	
146.70	  0.18	  1.91	148.61	     4	
146.71	  0.17	  0.65	147.36	     4	
146.71	  0.10	  1.83	148.55	     4	
146.74	  0.12	  1.74	148.47	     4	
146.77	  0.06	  0.91	147.68	     4	
146.81	  0.10	  0.65	147.46	     4	
146.88	  0.08	  2.00	148.88	     4	
146.91	  0.14	  1.27	148.18	     4	
146.95	  0.08	  1.76	148.71	     4	
146.98	  0.19	  1.77	148.75	     4	
146.98	  0.03	  0.90	147.88	     4	
146.99	  0.16	  1.77	148.76	     4	
146.99	  0.11	  1.55	148.54	     4	
147.00	  0.07	  1.08	148.08	     4	
147.03	  0.15	  2.99	150.02	     4	
147.06	  0.17	  2.24	149.30	     4	
147.07	  0.12	  1.10	148.17	     4	
147.11	  0.19	  2.09	149.20	     4	
147.12	  0.10	  2.30	149.42	     4	
147.12	  0.03	  1.13	148.26	     4	
147.18	  0.06	  1.57	148.75	     4	
147.20	  0.16	  2.97	150.16	     4	
147.22	  0.13	  1.94	149.15	     4	
147.23	  0.03	  1.24	148.47	     4	
147.24	  0.15	  0.32	147.56	     4	
147.24	  0.05	  1.79	149.03	     4	
147.25	  0.12	  2.82	150.07	     4	
147.25	  0.20	  0.82	148.07	     4	
147.27	  0.18	  0.13	147.39	     4	
147.32	  0.19	  0.36	147.68	     4	
147.33	  0.14	  2.41	149.74	     4	
147.34	  0.13	  1.72	149.06	     4	
147.38	  0.04	  1.01	148.39	     4	
147.40	  0.09	  1.89	149.28	     4	
147.40	  0.12	  1.44	148.84	     4	
147.40	  0.15	  1.67	149.07	     4	
147.42	  0.18	  0.74	148.16	     4	
147.42	  0.10	  1.25	148.67	     4	
147.43	  0.19	  0.91	148.33	     4	
147.43	  0.15	  1.42	148.86	     4	
147.43	  0.07	  0.75	148.19	     4	
147.43	  0.10	  1.17	148.60	     4	
147.45	  0.08	  0.30	147.75	     4	
147.45	  0.07	  2.70	150.15	     4	
147.46	  0.15	  1.00	148.45	     4	
147.47	  0.15	  1.52	148.99	     4	
147.49	  0.06	  0.98	148.47	     4	
147.53	  0.20	  1.51	149.03	     4	
147.53	  0.17	  0.43	147.96	     4	
147.57	  0.19	  1.47	149.04	     4	
147.57	  0.16	  1.16	148.73	     4	
147.61	  0.15	  1.92	149.53	     4	
147.61	  0.15	  1.24	148.85	     4	
147.63	  0.11	  0.54	148.17	     4	
147.69	  0.03	  1.07	148.77	     4	
147.69	  0.06	  0.23	147.92	     4	
147.73	  0.15	  0.70	148.43	     4	
147.76	  0.15	  1.37	149.13	     4	
147.77	  0.04	  2.10	149.87	     4	
147.81	  0.20	  2.51	150.31	     4	
147.83	  0.09	  0.19	148.02	     4	
147.84	  0.17	  2.50	150.34	     4	
147.84	  0.19	  2.24	150.08	     4	
147.85	  0.19	  0.36	148.21	     4	
147.86	  0.09	  0.53	148.39	     4	
147.87	  0.10	  0.53	148.40	     4	
147.87	  0.06	  1.95	149.82	     4	
147.88	  0.04	  0.95	148.83	     4	
147.89	  0.07	  0.95	148.84	     4	
147.89	  0.03	  1.81	149.71	     4	
147.90	  0.15	  1.97	149.86	     4	
147.91	  0.15	  1.29	149.19	     4	
147.92	  0.05	  1.60	149.52	     4	
147.97	  0.19	  0.23	148.19	     4	
147.97	  0.15	  0.82	148.79	     4	
147.99	  0.07	  2.36	150.35	     4	
162.51	  0.16	  2.11	164.62	     4	
162.59	  0.20	  2.16	164.75	     4	
162.65	  0.06	  2.38	165.04	     4	
162.72	  0.07	  0.58	163.30	     4	
162.83	  0.04	  2.15	164.98	     4	
162.93	  0.08	  2.02	164.94	     4	
163.35	  0.07	  0.26	163.61	     4	
163.63	  0.05	  1.96	165.59	     4	
163.76	  0.19	  0.49	164.25	     4	
163.85	  0.14	  2.44	166.29	     4	
164.04	  0.16	  2.55	166.59	     4	
164.21	  0.15	  0.44	164.64	     4	
164.39	  0.13	  2.99	167.39	     4	
164.66	  0.05	  1.82	166.48	     4	
164.68	  0.12	  2.63	167.31	     4	
164.81	  0.13	  0.44	165.25	     4	
164.84	  0.17	  2.27	167.11	     4	
165.17	  0.20	  2.44	167.62	     4	
165.18	  0.19	  1.20	166.38	     4	
165.35	  0.11	  2.93	168.28	     4	
165.38	  0.15	  0.54	165.92	     4	
165.47	  0.05	  2.47	167.94	     4	
165.92	  0.05	  1.66	167.58	     4	
166.28	  0.09	  0.97	167.25	     4	
166.33	  0.14	  0.61	166.94	     4	
166.49	  0.05	  1.93	168.42	     4	
166.69	  0.09	  0.26	166.96	     4	
166.98	  0.04	  1.52	168.50	     4	
167.07	  0.20	  0.15	167.21	     4	
167.12	  0.04	  1.45	168.57	     4	
167.12	  0.05	  2.04	169.16	     4	
167.24	  0.12	  1.85	169.09	     4	
167.31	  0.13	  1.71	169.02	     4	
167.32	  0.12	  0.15	167.47	     4	
167.38	  0.08	  1.51	168.89	     4	
