  2.21	  0.19	  0.46	  2.67	     4	
  2.34	  0.16	  2.27	  4.60	     4	
  2.50	  0.10	  2.94	  5.44	     4	
  2.55	  0.14	  0.87	  3.42	     4	
  2.60	  0.16	  0.44	  3.04	     4	
  2.73	  0.12	  2.18	  4.91	     4	
  2.76	  0.11	  2.23	  4.99	     4	
  2.83	  0.19	  2.94	  5.77	     4	
  2.87	  0.17	  0.32	  3.19	     4	
  3.04	  0.05	  0.97	  4.01	     4	
  3.24	  0.10	  2.80	  6.04	     4	
  3.28	  0.17	  2.25	  5.54	     4	
  3.29	  0.10	  0.71	  4.00	     4	
  3.37	  0.03	  1.24	  4.61	     4	
  3.38	  0.05	  1.74	  5.13	     4	
  3.40	  0.12	  0.96	  4.36	     4	
  3.45	  0.18	  0.27	  3.73	     4	
  3.54	  0.06	  0.79	  4.34	     4	
  3.71	  0.06	  2.16	  5.87	     4	
  3.76	  0.16	  0.76	  4.52	     4	
  3.77	  0.13	  0.83	  4.60	     4	
  3.96	  0.20	  1.39	  5.35	     4	
 19.28	  0.08	  2.74	 22.02	     4	
 21.33	  0.11	  2.03	 23.36	     4	
 22.21	  0.14	  1.67	 23.88	     4	
 22.84	  0.19	  1.28	 24.11	     4	
 26.21	  0.03	  0.63	 26.85	     4	
 26.34	  0.07	  1.46	 27.80	     4	
 26.35	  0.04	  2.99	 29.34	     4	
 26.40	  0.09	  0.34	 26.74	     4	
 26.52	  0.08	  2.99	 29.51	     4	
 26.62	  0.05	  2.03	 28.64	     4	
 26.66	  0.07	  0.81	 27.47	     4	
 26.75	  0.10	  1.14	 27.89	     4	
 26.75	  0.14	  0.85	 27.60	     4	
 26.98	  0.04	  1.37	 28.35	     4	
 26.98	  0.11	  2.24	 29.22	     4	
 27.08	  0.06	  2.97	 30.04	     4	
 27.12	  0.11	  2.12	 29.24	     4	
 27.14	  0.05	  1.08	 28.22	     4	
 27.25	  0.12	  0.88	 28.14	     4	
 27.29	  0.09	  0.51	 27.80	     4	
 27.33	  0.03	  0.80	 28.13	     4	
 27.55	  0.15	  2.30	 29.85	     4	
 27.71	  0.18	  2.21	 29.92	     4	
 27.74	  0.08	  0.21	 27.95	     4	
 27.84	  0.16	  2.28	 30.11	     4	
 27.84	  0.07	  2.80	 30.64	     4	
 27.86	  0.06	  2.30	 30.16	     4	
 27.87	  0.16	  2.91	 30.78	     4	
 27.94	  0.14	  2.86	 30.79	     4	
 43.21	  0.18	  1.11	 44.32	     4	
 43.26	  0.10	  2.24	 45.50	     4	
 44.95	  0.05	  2.53	 47.48	     4	
 45.27	  0.11	  1.56	 46.83	     4	
 45.49	  0.05	  2.61	 48.10	     4	
 45.93	  0.10	  2.97	 48.90	     4	
 45.97	  0.15	  1.99	 47.96	     4	
 46.39	  0.04	  1.15	 47.55	     4	
 46.66	  0.10	  2.34	 49.00	     4	
 46.75	  0.06	  1.52	 48.27	     4	
 46.92	  0.20	  0.90	 47.82	     4	
 50.33	  0.13	  1.39	 51.72	     4	
 50.41	  0.06	  1.76	 52.17	     4	
 50.56	  0.12	  2.99	 53.55	     4	
 50.56	  0.18	  0.81	 51.37	     4	
 50.66	  0.04	  0.10	 50.77	     4	
 50.84	  0.13	  0.88	 51.73	     4	
 50.90	  0.16	  2.18	 53.08	     4	
 50.94	  0.05	  2.63	 53.56	     4	
 51.01	  0.06	  2.79	 53.80	     4	
 51.04	  0.04	  1.70	 52.74	     4	
 51.06	  0.07	  1.00	 52.06	     4	
 51.07	  0.14	  1.73	 52.80	     4	
 51.31	  0.12	  0.91	 52.23	     4	
 51.32	  0.11	  2.71	 54.03	     4	
 51.37	  0.10	  2.95	 54.32	     4	
 51.46	  0.17	  2.02	 53.48	     4	
 51.48	  0.07	  2.97	 54.45	     4	
 51.54	  0.15	  2.18	 53.72	     4	
 51.60	  0.14	  2.39	 53.99	     4	
 51.65	  0.15	  1.51	 53.16	     4	
 51.66	  0.16	  2.30	 53.96	     4	
 51.80	  0.05	  0.16	 51.96	     4	
 51.90	  0.19	  1.44	 53.35	     4	
 66.51	  0.13	  1.35	 67.86	     4	
 68.25	  0.08	  1.84	 70.09	     4	
 68.41	  0.15	  2.23	 70.64	     4	
 68.85	  0.13	  1.84	 70.69	     4	
 69.95	  0.14	  2.29	 72.23	     4	
 70.28	  0.08	  0.65	 70.93	     4	
 70.91	  0.18	  2.73	 73.65	     4	
 71.41	  0.20	  2.04	 73.46	     4	
 74.03	  0.09	  1.95	 75.98	     4	
 74.09	  0.16	  1.38	 75.47	     4	
 74.14	  0.19	  0.64	 74.78	     4	
 74.28	  0.15	  1.24	 75.52	     4	
 74.29	  0.18	  1.91	 76.20	     4	
 74.38	  0.04	  1.58	 75.96	     4	
 74.42	  0.05	  1.13	 75.55	     4	
 74.44	  0.15	  0.69	 75.13	     4	
 74.59	  0.17	  1.40	 75.98	     4	
 74.62	  0.11	  1.59	 76.21	     4	
 74.63	  0.11	  1.49	 76.11	     4	
 74.85	  0.19	  2.88	 77.74	     4	
 75.11	  0.19	  2.59	 77.69	     4	
 75.13	  0.13	  0.26	 75.39	     4	
 75.40	  0.13	  2.84	 78.24	     4	
 75.56	  0.12	  1.73	 77.29	     4	
 75.68	  0.11	  2.51	 78.19	     4	
 75.73	  0.12	  1.29	 77.02	     4	
 75.82	  0.20	  1.89	 77.71	     4	
 75.92	  0.11	  1.69	 77.61	     4	
 75.93	  0.09	  2.53	 78.46	     4	
 90.84	  0.07	  1.83	 92.67	     4	
 91.58	  0.18	  0.87	 92.45	     4	
 91.74	  0.10	  1.07	 92.81	     4	
 91.78	  0.18	  2.24	 94.02	     4	
 92.41	  0.15	  2.86	 95.27	     4	
 93.46	  0.12	  0.72	 94.17	     4	
 93.71	  0.13	  1.86	 95.57	     4	
 94.17	  0.04	  0.75	 94.92	     4	
 98.02	  0.08	  0.73	 98.75	     4	
 98.05	  0.09	  2.35	100.40	     4	
 98.05	  0.16	  1.40	 99.45	     4	
 98.16	  0.19	  2.99	101.15	     4	
 98.17	  0.12	  2.27	100.44	     4	
 98.19	  0.05	  2.58	100.77	     4	
 98.29	  0.12	  2.20	100.49	     4	
 98.40	  0.15	  1.76	100.16	     4	
 98.43	  0.16	  1.43	 99.86	     4	
 98.63	  0.08	  1.70	100.32	     4	
 98.71	  0.19	  1.21	 99.92	     4	
 98.86	  0.14	  1.08	 99.94	     4	
 98.89	  0.13	  2.81	101.70	     4	
 98.92	  0.16	  0.82	 99.73	     4	
 98.95	  0.10	  0.97	 99.93	     4	
 99.26	  0.07	  2.92	102.18	     4	
 99.40	  0.13	  0.88	100.27	     4	
 99.42	  0.09	  0.10	 99.52	     4	
 99.48	  0.15	  2.26	101.74	     4	
 99.54	  0.12	  1.26	100.80	     4	
 99.55	  0.19	  2.56	102.11	     4	
 99.56	  0.15	  0.22	 99.78	     4	
 99.83	  0.11	  0.97	100.79	     4	
 99.96	  0.05	  1.91	101.87	     4	
 99.97	  0.20	  0.29	100.26	     4	
115.78	  0.07	  0.72	116.49	     4	
116.24	  0.07	  2.40	118.64	     4	
117.19	  0.18	  1.63	118.82	     4	
117.51	  0.15	  2.67	120.19	     4	
117.83	  0.15	  1.33	119.16	     4	
117.84	  0.05	  1.17	119.01	     4	
118.39	  0.07	  2.89	121.28	     4	
122.24	  0.07	  2.17	124.42	     4	
122.25	  0.18	  1.44	123.69	     4	
122.35	  0.15	  0.42	122.77	     4	
122.41	  0.06	  0.38	122.79	     4	
122.66	  0.15	  2.42	125.08	     4	
122.77	  0.18	  1.27	124.05	     4	
122.89	  0.19	  0.69	123.57	     4	
122.97	  0.12	  2.25	125.22	     4	
122.98	  0.10	  1.94	124.93	     4	
123.11	  0.14	  2.42	125.53	     4	
123.15	  0.16	  2.82	125.97	     4	
123.56	  0.06	  0.33	123.89	     4	
123.56	  0.19	  2.60	126.15	     4	
123.57	  0.15	  2.03	125.60	     4	
123.62	  0.13	  2.99	126.61	     4	
123.65	  0.19	  2.66	126.32	     4	
123.80	  0.09	  2.66	126.46	     4	
123.84	  0.09	  1.03	124.87	     4	
123.96	  0.11	  2.91	126.87	     4	
138.93	  0.05	  2.22	141.15	     4	
139.00	  0.04	  0.42	139.42	     4	
140.68	  0.18	  1.02	141.70	     4	
141.18	  0.07	  2.83	144.01	     4	
146.11	  0.10	  1.19	147.30	     4	
146.12	  0.06	  0.39	146.51	     4	
146.38	  0.12	  2.26	148.64	     4	
146.59	  0.06	  2.47	149.06	     4	
146.74	  0.12	  1.74	148.47	     4	
147.24	  0.15	  0.32	147.56	     4	
147.34	  0.13	  1.72	149.06	     4	
147.43	  0.19	  0.91	148.33	     4	
147.61	  0.15	  1.24	148.85	     4	
147.69	  0.06	  0.23	147.92	     4	
147.76	  0.15	  1.37	149.13	     4	
147.91	  0.15	  1.29	149.19	     4	
162.65	  0.06	  2.38	165.04	     4	
163.35	  0.07	  0.26	163.61	     4	
163.85	  0.14	  2.44	166.29	     4	
165.92	  0.05	  1.66	167.58	     4	
