  3.77	  0.15	
  6.85	  0.05	
 11.02	  0.20	
 13.93	  0.05	
 14.01	  0.17	
 16.77	  0.05	
 40.43	  0.21	
 43.70	  0.05	
 50.83	  0.33	
 52.27	  0.05	
 53.76	  0.32	
 57.73	  0.05	
 66.89	  0.21	
 67.09	  0.37	
 69.63	  0.21	
 69.66	  0.44	
 70.44	  0.21	
 70.83	  0.05	
 89.80	  0.28	
 92.79	  0.05	
 93.77	  0.32	
 95.96	  0.45	
 96.99	  0.18	
 99.85	  0.05	
100.99	  0.17	
103.59	  0.40	
103.66	  0.28	
105.17	  0.05	
118.54	  0.33	
120.15	  0.05	
