 36.30	  1.94	
 36.72	  0.01	
 66.27	  1.48	
 67.14	  0.01	
 84.19	  1.83	
 84.50	  0.01	
 85.49	  1.80	
 85.83	  0.01	
 90.94	  2.21	
 91.80	  0.01	
115.03	  2.28	
115.39	  0.01	
127.98	  2.49	
128.46	  4.07	
128.87	  2.49	
129.04	  0.01	
131.74	  1.10	
132.30	  0.01	
133.41	  2.20	
134.04	  0.01	
139.48	  2.24	
139.76	  0.01	
153.47	  1.70	
154.01	  0.01	
