  7.21	  2.10	  0.74	  7.95	    10	
  9.79	  1.71	  0.69	 10.48	    10	
 13.29	  2.14	  0.44	 13.73	    10	
 98.19	  2.42	  0.30	 98.49	    10	
102.45	  2.09	  0.29	102.75	    10	
117.28	  1.50	  0.51	117.79	    10	
118.28	  2.49	  0.48	118.76	    10	
121.52	  2.24	  0.76	122.28	    10	
156.94	  1.57	  0.29	157.23	    10	
