 10.86	  0.26	
 10.91	  0.51	
 10.93	  0.76	
 11.01	  1.01	
 11.46	  0.76	
 11.51	  0.51	
 11.51	  0.76	
 11.53	  0.51	
 11.61	  0.26	
 11.73	  0.51	
 11.98	  0.76	
 12.11	  0.51	
 12.33	  0.26	
 12.38	  0.51	
 12.55	  0.76	
 12.58	  0.51	
 12.74	  0.76	
 12.90	  1.01	
 12.98	  0.76	
 13.12	  1.01	
 13.15	  0.76	
 13.25	  1.01	
 13.32	  1.26	
 13.34	  1.01	
 13.50	  0.76	
 13.72	  0.51	
 13.85	  0.26	
 13.92	  0.01	
 14.57	  0.26	
 14.85	  0.51	
 15.13	  0.76	
 15.17	  0.51	
 15.36	  0.76	
 15.45	  0.51	
 15.53	  0.76	
 15.73	  0.51	
 15.75	  0.76	
 15.96	  0.51	
 16.13	  0.26	
 16.35	  0.01	
 16.77	  0.26	
 17.37	  0.01	
 17.67	  0.26	
 17.82	  0.51	
 17.88	  0.76	
 17.95	  1.01	
 18.27	  0.76	
 18.34	  1.01	
 18.39	  1.26	
 18.42	  1.01	
 18.48	  0.76	
 18.52	  1.01	
 18.55	  0.76	
 18.70	  1.01	
 18.89	  1.26	
 18.94	  1.01	
 18.99	  0.76	
 19.12	  0.51	
 19.15	  0.76	
 19.26	  1.01	
 19.29	  1.26	
 19.30	  1.01	
 19.49	  0.76	
 19.75	  0.51	
 19.82	  0.76	
 19.86	  0.51	
 19.89	  0.26	
 20.11	  0.51	
 20.26	  0.76	
 20.42	  0.51	
 20.71	  0.26	
 20.86	  0.01	
 20.92	  0.26	
 21.20	  0.51	
 21.52	  0.26	
 21.73	  0.51	
 21.80	  0.26	
 22.33	  0.01	
 22.34	  0.26	
 22.73	  0.51	
 22.94	  0.26	
 22.96	  0.51	
 23.33	  0.76	
 23.33	  0.51	
 23.36	  0.76	
 23.56	  0.51	
 23.70	  0.76	
 23.91	  1.01	
 23.92	  1.26	
 23.93	  1.01	
 23.96	  1.26	
 23.96	  1.01	
 24.16	  1.26	
 24.30	  1.01	
 24.48	  1.26	
 24.49	  1.51	
 24.51	  1.26	
 24.52	  1.01	
 24.56	  0.76	
 24.76	  0.51	
 25.08	  0.26	
 25.09	  0.01	
 34.79	  0.26	
 35.13	  0.51	
 35.18	  0.76	
 35.39	  0.51	
 35.42	  0.76	
 35.69	  1.01	
 35.73	  0.76	
 35.78	  0.51	
 35.83	  0.76	
 35.84	  1.01	
 36.02	  0.76	
 36.29	  0.51	
 36.43	  0.26	
 36.44	  0.01	
 37.36	  0.26	
 37.61	  0.51	
 37.73	  0.76	
 37.96	  0.51	
 38.15	  0.76	
 38.19	  1.01	
 38.21	  0.76	
 38.33	  0.51	
 38.75	  0.26	
 38.79	  0.01	
 39.27	  0.26	
 39.70	  0.51	
 39.87	  0.26	
 40.30	  0.01	
 40.52	  0.26	
 40.55	  0.51	
 40.71	  0.76	
 41.12	  0.51	
 41.15	  0.26	
 41.31	  0.01	
 41.43	  0.26	
 41.47	  0.51	
 41.58	  0.76	
 41.94	  1.01	
 42.03	  0.76	
 42.07	  0.51	
 42.18	  0.26	
 42.34	  0.51	
 42.54	  0.26	
 42.94	  0.01	
 43.48	  0.26	
 43.52	  0.51	
 43.58	  0.76	
 43.62	  1.01	
 43.86	  1.26	
 44.08	  1.01	
 44.12	  0.76	
 44.18	  0.51	
 44.22	  0.26	
 44.41	  0.51	
 44.46	  0.26	
 44.60	  0.51	
 44.93	  0.76	
 44.99	  1.01	
 45.01	  0.76	
 45.14	  1.01	
 45.20	  0.76	
 45.23	  1.01	
 45.39	  1.26	
 45.41	  1.51	
 45.53	  1.26	
 45.59	  1.01	
 45.74	  0.76	
 45.83	  0.51	
 45.93	  0.76	
 45.99	  0.51	
 46.01	  0.26	
 46.23	  0.51	
 46.53	  0.26	
 46.62	  0.51	
 46.83	  0.26	
 47.22	  0.01	
 47.80	  0.26	
 48.15	  0.51	
 48.28	  0.76	
 48.40	  0.51	
 48.75	  0.26	
 48.88	  0.01	
 58.58	  0.26	
 58.81	  0.51	
 58.82	  0.76	
 59.18	  0.51	
 59.41	  0.26	
 59.42	  0.01	
 60.14	  0.26	
 60.18	  0.51	
 60.23	  0.76	
 60.72	  1.01	
 60.74	  0.76	
 60.78	  0.51	
 60.83	  0.26	
 60.85	  0.51	
 61.08	  0.76	
 61.32	  0.51	
 61.45	  0.26	
 61.68	  0.01	
 61.94	  0.26	
 62.38	  0.51	
 62.46	  0.76	
 62.54	  0.51	
 62.98	  0.26	
 63.06	  0.01	
 63.13	  0.26	
 63.15	  0.51	
 63.57	  0.76	
 63.73	  0.51	
 63.75	  0.26	
 63.82	  0.51	
 63.86	  0.76	
 63.99	  1.01	
 64.10	  1.26	
 64.17	  1.01	
 64.42	  1.26	
 64.42	  1.01	
 64.46	  0.76	
 64.59	  0.51	
 64.67	  0.76	
 64.70	  0.51	
 64.81	  0.76	
 65.02	  0.51	
 65.17	  0.76	
 65.27	  0.51	
 65.41	  0.26	
 65.77	  0.01	
 65.82	  0.26	
 66.01	  0.51	
 66.05	  0.76	
 66.41	  1.01	
 66.42	  0.76	
 66.52	  1.01	
 66.61	  0.76	
 66.65	  0.51	
 66.80	  0.76	
 67.01	  0.51	
 67.12	  0.26	
 67.39	  0.51	
 67.40	  0.26	
 67.40	  0.51	
 67.56	  0.76	
 67.60	  1.01	
 67.94	  1.26	
 67.99	  1.01	
 68.00	  0.76	
 68.16	  0.51	
 68.20	  0.26	
 68.54	  0.01	
 69.08	  0.26	
 69.68	  0.01	
 69.73	  0.26	
 70.33	  0.01	
 70.98	  0.26	
 71.01	  0.51	
 71.02	  0.76	
 71.04	  1.01	
 71.58	  0.76	
 71.61	  0.51	
 71.62	  0.26	
 71.64	  0.01	
 71.83	  0.26	
 71.87	  0.51	
 72.05	  0.76	
 72.24	  1.01	
 72.43	  0.76	
 72.47	  0.51	
 72.65	  0.26	
 72.84	  0.01	
 83.04	  0.26	
 83.05	  0.51	
 83.15	  0.76	
 83.64	  0.51	
 83.65	  0.26	
 83.75	  0.01	
 84.26	  0.26	
 84.69	  0.51	
 84.86	  0.26	
 85.27	  0.51	
 85.29	  0.26	
 85.87	  0.01	
 86.89	  0.26	
 86.98	  0.51	
 87.49	  0.26	
 87.58	  0.01	
 88.01	  0.26	
 88.29	  0.51	
 88.61	  0.26	
 88.86	  0.51	
 88.89	  0.26	
 88.99	  0.51	
 89.46	  0.26	
 89.59	  0.01	
 89.75	  0.26	
 89.87	  0.51	
 89.98	  0.76	
 90.35	  0.51	
 90.47	  0.26	
 90.58	  0.01	
 90.68	  0.26	
 91.27	  0.51	
 91.28	  0.26	
 91.37	  0.51	
 91.45	  0.76	
 91.87	  0.51	
 91.97	  0.26	
 92.05	  0.01	
 93.63	  0.26	
 94.23	  0.01	
 95.00	  0.26	
 95.04	  0.51	
 95.60	  0.26	
 95.64	  0.01	
 95.73	  0.26	
 96.02	  0.51	
 96.20	  0.76	
 96.27	  1.01	
 96.33	  0.76	
 96.35	  1.01	
 96.62	  0.76	
 96.80	  0.51	
 96.87	  0.26	
 96.95	  0.01	
108.21	  0.26	
108.42	  0.51	
108.81	  0.26	
108.84	  0.51	
108.86	  0.76	
109.02	  0.51	
109.44	  0.26	
109.46	  0.01	
109.49	  0.26	
110.09	  0.01	
113.95	  0.26	
114.10	  0.51	
114.21	  0.76	
114.49	  1.01	
114.55	  0.76	
114.70	  0.51	
114.81	  0.26	
115.09	  0.01	
115.11	  0.26	
115.12	  0.51	
115.26	  0.76	
115.29	  1.01	
115.50	  1.26	
115.53	  1.51	
115.71	  1.26	
115.72	  1.01	
115.86	  0.76	
115.89	  0.51	
116.10	  0.26	
116.13	  0.01	
116.30	  0.26	
116.39	  0.51	
116.69	  0.76	
116.83	  1.01	
116.89	  1.26	
116.90	  1.01	
116.99	  0.76	
117.01	  1.01	
117.29	  0.76	
117.43	  0.51	
117.49	  0.26	
117.61	  0.01	
117.82	  0.26	
117.88	  0.51	
118.08	  0.76	
118.42	  0.51	
118.48	  0.26	
118.68	  0.01	
118.88	  0.26	
118.95	  0.51	
119.07	  0.76	
119.31	  1.01	
119.46	  1.26	
119.48	  1.01	
119.55	  0.76	
119.59	  1.01	
119.67	  0.76	
119.91	  0.51	
120.06	  0.26	
120.19	  0.01	
120.25	  0.26	
120.85	  0.01	
130.52	  0.26	
130.84	  0.51	
130.94	  0.76	
131.12	  0.51	
131.44	  0.26	
131.54	  0.01	
132.16	  0.26	
132.26	  0.51	
132.30	  0.76	
132.76	  0.51	
132.86	  0.26	
132.90	  0.01	
132.97	  0.26	
133.04	  0.51	
133.39	  0.76	
133.57	  0.51	
133.64	  0.26	
133.92	  0.51	
133.99	  0.26	
134.09	  0.51	
134.49	  0.76	
134.52	  0.51	
134.67	  0.76	
134.69	  0.51	
134.74	  0.76	
135.09	  1.01	
135.09	  0.76	
135.23	  1.01	
135.23	  1.26	
135.27	  1.01	
135.30	  1.26	
135.34	  1.01	
135.61	  1.26	
135.69	  1.01	
135.73	  1.26	
135.83	  1.01	
135.83	  0.76	
135.90	  0.51	
136.03	  0.76	
136.04	  1.01	
136.15	  1.26	
136.21	  1.01	
136.33	  0.76	
136.45	  1.01	
136.63	  0.76	
136.64	  0.51	
136.71	  0.76	
136.75	  0.51	
136.79	  0.76	
136.81	  1.01	
137.05	  0.76	
137.06	  1.01	
137.16	  1.26	
137.31	  1.01	
137.39	  0.76	
137.41	  0.51	
137.66	  0.26	
137.76	  0.01	
137.96	  0.26	
138.56	  0.01	
138.66	  0.26	
138.75	  0.51	
138.89	  0.76	
139.18	  1.01	
139.26	  0.76	
139.35	  0.51	
139.49	  0.26	
139.78	  0.01	
139.78	  0.26	
140.38	  0.01	
140.50	  0.26	
140.56	  0.51	
140.75	  0.76	
140.78	  1.01	
141.10	  0.76	
141.16	  0.51	
141.35	  0.26	
141.37	  0.51	
141.37	  0.76	
141.38	  0.51	
141.97	  0.26	
141.97	  0.01	
142.66	  0.26	
143.26	  0.01	
143.33	  0.26	
143.44	  0.51	
143.69	  0.76	
143.93	  0.51	
144.04	  0.26	
144.29	  0.01	
154.59	  0.26	
154.70	  0.51	
155.15	  0.76	
155.19	  0.51	
155.30	  0.26	
155.51	  0.51	
155.75	  0.26	
156.11	  0.01	
156.19	  0.26	
156.40	  0.51	
156.79	  0.26	
157.00	  0.01	
157.48	  0.26	
158.08	  0.01	
158.22	  0.26	
158.33	  0.51	
158.82	  0.26	
158.93	  0.01	
160.94	  0.26	
161.54	  0.01	
161.74	  0.26	
161.81	  0.51	
162.34	  0.26	
162.41	  0.01	
162.52	  0.26	
162.92	  0.51	
162.97	  0.76	
163.12	  0.51	
163.52	  0.26	
163.57	  0.01	
164.17	  0.26	
164.55	  0.51	
164.56	  0.76	
164.77	  0.51	
164.89	  0.76	
164.95	  1.01	
165.03	  1.26	
165.07	  1.51	
165.13	  1.76	
165.15	  1.51	
165.16	  1.26	
165.49	  1.01	
165.55	  0.76	
165.63	  0.51	
165.67	  0.26	
165.69	  0.51	
165.69	  0.76	
165.73	  0.51	
165.85	  0.76	
165.93	  1.01	
166.24	  1.26	
166.29	  1.01	
166.29	  0.76	
166.36	  1.01	
166.45	  0.76	
166.47	  1.01	
166.53	  0.76	
166.84	  0.51	
166.96	  0.26	
167.07	  0.01	
167.25	  0.26	
167.34	  0.51	
167.67	  0.76	
167.85	  0.51	
167.94	  0.26	
168.27	  0.01	
168.29	  0.26	
168.89	  0.01	
