  0.00	  0.04	
  0.25	  0.04	
  0.50	  0.04	
  0.75	  0.04	
  1.00	  0.04	
  1.25	  0.04	
  1.50	  0.04	
  1.75	  0.04	
  2.00	  0.04	
  2.25	  0.04	
  2.50	  0.04	
  2.75	  0.04	
  3.00	  0.04	
  3.25	  0.04	
  3.50	  0.04	
  3.75	  0.04	
  4.00	  0.04	
  4.25	  0.04	
  4.50	  0.04	
  4.75	  0.04	
  5.00	  0.04	
  5.25	  0.04	
  5.50	  0.04	
  5.75	  0.04	
  6.00	  0.04	
  6.25	  0.04	
  6.50	  0.04	
  6.75	  0.04	
  7.00	  0.04	
  7.25	  0.04	
  7.50	  0.04	
  7.75	  0.04	
  8.00	  0.04	
  8.25	  0.04	
  8.50	  0.04	
  8.75	  0.04	
  9.00	  0.04	
  9.25	  0.04	
  9.50	  0.04	
  9.75	  0.04	
 10.00	  0.04	
 10.25	  0.04	
 10.50	  0.38	
 10.75	  1.40	
 11.00	  2.20	
 11.25	  1.43	
 11.50	  1.18	
 11.75	  1.99	
 12.00	  2.54	
 12.25	  1.76	
 12.50	  1.18	
 12.75	  1.81	
 13.00	  2.60	
 13.25	  3.79	
 13.50	  2.80	
 13.75	  1.31	
 14.00	  0.23	
 14.25	  0.54	
 14.50	  0.73	
 14.75	  1.00	
 15.00	  1.44	
 15.25	  1.35	
 15.50	  1.17	
 15.75	  1.33	
 16.00	  1.48	
 16.25	  1.11	
 16.50	  1.21	
 16.75	  1.89	
 17.00	  1.91	
 17.25	  1.43	
 17.50	  1.00	
 17.75	  1.28	
 18.00	  2.00	
 18.25	  1.76	
 18.50	  1.62	
 18.75	  1.93	
 19.00	  1.92	
 19.25	  2.93	
 19.50	  3.05	
 19.75	  2.24	
 20.00	  1.03	
 20.25	  1.59	
 20.50	  1.64	
 20.75	  1.21	
 21.00	  0.84	
 21.25	  0.60	
 21.50	  0.58	
 21.75	  0.59	
 22.00	  0.39	
 22.25	  0.84	
 22.50	  1.30	
 22.75	  1.41	
 23.00	  1.47	
 23.25	  1.77	
 23.50	  1.37	
 23.75	  1.12	
 24.00	  1.13	
 24.25	  1.41	
 24.50	  1.38	
 24.75	  0.95	
 25.00	  0.21	
 25.25	  0.04	
 25.50	  0.04	
 25.75	  0.04	
 26.00	  0.04	
 26.25	  0.04	
 26.50	  0.04	
 26.75	  0.04	
 27.00	  0.04	
 27.25	  0.04	
 27.50	  0.04	
 27.75	  0.04	
 28.00	  0.04	
 28.25	  0.04	
 28.50	  0.04	
 28.75	  0.04	
 29.00	  0.04	
 29.25	  0.04	
 29.50	  0.04	
 29.75	  0.04	
 30.00	  0.04	
 30.25	  0.04	
 30.50	  0.04	
 30.75	  0.04	
 31.00	  0.04	
 31.25	  0.04	
 31.50	  0.04	
 31.75	  0.04	
 32.00	  0.04	
 32.25	  0.04	
 32.50	  0.04	
 32.75	  0.04	
 33.00	  0.04	
 33.25	  0.04	
 33.50	  0.04	
 33.75	  0.04	
 34.00	  0.04	
 34.25	  0.04	
 34.50	  0.40	
 34.75	  0.97	
 35.00	  1.40	
 35.25	  1.81	
 35.50	  2.83	
 35.75	  3.48	
 36.00	  3.69	
 36.25	  2.78	
 36.50	  1.84	
 36.75	  2.32	
 37.00	  2.26	
 37.25	  2.16	
 37.50	  1.79	
 37.75	  1.66	
 38.00	  1.30	
 38.25	  1.97	
 38.50	  2.49	
 38.75	  1.48	
 39.00	  0.51	
 39.25	  0.78	
 39.50	  0.87	
 39.75	  0.79	
 40.00	  0.73	
 40.25	  0.59	
 40.50	  1.05	
 40.75	  1.29	
 41.00	  1.28	
 41.25	  0.76	
 41.50	  1.68	
 41.75	  2.01	
 42.00	  1.84	
 42.25	  1.30	
 42.50	  1.15	
 42.75	  1.57	
 43.00	  1.49	
 43.25	  1.97	
 43.50	  2.12	
 43.75	  2.10	
 44.00	  1.63	
 44.25	  1.07	
 44.50	  0.73	
 44.75	  1.37	
 45.00	  1.70	
 45.25	  1.96	
 45.50	  2.17	
 45.75	  1.64	
 46.00	  1.07	
 46.25	  1.59	
 46.50	  1.74	
 46.75	  1.91	
 47.00	  1.87	
 47.25	  0.92	
 47.50	  1.22	
 47.75	  1.88	
 48.00	  2.73	
 48.25	  3.32	
 48.50	  2.11	
 48.75	  0.75	
 49.00	  0.05	
 49.25	  0.04	
 49.50	  0.04	
 49.75	  0.04	
 50.00	  0.04	
 50.25	  0.04	
 50.50	  0.04	
 50.75	  0.04	
 51.00	  0.04	
 51.25	  0.04	
 51.50	  0.04	
 51.75	  0.04	
 52.00	  0.04	
 52.25	  0.04	
 52.50	  0.04	
 52.75	  0.04	
 53.00	  0.04	
 53.25	  0.04	
 53.50	  0.04	
 53.75	  0.04	
 54.00	  0.04	
 54.25	  0.04	
 54.50	  0.04	
 54.75	  0.04	
 55.00	  0.04	
 55.25	  0.04	
 55.50	  0.04	
 55.75	  0.04	
 56.00	  0.04	
 56.25	  0.04	
 56.50	  0.04	
 56.75	  0.04	
 57.00	  0.04	
 57.25	  0.04	
 57.50	  0.04	
 57.75	  0.04	
 58.00	  0.04	
 58.25	  0.04	
 58.50	  0.25	
 58.75	  1.72	
 59.00	  2.75	
 59.25	  2.22	
 59.50	  0.46	
 59.75	  0.63	
 60.00	  1.75	
 60.25	  2.30	
 60.50	  1.72	
 60.75	  1.52	
 61.00	  2.22	
 61.25	  2.46	
 61.50	  2.00	
 61.75	  1.59	
 62.00	  1.64	
 62.25	  1.96	
 62.50	  1.91	
 62.75	  1.78	
 63.00	  1.68	
 63.25	  1.73	
 63.50	  1.87	
 63.75	  1.65	
 64.00	  1.90	
 64.25	  1.66	
 64.50	  1.26	
 64.75	  2.05	
 65.00	  1.95	
 65.25	  0.99	
 65.50	  0.29	
 65.75	  0.41	
 66.00	  1.58	
 66.25	  1.93	
 66.50	  2.28	
 66.75	  2.97	
 67.00	  3.38	
 67.25	  2.81	
 67.50	  2.72	
 67.75	  2.62	
 68.00	  2.14	
 68.25	  1.13	
 68.50	  0.71	
 68.75	  0.87	
 69.00	  0.89	
 69.25	  0.63	
 69.50	  0.74	
 69.75	  0.77	
 70.00	  0.89	
 70.25	  1.03	
 70.50	  0.74	
 70.75	  0.26	
 71.00	  1.10	
 71.25	  1.44	
 71.50	  1.23	
 71.75	  1.37	
 72.00	  1.91	
 72.25	  1.79	
 72.50	  0.97	
 72.75	  0.60	
 73.00	  0.13	
 73.25	  0.04	
 73.50	  0.04	
 73.75	  0.04	
 74.00	  0.04	
 74.25	  0.04	
 74.50	  0.04	
 74.75	  0.04	
 75.00	  0.04	
 75.25	  0.04	
 75.50	  0.04	
 75.75	  0.04	
 76.00	  0.04	
 76.25	  0.04	
 76.50	  0.04	
 76.75	  0.04	
 77.00	  0.04	
 77.25	  0.04	
 77.50	  0.04	
 77.75	  0.04	
 78.00	  0.04	
 78.25	  0.04	
 78.50	  0.04	
 78.75	  0.04	
 79.00	  0.04	
 79.25	  0.04	
 79.50	  0.04	
 79.75	  0.04	
 80.00	  0.04	
 80.25	  0.04	
 80.50	  0.04	
 80.75	  0.04	
 81.00	  0.04	
 81.25	  0.04	
 81.50	  0.04	
 81.75	  0.04	
 82.00	  0.04	
 82.25	  0.04	
 82.50	  0.04	
 82.75	  0.04	
 83.00	  0.67	
 83.25	  1.83	
 83.50	  1.81	
 83.75	  0.76	
 84.00	  1.04	
 84.25	  2.22	
 84.50	  2.50	
 84.75	  1.71	
 85.00	  1.28	
 85.25	  1.32	
 85.50	  0.99	
 85.75	  0.58	
 86.00	  0.46	
 86.25	  0.74	
 86.50	  0.54	
 86.75	  0.42	
 87.00	  0.80	
 87.25	  1.12	
 87.50	  0.74	
 87.75	  1.24	
 88.00	  1.75	
 88.25	  1.78	
 88.50	  1.07	
 88.75	  0.68	
 89.00	  0.87	
 89.25	  1.11	
 89.50	  1.04	
 89.75	  1.38	
 90.00	  1.61	
 90.25	  1.17	
 90.50	  0.91	
 90.75	  1.49	
 91.00	  1.40	
 91.25	  1.04	
 91.50	  1.44	
 91.75	  1.42	
 92.00	  1.56	
 92.25	  1.31	
 92.50	  0.78	
 92.75	  0.41	
 93.00	  0.54	
 93.25	  0.34	
 93.50	  0.16	
 93.75	  0.29	
 94.00	  0.35	
 94.25	  0.30	
 94.50	  0.54	
 94.75	  0.46	
 95.00	  0.84	
 95.25	  0.74	
 95.50	  0.49	
 95.75	  0.94	
 96.00	  1.79	
 96.25	  2.34	
 96.50	  1.96	
 96.75	  0.75	
 97.00	  0.06	
 97.25	  0.04	
 97.50	  0.04	
 97.75	  0.04	
 98.00	  0.04	
 98.25	  0.04	
 98.50	  0.04	
 98.75	  0.04	
 99.00	  0.04	
 99.25	  0.04	
 99.50	  0.04	
 99.75	  0.04	
100.00	  0.04	
100.25	  0.04	
100.50	  0.04	
100.75	  0.04	
101.00	  0.04	
101.25	  0.04	
101.50	  0.04	
101.75	  0.04	
102.00	  0.04	
102.25	  0.04	
102.50	  0.04	
102.75	  0.04	
103.00	  0.04	
103.25	  0.04	
103.50	  0.04	
103.75	  0.04	
104.00	  0.04	
104.25	  0.04	
104.50	  0.04	
104.75	  0.04	
105.00	  0.04	
105.25	  0.04	
105.50	  0.04	
105.75	  0.04	
106.00	  0.04	
106.25	  0.04	
106.50	  0.04	
106.75	  0.08	
107.00	  0.29	
107.25	  0.29	
107.50	  0.27	
107.75	  0.58	
108.00	  0.86	
108.25	  1.48	
108.50	  2.01	
108.75	  2.50	
109.00	  2.44	
109.25	  2.13	
109.50	  1.44	
109.75	  1.14	
110.00	  0.61	
110.25	  0.46	
110.50	  0.54	
110.75	  0.35	
111.00	  0.05	
111.25	  0.04	
111.50	  0.23	
111.75	  0.45	
112.00	  0.45	
112.25	  0.42	
112.50	  0.79	
112.75	  1.16	
113.00	  0.72	
113.25	  0.95	
113.50	  0.83	
113.75	  0.88	
114.00	  1.39	
114.25	  2.05	
114.50	  2.48	
114.75	  2.09	
115.00	  1.83	
115.25	  2.34	
115.50	  3.09	
115.75	  2.39	
116.00	  1.28	
116.25	  1.28	
116.50	  2.63	
116.75	  3.44	
117.00	  2.80	
117.25	  1.73	
117.50	  0.66	
117.75	  0.93	
118.00	  1.05	
118.25	  1.12	
118.50	  0.51	
118.75	  0.85	
119.00	  1.53	
119.25	  2.08	
119.50	  1.92	
119.75	  1.34	
120.00	  0.29	
120.25	  0.31	
120.50	  0.54	
120.75	  0.39	
121.00	  0.12	
121.25	  0.04	
121.50	  0.04	
121.75	  0.04	
122.00	  0.04	
122.25	  0.04	
122.50	  0.04	
122.75	  0.04	
123.00	  0.04	
123.25	  0.04	
123.50	  0.04	
123.75	  0.04	
124.00	  0.04	
124.25	  0.04	
124.50	  0.04	
124.75	  0.04	
125.00	  0.04	
125.25	  0.04	
125.50	  0.04	
125.75	  0.04	
126.00	  0.04	
126.25	  0.04	
126.50	  0.04	
126.75	  0.04	
127.00	  0.04	
127.25	  0.04	
127.50	  0.04	
127.75	  0.04	
128.00	  0.04	
128.25	  0.04	
128.50	  0.04	
128.75	  0.04	
129.00	  0.04	
129.25	  0.04	
129.50	  0.04	
129.75	  0.04	
130.00	  0.04	
130.25	  0.04	
130.50	  0.44	
130.75	  0.75	
131.00	  0.99	
131.25	  0.95	
131.50	  0.63	
131.75	  0.77	
132.00	  1.41	
132.25	  2.20	
132.50	  2.85	
132.75	  2.80	
133.00	  2.64	
133.25	  2.41	
133.50	  2.26	
133.75	  1.98	
134.00	  1.38	
134.25	  1.44	
134.50	  1.51	
134.75	  1.82	
135.00	  1.88	
135.25	  1.90	
135.50	  1.64	
135.75	  1.07	
136.00	  1.11	
136.25	  1.60	
136.50	  2.21	
136.75	  2.73	
137.00	  2.23	
137.25	  1.82	
137.50	  1.85	
137.75	  1.65	
138.00	  1.58	
138.25	  1.54	
138.50	  1.44	
138.75	  1.90	
139.00	  2.52	
139.25	  2.80	
139.50	  2.05	
139.75	  1.73	
140.00	  1.77	
140.25	  2.11	
140.50	  1.90	
140.75	  2.50	
141.00	  2.40	
141.25	  2.63	
141.50	  2.06	
141.75	  1.66	
142.00	  0.71	
142.25	  0.83	
142.50	  1.50	
142.75	  1.70	
143.00	  1.56	
143.25	  1.37	
143.50	  1.55	
143.75	  1.85	
144.00	  1.19	
144.25	  0.87	
144.50	  0.54	
144.75	  0.52	
145.00	  0.06	
145.25	  0.04	
145.50	  0.04	
145.75	  0.04	
146.00	  0.04	
146.25	  0.04	
146.50	  0.04	
146.75	  0.04	
147.00	  0.04	
147.25	  0.04	
147.50	  0.04	
147.75	  0.04	
148.00	  0.04	
148.25	  0.04	
148.50	  0.04	
148.75	  0.04	
149.00	  0.04	
149.25	  0.04	
149.50	  0.04	
149.75	  0.04	
150.00	  0.04	
150.25	  0.04	
150.50	  0.04	
150.75	  0.04	
151.00	  0.04	
151.25	  0.04	
151.50	  0.04	
151.75	  0.04	
152.00	  0.04	
152.25	  0.04	
152.50	  0.04	
152.75	  0.04	
153.00	  0.04	
153.25	  0.04	
153.50	  0.04	
153.75	  0.04	
154.00	  0.04	
154.25	  0.04	
154.50	  0.55	
154.75	  1.27	
155.00	  1.19	
155.25	  0.50	
155.50	  0.86	
155.75	  1.22	
156.00	  1.52	
156.25	  1.40	
156.50	  1.74	
156.75	  1.48	
157.00	  1.19	
157.25	  0.92	
157.50	  1.04	
157.75	  0.68	
158.00	  0.98	
158.25	  1.69	
158.50	  1.82	
158.75	  1.38	
159.00	  0.77	
159.25	  0.35	
159.50	  0.29	
159.75	  0.25	
160.00	  0.33	
160.25	  0.71	
160.50	  0.81	
160.75	  0.78	
161.00	  0.96	
161.25	  0.98	
161.50	  0.86	
161.75	  2.13	
162.00	  2.35	
162.25	  1.37	
162.50	  1.21	
162.75	  1.18	
163.00	  1.88	
163.25	  2.79	
163.50	  3.16	
163.75	  2.18	
164.00	  1.89	
164.25	  1.66	
164.50	  1.45	
164.75	  0.77	
165.00	  1.62	
165.25	  2.59	
165.50	  2.62	
165.75	  2.56	
166.00	  2.10	
166.25	  1.92	
166.50	  1.43	
166.75	  1.58	
167.00	  1.41	
167.25	  1.71	
167.50	  1.36	
167.75	  1.51	
168.00	  0.96	
