  2.06	  0.19	  1.95	  4.02	     4	
  2.23	  0.19	  0.50	  2.73	     4	
  2.25	  0.08	  0.39	  2.63	     4	
  2.26	  0.16	  0.77	  3.03	     4	
  2.29	  0.15	  1.89	  4.17	     4	
  2.46	  0.08	  1.94	  4.40	     4	
  2.48	  0.11	  0.39	  2.87	     4	
  2.61	  0.16	  0.86	  3.47	     4	
  2.68	  0.11	  1.21	  3.89	     4	
  2.80	  0.06	  1.96	  4.76	     4	
  2.83	  0.11	  1.61	  4.44	     4	
  2.86	  0.15	  1.92	  4.77	     4	
  2.90	  0.16	  2.79	  5.69	     4	
  3.16	  0.06	  1.62	  4.78	     4	
  3.21	  0.09	  2.81	  6.02	     4	
  3.32	  0.19	  2.56	  5.88	     4	
  3.36	  0.15	  1.85	  5.21	     4	
  3.54	  0.15	  1.52	  5.07	     4	
  3.75	  0.20	  1.77	  5.52	     4	
  3.77	  0.10	  3.08	  6.85	     5	
  3.87	  0.12	  0.98	  4.85	     4	
  3.88	  0.09	  0.41	  4.29	     4	
  3.91	  0.10	  1.88	  5.79	     4	
  7.64	  2.42	  0.33	  7.98	     1	
  9.37	  0.61	  0.71	 10.08	     2	
 10.63	  0.25	  0.60	 11.23	     3	
 11.02	  0.15	  2.91	 13.93	     5	
 11.51	  0.25	  0.60	 12.11	     3	
 11.66	  0.25	  0.60	 12.26	     3	
 11.95	  0.25	  0.60	 12.55	     3	
 12.30	  0.25	  0.60	 12.90	     3	
 14.01	  0.12	  2.77	 16.77	     5	
 14.18	  0.25	  0.60	 14.78	     3	
 14.71	  0.25	  0.60	 15.31	     3	
 14.88	  0.25	  0.60	 15.48	     3	
 15.56	  0.25	  0.60	 16.16	     3	
 16.02	  0.25	  0.60	 16.62	     3	
 16.10	  0.25	  0.60	 16.70	     3	
 16.45	  0.25	  0.60	 17.05	     3	
 16.64	  0.25	  0.60	 17.24	     3	
 16.73	  0.25	  0.60	 17.33	     3	
 16.88	  0.25	  0.60	 17.48	     3	
 17.13	  0.25	  0.60	 17.73	     3	
 17.42	  0.25	  0.60	 18.02	     3	
 17.98	  0.25	  0.60	 18.58	     3	
 18.49	  0.25	  0.60	 19.09	     3	
 18.54	  0.05	  0.79	 19.34	     4	
 18.74	  0.09	  2.39	 21.13	     4	
 18.86	  0.17	  1.09	 19.95	     4	
 19.10	  0.25	  0.60	 19.70	     3	
 19.16	  0.06	  0.69	 19.85	     4	
 19.21	  0.12	  1.85	 21.06	     4	
 19.21	  1.26	  0.33	 19.54	     1	
 19.42	  0.25	  0.60	 20.02	     3	
 20.37	  0.25	  0.60	 20.97	     3	
 20.53	  0.07	  2.23	 22.77	     4	
 20.86	  0.12	  2.66	 23.52	     4	
 21.29	  0.07	  0.93	 22.22	     4	
 21.65	  0.04	  2.16	 23.82	     4	
 22.00	  0.08	  0.21	 22.21	     4	
 22.41	  0.20	  0.62	 23.03	     4	
 22.52	  0.18	  1.47	 23.99	     4	
 22.86	  0.25	  0.60	 23.46	     3	
 22.98	  0.25	  0.60	 23.58	     3	
 23.06	  0.25	  0.60	 23.66	     3	
 23.12	  0.25	  0.60	 23.72	     3	
 23.37	  0.25	  0.60	 23.97	     3	
 24.31	  0.25	  0.60	 24.91	     3	
 26.03	  0.18	  0.44	 26.47	     4	
 26.03	  0.15	  0.96	 27.00	     4	
 26.09	  0.06	  1.03	 27.12	     4	
 26.09	  0.10	  2.02	 28.11	     4	
 26.13	  0.03	  1.19	 27.32	     4	
 26.38	  0.10	  1.93	 28.30	     4	
 26.52	  0.09	  1.28	 27.80	     4	
 26.60	  0.09	  2.29	 28.89	     4	
 26.67	  0.03	  1.07	 27.75	     4	
 26.78	  0.13	  0.30	 27.08	     4	
 26.85	  0.08	  0.37	 27.22	     4	
 27.45	  0.15	  0.43	 27.88	     4	
 27.68	  0.13	  1.55	 29.23	     4	
 27.71	  0.20	  0.41	 28.12	     4	
 27.72	  0.04	  0.96	 28.68	     4	
 27.74	  0.14	  2.53	 30.27	     4	
 27.78	  0.14	  1.91	 29.69	     4	
 27.83	  0.20	  2.82	 30.65	     4	
 27.84	  0.19	  0.22	 28.06	     4	
 27.90	  0.09	  1.00	 28.91	     4	
 28.00	  0.18	  1.19	 29.19	     4	
 33.07	  0.61	  0.50	 33.57	     2	
 33.62	  0.63	  0.64	 34.26	     2	
 34.53	  0.25	  0.60	 35.13	     3	
 34.60	  0.25	  0.60	 35.20	     3	
 34.79	  0.25	  0.60	 35.39	     3	
 34.99	  0.25	  0.60	 35.59	     3	
 35.16	  0.25	  0.60	 35.76	     3	
 35.51	  0.25	  0.60	 36.11	     3	
 35.66	  2.16	  1.11	 36.77	     1	
 35.79	  0.25	  0.60	 36.39	     3	
 35.91	  0.25	  0.60	 36.51	     3	
 35.94	  0.25	  0.60	 36.54	     3	
 35.97	  0.25	  0.60	 36.57	     3	
 36.00	  0.25	  0.60	 36.60	     3	
 36.42	  0.25	  0.60	 37.02	     3	
 36.55	  0.25	  0.60	 37.15	     3	
 36.97	  0.25	  0.60	 37.57	     3	
 36.98	  0.32	  0.68	 37.66	     2	
 37.03	  0.25	  0.60	 37.63	     3	
 37.60	  0.25	  0.60	 38.20	     3	
 37.79	  0.25	  0.60	 38.39	     3	
 38.24	  0.25	  0.60	 38.84	     3	
 38.36	  0.25	  0.60	 38.96	     3	
 38.37	  0.25	  0.60	 38.97	     3	
 38.42	  0.25	  0.60	 39.02	     3	
 38.52	  0.25	  0.60	 39.12	     3	
 39.17	  0.25	  0.60	 39.77	     3	
 39.49	  0.25	  0.60	 40.09	     3	
 39.90	  0.25	  0.60	 40.50	     3	
 40.43	  0.16	  3.28	 43.70	     5	
 40.66	  0.25	  0.60	 41.26	     3	
 41.17	  0.25	  0.60	 41.77	     3	
 41.45	  0.25	  0.60	 42.05	     3	
 41.62	  0.25	  0.60	 42.22	     3	
 41.89	  0.54	  0.64	 42.53	     2	
 42.44	  0.25	  0.60	 43.04	     3	
 42.83	  0.25	  0.60	 43.43	     3	
 43.23	  0.25	  0.60	 43.83	     3	
 43.38	  0.25	  0.60	 43.98	     3	
 43.91	  0.25	  0.60	 44.51	     3	
 44.12	  0.17	  0.81	 44.93	     4	
 44.62	  0.25	  0.60	 45.22	     3	
 44.74	  0.25	  0.60	 45.34	     3	
 45.35	  0.25	  0.60	 45.95	     3	
 45.42	  0.18	  1.07	 46.49	     4	
 45.64	  0.10	  2.44	 48.08	     4	
 45.73	  0.25	  0.60	 46.33	     3	
 45.86	  0.12	  1.73	 47.59	     4	
 46.15	  0.18	  0.14	 46.29	     4	
 46.16	  0.11	  2.97	 49.13	     4	
 46.19	  0.25	  0.60	 46.79	     3	
 46.53	  0.25	  0.60	 47.13	     3	
 46.59	  0.12	  1.39	 47.98	     4	
 46.63	  0.17	  2.28	 48.91	     4	
 46.67	  0.25	  0.60	 47.27	     3	
 46.84	  0.15	  1.47	 48.31	     4	
 46.88	  0.25	  0.60	 47.48	     3	
 46.92	  0.06	  2.62	 49.54	     4	
 47.20	  0.03	  1.02	 48.22	     4	
 47.53	  0.25	  0.60	 48.13	     3	
 47.56	  0.25	  0.60	 48.16	     3	
 47.81	  0.25	  0.60	 48.41	     3	
 47.90	  0.25	  0.60	 48.50	     3	
 47.91	  0.25	  0.60	 48.51	     3	
 48.14	  0.25	  0.60	 48.74	     3	
 48.28	  0.25	  0.60	 48.88	     3	
 48.41	  0.25	  0.60	 49.01	     3	
 50.07	  0.12	  0.51	 50.59	     4	
 50.09	  0.07	  0.74	 50.82	     4	
 50.20	  0.11	  2.87	 53.07	     4	
 50.20	  0.06	  2.94	 53.14	     4	
 50.31	  0.19	  0.20	 50.51	     4	
 50.31	  0.06	  2.77	 53.08	     4	
 50.44	  0.20	  2.61	 53.04	     4	
 50.46	  0.13	  2.19	 52.65	     4	
 50.49	  0.10	  2.88	 53.37	     4	
 50.63	  0.05	  0.93	 51.56	     4	
 50.67	  0.10	  2.42	 53.08	     4	
 50.79	  0.20	  2.84	 53.62	     4	
 50.83	  0.28	  1.44	 52.27	     5	
 50.92	  0.06	  2.55	 53.47	     4	
 50.94	  0.03	  0.64	 51.58	     4	
 51.04	  0.13	  0.55	 51.59	     4	
 51.06	  0.14	  0.25	 51.31	     4	
 51.11	  0.12	  2.36	 53.47	     4	
 51.11	  0.05	  1.66	 52.77	     4	
 51.33	  0.20	  2.00	 53.33	     4	
 51.40	  0.17	  1.52	 52.92	     4	
 51.54	  0.11	  1.43	 52.96	     4	
 51.67	  0.08	  0.12	 51.79	     4	
 51.71	  0.18	  0.81	 52.52	     4	
 51.83	  0.11	  1.31	 53.15	     4	
 51.98	  0.15	  0.25	 52.22	     4	
 51.98	  0.06	  1.60	 53.59	     4	
 51.99	  0.10	  0.42	 52.41	     4	
 53.76	  0.27	  3.97	 57.73	     5	
 55.07	  0.41	  0.71	 55.79	     2	
 55.40	  0.41	  0.70	 56.10	     2	
 56.02	  1.57	  0.51	 56.53	     1	
 58.70	  0.25	  0.60	 59.30	     3	
 58.86	  0.25	  0.60	 59.46	     3	
 58.87	  0.25	  0.60	 59.47	     3	
 58.88	  0.25	  0.60	 59.48	     3	
 59.07	  0.25	  0.60	 59.67	     3	
 59.14	  0.25	  0.60	 59.74	     3	
 59.81	  0.25	  0.60	 60.41	     3	
 59.94	  0.25	  0.60	 60.54	     3	
 60.00	  0.25	  0.60	 60.60	     3	
 61.17	  0.25	  0.60	 61.77	     3	
 61.90	  0.25	  0.60	 62.50	     3	
 62.10	  0.25	  0.60	 62.70	     3	
 62.63	  0.25	  0.60	 63.23	     3	
 62.69	  0.25	  0.60	 63.29	     3	
 62.70	  0.25	  0.60	 63.30	     3	
 63.02	  0.25	  0.60	 63.62	     3	
 63.25	  0.25	  0.60	 63.85	     3	
 63.55	  0.25	  0.60	 64.15	     3	
 63.82	  0.25	  0.60	 64.42	     3	
 63.85	  0.25	  0.60	 64.45	     3	
 64.47	  0.25	  0.60	 65.07	     3	
 64.67	  0.25	  0.60	 65.27	     3	
 64.67	  0.25	  0.60	 65.27	     3	
 64.78	  0.25	  0.60	 65.38	     3	
 64.82	  0.25	  0.60	 65.42	     3	
 64.84	  0.25	  0.60	 65.44	     3	
 65.91	  0.25	  0.60	 66.51	     3	
 65.93	  0.25	  0.60	 66.53	     3	
 65.99	  0.25	  0.60	 66.59	     3	
 66.15	  0.25	  0.60	 66.75	     3	
 66.37	  0.25	  0.60	 66.97	     3	
 66.52	  0.25	  0.60	 67.12	     3	
 66.53	  0.25	  0.60	 67.13	     3	
 66.62	  0.05	  2.03	 68.65	     4	
 66.70	  0.25	  0.60	 67.30	     3	
 66.73	  0.25	  0.60	 67.33	     3	
 66.89	  0.16	  2.74	 69.63	     5	
 66.96	  0.25	  0.60	 67.56	     3	
 67.09	  0.16	  3.75	 70.83	     5	
 67.56	  0.25	  0.60	 68.16	     3	
 67.64	  0.03	  2.72	 70.36	     4	
 67.68	  0.25	  0.60	 68.28	     3	
 67.71	  0.25	  0.60	 68.31	     3	
 67.78	  2.33	  1.10	 68.88	     1	
 68.39	  0.03	  1.67	 70.06	     4	
 68.67	  0.25	  0.60	 69.27	     3	
 68.75	  0.25	  0.60	 69.35	     3	
 69.22	  0.05	  2.73	 71.95	     4	
 69.54	  0.05	  0.86	 70.41	     4	
 69.66	  0.22	  0.78	 70.44	     5	
 69.92	  0.25	  0.60	 70.52	     3	
 69.94	  0.18	  2.36	 72.30	     4	
 70.08	  0.25	  0.60	 70.68	     3	
 70.09	  0.11	  1.63	 71.72	     4	
 70.09	  0.03	  2.42	 72.51	     4	
 70.15	  0.25	  0.60	 70.75	     3	
 70.25	  0.16	  1.50	 71.75	     4	
 70.35	  0.25	  0.60	 70.95	     3	
 70.41	  0.16	  0.13	 70.55	     4	
 71.08	  0.03	  2.58	 73.66	     4	
 71.12	  0.25	  0.60	 71.72	     3	
 71.23	  0.19	  1.00	 72.23	     4	
 72.37	  0.25	  0.60	 72.97	     3	
 72.49	  0.25	  0.60	 73.09	     3	
 74.03	  0.16	  0.91	 74.94	     4	
 74.08	  0.16	  0.81	 74.89	     4	
 74.39	  0.06	  2.14	 76.54	     4	
 74.46	  0.11	  2.88	 77.34	     4	
 74.57	  0.13	  1.28	 75.85	     4	
 74.72	  0.11	  2.24	 76.96	     4	
 74.75	  0.08	  0.38	 75.13	     4	
 74.78	  0.17	  2.39	 77.17	     4	
 74.84	  0.17	  1.97	 76.81	     4	
 74.87	  0.15	  0.79	 75.66	     4	
 74.93	  0.04	  1.44	 76.37	     4	
 74.94	  0.07	  0.23	 75.17	     4	
 74.94	  0.19	  0.71	 75.65	     4	
 75.09	  0.16	  0.68	 75.77	     4	
 75.10	  0.12	  2.44	 77.54	     4	
 75.25	  0.05	  0.48	 75.73	     4	
 75.50	  0.16	  1.59	 77.10	     4	
 75.55	  0.16	  1.42	 76.97	     4	
 75.71	  0.08	  0.56	 76.27	     4	
 75.79	  0.15	  2.91	 78.70	     4	
 75.79	  0.20	  0.46	 76.25	     4	
 75.80	  0.10	  0.33	 76.14	     4	
 75.87	  0.07	  2.82	 78.69	     4	
 75.91	  0.13	  0.76	 76.67	     4	
 79.85	  0.30	  0.63	 80.48	     2	
 81.24	  1.85	  0.81	 82.05	     1	
 83.14	  0.25	  0.60	 83.74	     3	
 83.25	  0.25	  0.60	 83.85	     3	
 83.29	  0.25	  0.60	 83.89	     3	
 83.41	  0.25	  0.60	 84.01	     3	
 84.13	  0.25	  0.60	 84.73	     3	
 84.13	  2.03	  0.54	 84.68	     1	
 84.32	  0.25	  0.60	 84.92	     3	
 84.38	  0.25	  0.60	 84.98	     3	
 85.61	  0.25	  0.60	 86.21	     3	
 86.48	  0.25	  0.60	 87.08	     3	
 86.51	  0.25	  0.60	 87.11	     3	
 86.85	  0.25	  0.60	 87.45	     3	
 87.61	  0.25	  0.60	 88.21	     3	
 88.17	  0.25	  0.60	 88.77	     3	
 88.23	  0.25	  0.60	 88.83	     3	
 88.34	  0.62	  0.71	 89.05	     2	
 88.53	  0.25	  0.60	 89.13	     3	
 89.27	  0.25	  0.60	 89.87	     3	
 89.53	  0.25	  0.60	 90.13	     3	
 89.62	  0.25	  0.60	 90.22	     3	
 89.80	  0.23	  2.99	 92.79	     5	
 89.90	  0.25	  0.60	 90.50	     3	
 90.45	  0.25	  0.60	 91.05	     3	
 90.49	  0.51	  0.50	 90.99	     2	
 91.67	  0.25	  0.60	 92.27	     3	
 92.28	  0.04	  1.19	 93.48	     4	
 92.33	  0.09	  1.51	 93.84	     4	
 92.72	  0.25	  0.60	 93.32	     3	
 93.67	  0.11	  0.30	 93.97	     4	
 93.77	  0.27	  3.21	 96.99	     5	
 94.17	  0.25	  0.60	 94.77	     3	
 95.23	  0.04	  0.31	 95.54	     4	
 95.36	  0.03	  0.77	 96.13	     4	
 95.61	  0.25	  0.60	 96.21	     3	
 95.86	  0.25	  0.60	 96.46	     3	
 95.96	  0.13	  3.89	 99.85	     5	
 96.20	  0.25	  0.60	 96.80	     3	
 96.42	  0.25	  0.60	 97.02	     3	
 98.01	  0.16	  1.58	 99.59	     4	
 98.06	  0.09	  1.48	 99.55	     4	
 98.08	  0.12	  2.36	100.44	     4	
 98.13	  0.04	  0.16	 98.29	     4	
 98.22	  0.07	  0.38	 98.60	     4	
 98.29	  0.17	  1.65	 99.94	     4	
 98.30	  0.07	  2.41	100.71	     4	
 98.45	  0.06	  0.24	 98.69	     4	
 98.58	  0.15	  2.87	101.45	     4	
 98.81	  0.05	  1.50	100.31	     4	
 98.83	  0.11	  0.54	 99.36	     4	
 98.89	  0.17	  2.66	101.55	     4	
 99.12	  0.07	  1.80	100.91	     4	
 99.15	  0.10	  1.59	100.74	     4	
 99.31	  0.13	  0.80	100.11	     4	
 99.32	  0.17	  0.81	100.13	     4	
 99.35	  0.12	  1.79	101.15	     4	
 99.48	  0.11	  0.82	100.30	     4	
 99.53	  0.09	  1.59	101.11	     4	
 99.55	  0.04	  1.44	100.99	     4	
 99.62	  0.20	  0.65	100.27	     4	
 99.64	  0.06	  0.55	100.19	     4	
 99.70	  0.17	  0.71	100.40	     4	
 99.70	  0.13	  2.24	101.94	     4	
 99.75	  0.19	  2.76	102.50	     4	
 99.82	  0.06	  1.47	101.30	     4	
 99.84	  0.08	  0.64	100.48	     4	
100.99	  0.12	  2.67	103.66	     5	
103.59	  0.23	  1.58	105.17	     5	
104.43	  0.37	  0.54	104.96	     2	
105.80	  0.31	  0.65	106.45	     2	
106.96	  0.25	  0.60	107.56	     3	
107.86	  0.25	  0.60	108.46	     3	
107.86	  0.25	  0.60	108.46	     3	
108.25	  1.26	  0.33	108.58	     1	
108.41	  0.25	  0.60	109.01	     3	
108.47	  0.25	  0.60	109.07	     3	
108.73	  0.25	  0.60	109.33	     3	
109.39	  0.25	  0.60	109.99	     3	
109.59	  0.25	  0.60	110.19	     3	
109.73	  0.25	  0.60	110.33	     3	
110.21	  0.25	  0.60	110.81	     3	
110.41	  0.25	  0.60	111.01	     3	
111.56	  0.25	  0.60	112.16	     3	
111.84	  0.25	  0.60	112.44	     3	
112.39	  0.25	  0.60	112.99	     3	
112.42	  0.25	  0.60	113.02	     3	
112.50	  0.25	  0.60	113.10	     3	
112.77	  0.25	  0.60	113.37	     3	
112.85	  0.25	  0.60	113.45	     3	
113.41	  0.25	  0.60	114.01	     3	
113.71	  0.25	  0.60	114.31	     3	
113.84	  0.25	  0.60	114.44	     3	
114.07	  0.25	  0.60	114.67	     3	
114.17	  0.25	  0.60	114.77	     3	
114.29	  0.25	  0.60	114.89	     3	
114.54	  0.25	  0.60	115.14	     3	
114.62	  0.10	  0.83	115.45	     4	
114.78	  0.25	  0.60	115.38	     3	
115.18	  0.25	  0.60	115.78	     3	
115.22	  0.17	  2.82	118.04	     4	
115.36	  0.25	  0.60	115.96	     3	
115.41	  0.14	  0.57	115.98	     4	
115.52	  1.89	  0.92	116.44	     1	
115.56	  0.08	  2.51	118.07	     4	
115.68	  0.25	  0.60	116.28	     3	
115.69	  0.19	  2.09	117.78	     4	
116.17	  0.25	  0.60	116.77	     3	
116.19	  0.25	  0.60	116.79	     3	
116.38	  0.25	  0.60	116.98	     3	
116.51	  0.25	  0.60	117.11	     3	
116.63	  0.13	  1.69	118.32	     4	
116.76	  0.25	  0.60	117.36	     3	
116.76	  0.25	  0.60	117.36	     3	
116.89	  0.25	  0.60	117.49	     3	
116.96	  0.11	  1.90	118.86	     4	
117.34	  0.25	  0.60	117.94	     3	
117.83	  0.25	  0.60	118.43	     3	
118.48	  0.10	  2.94	121.41	     4	
118.50	  0.12	  1.85	120.35	     4	
118.50	  0.15	  2.81	121.31	     4	
118.50	  0.07	  1.90	120.40	     4	
118.54	  0.28	  1.61	120.15	     5	
118.70	  0.25	  0.60	119.30	     3	
118.81	  0.25	  0.60	119.41	     3	
119.13	  0.12	  1.13	120.26	     4	
119.87	  0.25	  0.60	120.47	     3	
119.97	  0.25	  0.60	120.57	     3	
120.11	  0.25	  0.60	120.71	     3	
120.15	  0.25	  0.60	120.75	     3	
120.43	  0.25	  0.60	121.03	     3	
122.02	  0.10	  0.57	122.59	     4	
122.04	  0.12	  2.91	124.95	     4	
122.22	  0.05	  0.54	122.76	     4	
122.30	  0.11	  2.34	124.64	     4	
122.38	  0.04	  0.36	122.74	     4	
122.44	  0.06	  2.17	124.61	     4	
122.49	  0.14	  0.89	123.38	     4	
122.68	  0.06	  2.51	125.19	     4	
122.74	  0.08	  2.38	125.12	     4	
122.83	  0.08	  2.94	125.77	     4	
122.95	  0.10	  1.58	124.53	     4	
122.99	  0.09	  0.50	123.49	     4	
123.10	  0.13	  1.85	124.95	     4	
123.16	  0.15	  0.15	123.31	     4	
123.24	  0.19	  1.70	124.94	     4	
123.49	  0.13	  1.06	124.54	     4	
123.57	  0.16	  0.17	123.74	     4	
123.57	  0.15	  2.75	126.32	     4	
123.69	  0.17	  2.49	126.18	     4	
123.78	  0.08	  2.66	126.44	     4	
123.79	  0.09	  1.81	125.60	     4	
123.84	  0.07	  0.39	124.23	     4	
123.89	  0.04	  1.33	125.21	     4	
123.98	  0.05	  2.09	126.08	     4	
126.96	  0.63	  0.54	127.50	     2	
130.58	  0.25	  0.60	131.18	     3	
131.88	  0.25	  0.60	132.48	     3	
131.99	  0.25	  0.60	132.59	     3	
132.38	  0.25	  0.60	132.98	     3	
132.50	  0.25	  0.60	133.10	     3	
132.57	  0.25	  0.60	133.17	     3	
132.87	  0.25	  0.60	133.47	     3	
133.35	  0.25	  0.60	133.95	     3	
133.36	  0.25	  0.60	133.96	     3	
133.44	  0.25	  0.60	134.04	     3	
133.46	  0.39	  0.59	134.05	     2	
133.88	  0.25	  0.60	134.48	     3	
134.47	  0.25	  0.60	135.07	     3	
135.08	  0.25	  0.60	135.68	     3	
135.36	  0.25	  0.60	135.96	     3	
135.96	  0.67	  0.58	136.55	     2	
136.47	  0.25	  0.60	137.07	     3	
136.65	  0.25	  0.60	137.25	     3	
136.75	  0.25	  0.60	137.35	     3	
136.77	  0.25	  0.60	137.37	     3	
137.22	  0.25	  0.60	137.82	     3	
137.98	  0.25	  0.60	138.58	     3	
138.34	  0.25	  0.60	138.94	     3	
138.36	  0.25	  0.60	138.96	     3	
138.55	  0.25	  0.60	139.15	     3	
138.64	  1.79	  0.88	139.52	     1	
138.98	  0.25	  0.60	139.58	     3	
139.09	  1.00	  0.99	140.07	     1	
139.29	  0.25	  0.60	139.89	     3	
139.40	  0.25	  0.60	140.00	     3	
139.40	  0.11	  0.82	140.22	     4	
139.59	  0.25	  0.60	140.19	     3	
140.00	  0.12	  1.30	141.30	     4	
140.20	  0.25	  0.60	140.80	     3	
140.43	  0.10	  1.49	141.92	     4	
140.74	  0.25	  0.60	141.34	     3	
140.77	  0.25	  0.60	141.37	     3	
140.88	  0.25	  0.60	141.48	     3	
140.91	  0.16	  2.35	143.26	     4	
140.91	  0.25	  0.60	141.51	     3	
140.92	  0.25	  0.60	141.52	     3	
141.11	  0.18	  1.61	142.72	     4	
141.17	  0.18	  0.55	141.73	     4	
141.20	  0.14	  0.50	141.70	     4	
141.21	  0.25	  0.60	141.81	     3	
141.37	  0.25	  0.60	141.97	     3	
141.46	  0.25	  0.60	142.06	     3	
141.47	  0.19	  1.53	142.99	     4	
141.54	  0.12	  0.48	142.02	     4	
141.57	  0.25	  0.60	142.17	     3	
142.06	  0.25	  0.60	142.66	     3	
142.31	  0.14	  0.93	143.24	     4	
142.34	  0.25	  0.60	142.94	     3	
142.45	  0.04	  0.91	143.37	     4	
142.56	  0.15	  0.74	143.30	     4	
142.57	  0.25	  0.60	143.17	     3	
142.73	  0.09	  1.78	144.51	     4	
143.01	  0.25	  0.60	143.61	     3	
143.04	  0.06	  0.97	144.01	     4	
143.32	  0.25	  0.60	143.92	     3	
143.43	  0.25	  0.60	144.03	     3	
143.47	  0.25	  0.60	144.07	     3	
143.80	  0.25	  0.60	144.40	     3	
143.89	  0.25	  0.60	144.49	     3	
144.38	  0.25	  0.60	144.98	     3	
144.42	  0.25	  0.60	145.02	     3	
146.05	  0.04	  0.77	146.82	     4	
146.11	  0.18	  1.96	148.08	     4	
146.17	  0.08	  0.34	146.51	     4	
146.23	  0.15	  2.80	149.03	     4	
146.28	  0.14	  2.41	148.69	     4	
146.35	  0.09	  2.51	148.86	     4	
146.37	  0.03	  0.51	146.87	     4	
146.42	  0.20	  2.67	149.09	     4	
146.43	  0.19	  1.60	148.03	     4	
146.46	  0.07	  1.91	148.37	     4	
146.57	  0.13	  1.78	148.35	     4	
146.68	  0.13	  0.80	147.48	     4	
146.77	  0.06	  0.91	147.68	     4	
146.81	  0.10	  0.65	147.46	     4	
146.95	  0.08	  1.76	148.71	     4	
146.98	  0.03	  0.90	147.88	     4	
147.11	  0.19	  2.09	149.20	     4	
147.12	  0.10	  2.30	149.42	     4	
147.24	  0.05	  1.79	149.03	     4	
147.25	  0.20	  0.82	148.07	     4	
147.32	  0.19	  0.36	147.68	     4	
147.33	  0.14	  2.41	149.74	     4	
147.38	  0.04	  1.01	148.39	     4	
147.40	  0.09	  1.89	149.28	     4	
147.42	  0.18	  0.74	148.16	     4	
147.53	  0.20	  1.51	149.03	     4	
147.57	  0.16	  1.16	148.73	     4	
147.61	  0.15	  1.92	149.53	     4	
147.73	  0.15	  0.70	148.43	     4	
147.77	  0.04	  2.10	149.87	     4	
147.84	  0.17	  2.50	150.34	     4	
147.88	  0.04	  0.95	148.83	     4	
147.89	  0.03	  1.81	149.71	     4	
147.90	  0.15	  1.97	149.86	     4	
151.88	  1.68	  0.29	152.17	     1	
152.05	  1.34	  0.51	152.56	     1	
155.82	  0.25	  0.60	156.42	     3	
156.95	  0.25	  0.60	157.55	     3	
157.12	  0.25	  0.60	157.72	     3	
157.95	  0.25	  0.60	158.55	     3	
158.52	  0.25	  0.60	159.12	     3	
158.80	  0.25	  0.60	159.40	     3	
159.36	  0.25	  0.60	159.96	     3	
159.98	  0.56	  0.54	160.52	     2	
160.00	  0.25	  0.60	160.60	     3	
160.33	  0.25	  0.60	160.93	     3	
160.92	  0.25	  0.60	161.52	     3	
161.49	  0.25	  0.60	162.09	     3	
161.66	  0.25	  0.60	162.26	     3	
161.76	  0.25	  0.60	162.36	     3	
162.26	  0.25	  0.60	162.86	     3	
162.41	  0.25	  0.60	163.01	     3	
162.59	  0.20	  2.16	164.75	     4	
162.83	  0.04	  2.15	164.98	     4	
163.24	  0.25	  0.60	163.84	     3	
163.42	  1.26	  1.00	164.42	     1	
163.56	  0.25	  0.60	164.16	     3	
163.63	  0.05	  1.96	165.59	     4	
163.76	  0.19	  0.49	164.25	     4	
163.91	  0.25	  0.60	164.51	     3	
164.21	  0.15	  0.44	164.64	     4	
164.66	  0.05	  1.82	166.48	     4	
164.68	  0.12	  2.63	167.31	     4	
164.84	  0.17	  2.27	167.11	     4	
165.18	  0.19	  1.20	166.38	     4	
165.29	  0.25	  0.60	165.89	     3	
165.34	  0.25	  0.60	165.94	     3	
165.34	  0.25	  0.60	165.94	     3	
165.90	  0.25	  0.60	166.50	     3	
165.99	  2.07	  0.29	166.28	     1	
166.33	  0.14	  0.61	166.94	     4	
166.40	  0.25	  0.60	167.00	     3	
166.88	  0.25	  0.60	167.48	     3	
166.91	  0.25	  0.60	167.51	     3	
166.92	  0.25	  0.60	167.52	     3	
166.98	  0.04	  1.52	168.50	     4	
167.36	  0.25	  0.60	167.96	     3	
167.79	  0.25	  0.60	168.39	     3	
168.37	  0.25	  0.60	168.97	     3	
