  7.21	  2.10	
  7.95	  0.00	
  9.79	  1.71	
 10.48	  0.00	
 13.29	  2.14	
 13.73	  0.00	
 98.19	  2.42	
 98.49	  0.00	
102.45	  2.09	
102.75	  0.00	
117.28	  1.50	
117.79	  0.00	
118.28	  2.49	
118.76	  0.00	
121.52	  2.24	
122.28	  0.00	
156.94	  1.57	
157.23	  0.00	
