 11.63	  0.26	
 11.88	  0.51	
 12.04	  0.76	
 12.23	  0.51	
 12.48	  0.26	
 12.64	  0.01	
 12.81	  0.26	
 12.97	  0.51	
 12.99	  0.76	
 13.03	  1.01	
 13.25	  1.26	
 13.30	  1.51	
 13.41	  1.26	
 13.57	  1.01	
 13.59	  0.76	
 13.63	  0.51	
 13.85	  0.26	
 13.90	  0.01	
 18.76	  0.26	
 19.04	  0.51	
 19.17	  0.76	
 19.24	  1.01	
 19.36	  0.76	
 19.39	  1.01	
 19.43	  1.26	
 19.60	  1.51	
 19.64	  1.26	
 19.73	  1.51	
 19.77	  1.26	
 19.84	  1.01	
 19.99	  0.76	
 20.03	  0.51	
 20.20	  0.26	
 20.33	  0.01	
 35.50	  0.26	
 35.57	  0.51	
 35.73	  0.76	
 35.74	  1.01	
 35.94	  1.26	
 36.10	  1.01	
 36.17	  0.76	
 36.27	  1.01	
 36.33	  0.76	
 36.34	  0.51	
 36.39	  0.76	
 36.54	  0.51	
 36.62	  0.76	
 36.79	  1.01	
 36.79	  1.26	
 36.87	  1.01	
 36.99	  0.76	
 37.05	  1.01	
 37.22	  0.76	
 37.39	  0.51	
 37.39	  0.26	
 37.42	  0.51	
 37.65	  0.26	
 38.02	  0.01	
 42.51	  0.26	
 42.78	  0.51	
 42.78	  0.76	
 42.95	  1.01	
 43.11	  0.76	
 43.23	  1.01	
 43.24	  1.26	
 43.33	  1.51	
 43.38	  1.26	
 43.38	  1.01	
 43.55	  0.76	
 43.83	  0.51	
 43.84	  0.26	
 43.93	  0.01	
 59.75	  0.26	
 59.91	  0.51	
 60.01	  0.76	
 60.23	  1.01	
 60.35	  0.76	
 60.51	  0.51	
 60.59	  0.76	
 60.60	  1.01	
 60.61	  0.76	
 60.83	  0.51	
 60.89	  0.76	
 61.10	  1.01	
 61.11	  1.26	
 61.19	  1.01	
 61.20	  0.76	
 61.25	  1.01	
 61.31	  1.26	
 61.49	  1.01	
 61.70	  0.76	
 61.71	  0.51	
 61.85	  0.26	
 61.91	  0.01	
 66.51	  0.26	
 66.64	  0.51	
 66.83	  0.76	
 66.96	  1.01	
 67.04	  1.26	
 67.11	  1.01	
 67.24	  0.76	
 67.36	  1.01	
 67.43	  0.76	
 67.45	  1.01	
 67.56	  0.76	
 67.64	  0.51	
 67.95	  0.76	
 67.96	  0.51	
 67.98	  0.76	
 68.05	  0.51	
 68.23	  0.76	
 68.55	  0.51	
 68.58	  0.26	
 68.83	  0.01	
 84.05	  0.26	
 84.06	  0.51	
 84.48	  0.76	
 84.65	  0.51	
 84.66	  0.26	
 84.96	  0.51	
 85.08	  0.26	
 85.49	  0.51	
 85.56	  0.26	
 86.09	  0.01	
 90.55	  0.26	
 90.65	  0.51	
 90.70	  0.76	
 90.80	  1.01	
 91.15	  0.76	
 91.25	  0.51	
 91.30	  0.26	
 91.40	  0.01	
 91.62	  0.26	
 92.22	  0.01	
107.58	  0.26	
108.18	  0.01	
108.20	  0.26	
108.54	  0.51	
108.77	  0.76	
108.80	  0.51	
108.96	  0.76	
108.99	  1.01	
109.00	  1.26	
109.11	  1.51	
109.14	  1.26	
109.26	  1.51	
109.37	  1.26	
109.56	  1.01	
109.59	  0.76	
109.60	  0.51	
109.71	  0.26	
109.86	  0.01	
114.59	  0.26	
114.69	  0.51	
114.89	  0.76	
115.19	  0.51	
115.29	  0.26	
115.49	  0.01	
115.87	  0.26	
116.47	  0.01	
131.65	  0.26	
132.20	  0.51	
132.25	  0.26	
132.55	  0.51	
132.64	  0.76	
132.68	  1.01	
132.73	  1.26	
132.80	  1.01	
132.84	  1.26	
133.15	  1.01	
133.24	  0.76	
133.28	  0.51	
133.33	  0.26	
133.36	  0.51	
133.44	  0.26	
133.47	  0.51	
133.96	  0.26	
134.07	  0.01	
138.74	  0.26	
138.94	  0.51	
138.98	  0.76	
139.06	  1.01	
139.34	  0.76	
139.54	  0.51	
139.58	  0.26	
139.66	  0.01	
139.75	  0.26	
139.77	  0.51	
139.83	  0.76	
139.90	  1.01	
140.06	  1.26	
140.20	  1.51	
140.25	  1.76	
140.31	  2.01	
140.35	  1.76	
140.37	  1.51	
140.43	  1.26	
140.50	  1.01	
140.66	  0.76	
140.80	  0.51	
140.85	  0.26	
140.91	  0.01	
155.62	  0.26	
155.67	  0.51	
156.03	  0.76	
156.11	  1.01	
156.22	  0.76	
156.27	  0.51	
156.51	  0.76	
156.63	  0.51	
156.68	  0.76	
156.70	  1.01	
156.71	  0.76	
157.11	  0.51	
157.28	  0.26	
157.30	  0.01	
157.47	  0.26	
158.07	  0.01	
162.54	  0.26	
163.00	  0.51	
163.07	  0.76	
163.12	  1.01	
163.14	  0.76	
163.28	  1.01	
163.44	  1.26	
163.48	  1.51	
163.50	  1.76	
163.52	  2.01	
163.57	  2.26	
163.60	  2.01	
163.67	  1.76	
163.72	  1.51	
163.88	  1.26	
164.02	  1.51	
164.04	  1.26	
164.05	  1.51	
164.08	  1.26	
164.10	  1.01	
164.12	  0.76	
164.17	  0.51	
164.18	  0.76	
164.62	  0.51	
164.65	  0.26	
164.78	  0.01	
