 19.24	  1.85	  0.61	 19.86	     1	
 36.81	  2.03	  0.82	 37.63	     1	
 44.50	  1.51	  0.63	 45.13	     1	
 60.26	  1.78	  0.67	 60.93	     1	
 83.56	  1.17	  0.35	 83.91	     1	
 85.29	  2.07	  0.93	 86.22	     1	
 91.19	  1.54	  0.92	 92.11	     1	
109.36	  1.83	  1.12	110.48	     1	
115.35	  1.18	  0.82	116.17	     1	
139.34	  2.12	  0.37	139.71	     1	
156.51	  1.41	  0.86	157.37	     1	
164.83	  2.09	  1.02	165.85	     1	
