  0.00	  0.05	
  0.25	  0.05	
  0.50	  0.05	
  0.75	  0.05	
  1.00	  0.05	
  1.25	  0.05	
  1.50	  0.05	
  1.75	  0.05	
  2.00	  0.05	
  2.25	  0.05	
  2.50	  0.05	
  2.75	  0.05	
  3.00	  0.05	
  3.25	  0.05	
  3.50	  0.05	
  3.75	  0.05	
  4.00	  0.05	
  4.25	  0.05	
  4.50	  0.05	
  4.75	  0.05	
  5.00	  0.05	
  5.25	  0.05	
  5.50	  0.05	
  5.75	  0.05	
  6.00	  0.05	
  6.25	  0.05	
  6.50	  0.05	
  6.75	  0.05	
  7.00	  0.05	
  7.25	  0.05	
  7.50	  0.05	
  7.75	  0.05	
  8.00	  0.05	
  8.25	  0.05	
  8.50	  0.05	
  8.75	  0.05	
  9.00	  0.05	
  9.25	  0.05	
  9.50	  0.05	
  9.75	  0.05	
 10.00	  0.05	
 10.25	  0.05	
 10.50	  0.05	
 10.75	  0.05	
 11.00	  0.05	
 11.25	  0.05	
 11.50	  0.05	
 11.75	  0.05	
 12.00	  0.05	
 12.25	  0.05	
 12.50	  0.05	
 12.75	  0.05	
 13.00	  0.05	
 13.25	  0.05	
 13.50	  0.05	
 13.75	  0.05	
 14.00	  0.05	
 14.25	  0.05	
 14.50	  0.05	
 14.75	  0.05	
 15.00	  0.05	
 15.25	  0.05	
 15.50	  0.05	
 15.75	  0.05	
 16.00	  0.05	
 16.25	  0.05	
 16.50	  0.05	
 16.75	  0.05	
 17.00	  0.08	
 17.25	  0.33	
 17.50	  0.33	
 17.75	  0.33	
 18.00	  0.33	
 18.25	  0.14	
 18.50	  0.05	
 18.75	  0.05	
 19.00	  0.05	
 19.25	  0.05	
 19.50	  0.05	
 19.75	  0.05	
 20.00	  0.05	
 20.25	  0.05	
 20.50	  0.05	
 20.75	  0.05	
 21.00	  0.05	
 21.25	  0.05	
 21.50	  0.05	
 21.75	  0.05	
 22.00	  0.05	
 22.25	  0.05	
 22.50	  0.05	
 22.75	  0.05	
 23.00	  0.05	
 23.25	  0.05	
 23.50	  0.05	
 23.75	  0.05	
 24.00	  0.05	
 24.25	  0.05	
 24.50	  0.05	
 24.75	  0.05	
 25.00	  0.05	
 25.25	  0.05	
 25.50	  0.05	
 25.75	  0.05	
 26.00	  0.05	
 26.25	  0.05	
 26.50	  0.05	
 26.75	  0.05	
 27.00	  0.05	
 27.25	  0.05	
 27.50	  0.05	
 27.75	  0.05	
 28.00	  0.05	
 28.25	  0.05	
 28.50	  0.05	
 28.75	  0.05	
 29.00	  0.05	
 29.25	  0.05	
 29.50	  0.05	
 29.75	  0.05	
 30.00	  0.05	
 30.25	  0.05	
 30.50	  0.05	
 30.75	  0.05	
 31.00	  0.05	
 31.25	  0.05	
 31.50	  0.05	
 31.75	  0.05	
 32.00	  0.05	
 32.25	  0.05	
 32.50	  0.05	
 32.75	  0.05	
 33.00	  0.05	
 33.25	  0.05	
 33.50	  0.05	
 33.75	  0.05	
 34.00	  0.05	
 34.25	  0.05	
 34.50	  0.05	
 34.75	  0.05	
 35.00	  0.05	
 35.25	  0.05	
 35.50	  0.05	
 35.75	  0.05	
 36.00	  0.05	
 36.25	  0.05	
 36.50	  0.05	
 36.75	  0.05	
 37.00	  0.05	
 37.25	  0.05	
 37.50	  0.05	
 37.75	  0.05	
 38.00	  0.05	
 38.25	  0.05	
 38.50	  0.05	
 38.75	  0.05	
 39.00	  0.05	
 39.25	  0.05	
 39.50	  0.05	
 39.75	  0.05	
 40.00	  0.05	
 40.25	  0.05	
 40.50	  0.05	
 40.75	  0.05	
 41.00	  0.05	
 41.25	  0.05	
 41.50	  0.05	
 41.75	  0.05	
 42.00	  0.05	
 42.25	  0.05	
 42.50	  0.05	
 42.75	  0.05	
 43.00	  0.05	
 43.25	  0.05	
 43.50	  0.05	
 43.75	  0.05	
 44.00	  0.05	
 44.25	  0.05	
 44.50	  0.05	
 44.75	  0.05	
 45.00	  0.05	
 45.25	  0.05	
 45.50	  0.05	
 45.75	  0.05	
 46.00	  0.05	
 46.25	  0.05	
 46.50	  0.05	
 46.75	  0.05	
 47.00	  0.05	
 47.25	  0.05	
 47.50	  0.05	
 47.75	  0.05	
 48.00	  0.05	
 48.25	  0.05	
 48.50	  0.05	
 48.75	  0.05	
 49.00	  0.05	
 49.25	  0.05	
 49.50	  0.05	
 49.75	  0.05	
 50.00	  0.05	
 50.25	  0.05	
 50.50	  0.05	
 50.75	  0.05	
 51.00	  0.05	
 51.25	  0.05	
 51.50	  0.05	
 51.75	  0.05	
 52.00	  0.05	
 52.25	  0.20	
 52.50	  0.27	
 52.75	  0.27	
 53.00	  0.27	
 53.25	  0.27	
 53.50	  0.27	
 53.75	  0.27	
 54.00	  0.27	
 54.25	  0.27	
 54.50	  0.27	
 54.75	  0.27	
 55.00	  0.21	
 55.25	  0.05	
 55.50	  0.05	
 55.75	  0.29	
 56.00	  0.29	
 56.25	  0.29	
 56.50	  0.20	
 56.75	  0.05	
 57.00	  0.05	
 57.25	  0.05	
 57.50	  0.05	
 57.75	  0.05	
 58.00	  0.05	
 58.25	  0.26	
 58.50	  0.28	
 58.75	  0.28	
 59.00	  0.28	
 59.25	  0.28	
 59.50	  0.28	
 59.75	  0.28	
 60.00	  0.28	
 60.25	  0.10	
 60.50	  0.05	
 60.75	  0.05	
 61.00	  0.05	
 61.25	  0.17	
 61.50	  0.17	
 61.75	  0.17	
 62.00	  0.17	
 62.25	  0.17	
 62.50	  0.17	
 62.75	  0.25	
 63.00	  0.22	
 63.25	  0.05	
 63.50	  0.05	
 63.75	  0.05	
 64.00	  0.05	
 64.25	  0.05	
 64.50	  0.05	
 64.75	  0.05	
 65.00	  0.05	
 65.25	  0.05	
 65.50	  0.22	
 65.75	  0.23	
 66.00	  0.32	
 66.25	  0.36	
 66.50	  0.36	
 66.75	  0.36	
 67.00	  0.36	
 67.25	  0.36	
 67.50	  0.36	
 67.75	  0.36	
 68.00	  0.32	
 68.25	  0.18	
 68.50	  0.18	
 68.75	  0.18	
 69.00	  0.18	
 69.25	  0.18	
 69.50	  0.18	
 69.75	  0.12	
 70.00	  0.05	
 70.25	  0.05	
 70.50	  0.05	
 70.75	  0.05	
 71.00	  0.05	
 71.25	  0.05	
 71.50	  0.05	
 71.75	  0.05	
 72.00	  0.05	
 72.25	  0.05	
 72.50	  0.05	
 72.75	  0.05	
 73.00	  0.05	
 73.25	  0.05	
 73.50	  0.05	
 73.75	  0.05	
 74.00	  0.05	
 74.25	  0.05	
 74.50	  0.05	
 74.75	  0.05	
 75.00	  0.05	
 75.25	  0.05	
 75.50	  0.05	
 75.75	  0.05	
 76.00	  0.05	
 76.25	  0.05	
 76.50	  0.05	
 76.75	  0.05	
 77.00	  0.05	
 77.25	  0.05	
 77.50	  0.05	
 77.75	  0.05	
 78.00	  0.21	
 78.25	  0.32	
 78.50	  0.32	
 78.75	  0.32	
 79.00	  0.07	
 79.25	  0.05	
 79.50	  0.05	
 79.75	  0.05	
 80.00	  0.05	
 80.25	  0.05	
 80.50	  0.05	
 80.75	  0.05	
 81.00	  0.05	
 81.25	  0.05	
 81.50	  0.05	
 81.75	  0.05	
 82.00	  0.05	
 82.25	  0.05	
 82.50	  0.05	
 82.75	  0.05	
 83.00	  0.05	
 83.25	  0.05	
 83.50	  0.05	
 83.75	  0.05	
 84.00	  0.05	
 84.25	  0.05	
 84.50	  0.05	
 84.75	  0.05	
 85.00	  0.05	
 85.25	  0.05	
 85.50	  0.05	
 85.75	  0.05	
 86.00	  0.05	
 86.25	  0.05	
 86.50	  0.05	
 86.75	  0.05	
 87.00	  0.05	
 87.25	  0.05	
 87.50	  0.05	
 87.75	  0.05	
 88.00	  0.05	
 88.25	  0.05	
 88.50	  0.05	
 88.75	  0.05	
 89.00	  0.05	
 89.25	  0.05	
 89.50	  0.05	
 89.75	  0.05	
 90.00	  0.05	
 90.25	  0.05	
 90.50	  0.05	
 90.75	  0.05	
 91.00	  0.05	
 91.25	  0.05	
 91.50	  0.05	
 91.75	  0.05	
 92.00	  0.05	
 92.25	  0.05	
 92.50	  0.05	
 92.75	  0.16	
 93.00	  0.19	
 93.25	  0.19	
 93.50	  0.19	
 93.75	  0.22	
 94.00	  0.47	
 94.25	  0.44	
 94.50	  0.42	
 94.75	  0.42	
 95.00	  0.28	
 95.25	  0.28	
 95.50	  0.28	
 95.75	  0.28	
 96.00	  0.28	
 96.25	  0.28	
 96.50	  0.28	
 96.75	  0.28	
 97.00	  0.25	
 97.25	  0.05	
 97.50	  0.05	
 97.75	  0.05	
 98.00	  0.05	
 98.25	  0.05	
 98.50	  0.05	
 98.75	  0.05	
 99.00	  0.05	
 99.25	  0.05	
 99.50	  0.05	
 99.75	  0.05	
100.00	  0.05	
100.25	  0.05	
100.50	  0.05	
100.75	  0.05	
101.00	  0.05	
101.25	  0.05	
101.50	  0.05	
101.75	  0.05	
102.00	  0.05	
102.25	  0.05	
102.50	  0.05	
102.75	  0.05	
103.00	  0.05	
103.25	  0.05	
103.50	  0.05	
103.75	  0.05	
104.00	  0.05	
104.25	  0.05	
104.50	  0.05	
104.75	  0.05	
105.00	  0.05	
105.25	  0.05	
105.50	  0.05	
105.75	  0.05	
106.00	  0.05	
106.25	  0.05	
106.50	  0.05	
106.75	  0.05	
107.00	  0.05	
107.25	  0.05	
107.50	  0.05	
107.75	  0.05	
108.00	  0.05	
108.25	  0.05	
108.50	  0.05	
108.75	  0.05	
109.00	  0.05	
109.25	  0.05	
109.50	  0.05	
109.75	  0.05	
110.00	  0.05	
110.25	  0.05	
110.50	  0.05	
110.75	  0.15	
111.00	  0.15	
111.25	  0.09	
111.50	  0.05	
111.75	  0.05	
112.00	  0.05	
112.25	  0.05	
112.50	  0.05	
112.75	  0.05	
113.00	  0.05	
113.25	  0.05	
113.50	  0.05	
113.75	  0.05	
114.00	  0.05	
114.25	  0.05	
114.50	  0.07	
114.75	  0.18	
115.00	  0.18	
115.25	  0.18	
115.50	  0.18	
115.75	  0.18	
116.00	  0.18	
116.25	  0.18	
116.50	  0.18	
116.75	  0.18	
117.00	  0.18	
117.25	  0.18	
117.50	  0.08	
117.75	  0.27	
118.00	  0.28	
118.25	  0.28	
118.50	  0.28	
118.75	  0.28	
119.00	  0.28	
119.25	  0.28	
119.50	  0.28	
119.75	  0.28	
120.00	  0.28	
120.25	  0.19	
120.50	  0.05	
120.75	  0.05	
121.00	  0.05	
121.25	  0.05	
121.50	  0.05	
121.75	  0.05	
122.00	  0.05	
122.25	  0.05	
122.50	  0.16	
122.75	  0.26	
123.00	  0.26	
123.25	  0.26	
123.50	  0.26	
123.75	  0.26	
124.00	  0.26	
124.25	  0.07	
124.50	  0.05	
124.75	  0.05	
125.00	  0.05	
125.25	  0.05	
125.50	  0.05	
125.75	  0.05	
126.00	  0.16	
126.25	  0.17	
126.50	  0.17	
126.75	  0.17	
127.00	  0.17	
127.25	  0.17	
127.50	  0.17	
127.75	  0.17	
128.00	  0.17	
128.25	  0.17	
128.50	  0.17	
128.75	  0.17	
129.00	  0.17	
129.25	  0.17	
129.50	  0.16	
129.75	  0.05	
130.00	  0.05	
130.25	  0.05	
130.50	  0.05	
130.75	  0.05	
131.00	  0.05	
131.25	  0.05	
131.50	  0.05	
131.75	  0.05	
132.00	  0.05	
132.25	  0.05	
132.50	  0.05	
132.75	  0.05	
133.00	  0.05	
133.25	  0.05	
133.50	  0.05	
133.75	  0.05	
134.00	  0.05	
134.25	  0.05	
134.50	  0.05	
134.75	  0.05	
135.00	  0.05	
135.25	  0.05	
135.50	  0.05	
135.75	  0.05	
136.00	  0.05	
136.25	  0.05	
136.50	  0.05	
136.75	  0.05	
137.00	  0.05	
137.25	  0.05	
137.50	  0.05	
137.75	  0.05	
138.00	  0.05	
138.25	  0.05	
138.50	  0.05	
138.75	  0.05	
139.00	  0.05	
139.25	  0.05	
139.50	  0.05	
139.75	  0.05	
140.00	  0.05	
140.25	  0.05	
140.50	  0.05	
140.75	  0.05	
141.00	  0.05	
141.25	  0.05	
141.50	  0.05	
141.75	  0.05	
142.00	  0.05	
142.25	  0.05	
142.50	  0.05	
142.75	  0.05	
143.00	  0.05	
143.25	  0.05	
143.50	  0.05	
143.75	  0.05	
144.00	  0.05	
144.25	  0.05	
144.50	  0.05	
144.75	  0.05	
145.00	  0.05	
145.25	  0.05	
145.50	  0.05	
145.75	  0.05	
146.00	  0.05	
146.25	  0.05	
146.50	  0.05	
146.75	  0.05	
147.00	  0.05	
147.25	  0.05	
147.50	  0.05	
147.75	  0.05	
148.00	  0.05	
148.25	  0.05	
148.50	  0.05	
148.75	  0.05	
149.00	  0.05	
149.25	  0.05	
149.50	  0.05	
149.75	  0.05	
150.00	  0.05	
150.25	  0.05	
150.50	  0.05	
150.75	  0.05	
151.00	  0.05	
151.25	  0.05	
151.50	  0.05	
151.75	  0.05	
152.00	  0.05	
152.25	  0.05	
152.50	  0.05	
152.75	  0.16	
153.00	  0.16	
153.25	  0.10	
153.50	  0.05	
153.75	  0.05	
154.00	  0.05	
154.25	  0.05	
154.50	  0.05	
154.75	  0.05	
155.00	  0.05	
155.25	  0.05	
155.50	  0.05	
155.75	  0.05	
156.00	  0.05	
156.25	  0.05	
156.50	  0.05	
156.75	  0.05	
157.00	  0.05	
157.25	  0.05	
157.50	  0.05	
157.75	  0.05	
158.00	  0.05	
158.25	  0.05	
158.50	  0.05	
158.75	  0.05	
159.00	  0.05	
159.25	  0.05	
159.50	  0.05	
159.75	  0.05	
160.00	  0.05	
160.25	  0.05	
160.50	  0.05	
160.75	  0.05	
161.00	  0.05	
161.25	  0.05	
161.50	  0.05	
161.75	  0.05	
162.00	  0.05	
162.25	  0.05	
162.50	  0.05	
162.75	  0.05	
163.00	  0.05	
163.25	  0.05	
163.50	  0.05	
163.75	  0.05	
164.00	  0.05	
164.25	  0.05	
164.50	  0.05	
164.75	  0.05	
165.00	  0.05	
165.25	  0.05	
165.50	  0.05	
165.75	  0.05	
166.00	  0.05	
166.25	  0.05	
166.50	  0.05	
166.75	  0.05	
167.00	  0.05	
167.25	  0.05	
167.50	  0.05	
167.75	  0.05	
168.00	  0.05	
