 96.98	  0.33	  0.89	 97.88	     6	
 97.08	  0.35	  0.84	 97.92	     6	
 97.09	  0.48	  0.52	 97.61	     6	
 97.96	  0.30	  0.74	 98.71	     6	
 98.53	  0.31	  0.59	 99.12	     6	
101.73	  0.35	  0.62	102.34	     6	
102.97	  0.46	  0.70	103.67	     6	
104.48	  0.34	  0.55	105.03	     6	
104.51	  0.34	  0.92	105.43	     6	
105.28	  0.36	  0.50	105.78	     6	
110.57	  0.30	  0.72	111.29	     6	
112.40	  0.40	  0.80	113.19	     6	
112.55	  0.33	  0.83	113.38	     6	
114.76	  0.42	  0.84	115.60	     6	
114.82	  0.33	  0.90	115.72	     6	
116.51	  0.41	  0.88	117.40	     6	
119.71	  0.40	  0.87	120.57	     6	
266.22	  0.49	  0.53	266.75	     6	
271.57	  0.43	  0.80	272.37	     6	
272.56	  0.36	  0.61	273.17	     6	
272.58	  0.46	  0.73	273.31	     6	
272.62	  0.47	  0.62	273.25	     6	
278.26	  0.43	  0.51	278.78	     6	
283.61	  0.34	  0.80	284.41	     6	
