  8.56	  0.25	  0.60	  9.16	     3	
 10.18	  0.25	  0.60	 10.78	     3	
 10.25	  0.25	  0.60	 10.85	     3	
 10.26	  0.25	  0.60	 10.86	     3	
 11.02	  0.25	  0.60	 11.62	     3	
 11.33	  0.25	  0.60	 11.93	     3	
 11.45	  0.25	  0.60	 12.05	     3	
 12.06	  0.25	  0.60	 12.66	     3	
 12.60	  0.25	  0.60	 13.20	     3	
 13.09	  0.25	  0.60	 13.69	     3	
 13.33	  0.25	  0.60	 13.93	     3	
 15.11	  0.25	  0.60	 15.71	     3	
 15.67	  0.25	  0.60	 16.27	     3	
 16.80	  0.25	  0.60	 17.40	     3	
 16.95	  0.25	  0.60	 17.55	     3	
 17.36	  0.25	  0.60	 17.96	     3	
 17.39	  0.25	  0.60	 17.99	     3	
 17.88	  0.25	  0.60	 18.48	     3	
 19.37	  0.25	  0.60	 19.97	     3	
 19.43	  0.25	  0.60	 20.03	     3	
 19.73	  0.25	  0.60	 20.33	     3	
 19.76	  0.25	  0.60	 20.36	     3	
 19.90	  0.25	  0.60	 20.50	     3	
 20.59	  0.25	  0.60	 21.19	     3	
 20.73	  0.25	  0.60	 21.33	     3	
 21.21	  0.25	  0.60	 21.81	     3	
 21.27	  0.25	  0.60	 21.87	     3	
 21.42	  0.25	  0.60	 22.02	     3	
 22.43	  0.25	  0.60	 23.03	     3	
 23.36	  0.25	  0.60	 23.96	     3	
 23.68	  0.25	  0.60	 24.28	     3	
 23.96	  0.25	  0.60	 24.56	     3	
 32.72	  0.25	  0.60	 33.32	     3	
 32.78	  0.25	  0.60	 33.38	     3	
 33.17	  0.25	  0.60	 33.77	     3	
 33.20	  0.25	  0.60	 33.80	     3	
 33.39	  0.25	  0.60	 33.99	     3	
 34.20	  0.25	  0.60	 34.80	     3	
 36.05	  0.25	  0.60	 36.65	     3	
 36.26	  0.25	  0.60	 36.86	     3	
 36.30	  0.25	  0.60	 36.90	     3	
 36.31	  0.25	  0.60	 36.91	     3	
 37.15	  0.25	  0.60	 37.75	     3	
 37.45	  0.25	  0.60	 38.05	     3	
 37.55	  0.25	  0.60	 38.15	     3	
 37.68	  0.25	  0.60	 38.28	     3	
 37.93	  0.25	  0.60	 38.53	     3	
 37.97	  0.25	  0.60	 38.57	     3	
 38.38	  0.25	  0.60	 38.98	     3	
 38.54	  0.25	  0.60	 39.14	     3	
 39.30	  0.25	  0.60	 39.90	     3	
 41.77	  0.25	  0.60	 42.37	     3	
 42.31	  0.25	  0.60	 42.91	     3	
 43.10	  0.25	  0.60	 43.70	     3	
 43.15	  0.25	  0.60	 43.75	     3	
 43.36	  0.25	  0.60	 43.96	     3	
 46.51	  0.25	  0.60	 47.11	     3	
 46.89	  0.25	  0.60	 47.49	     3	
 47.43	  0.25	  0.60	 48.03	     3	
 47.89	  0.25	  0.60	 48.49	     3	
 48.11	  0.25	  0.60	 48.71	     3	
 48.38	  0.25	  0.60	 48.98	     3	
 56.67	  0.25	  0.60	 57.27	     3	
 56.91	  0.25	  0.60	 57.51	     3	
 57.00	  0.25	  0.60	 57.60	     3	
 57.28	  0.25	  0.60	 57.88	     3	
 57.62	  0.25	  0.60	 58.22	     3	
 58.12	  0.25	  0.60	 58.72	     3	
 58.81	  0.25	  0.60	 59.41	     3	
 60.25	  0.25	  0.60	 60.85	     3	
 60.54	  0.25	  0.60	 61.14	     3	
 60.74	  0.25	  0.60	 61.34	     3	
 60.84	  0.25	  0.60	 61.44	     3	
 60.91	  0.25	  0.60	 61.51	     3	
 61.02	  0.25	  0.60	 61.62	     3	
 62.42	  0.25	  0.60	 63.02	     3	
 63.33	  0.25	  0.60	 63.93	     3	
 63.98	  0.25	  0.60	 64.58	     3	
 64.65	  0.25	  0.60	 65.25	     3	
 66.19	  0.25	  0.60	 66.79	     3	
 66.47	  0.25	  0.60	 67.07	     3	
 67.35	  0.25	  0.60	 67.95	     3	
 67.47	  0.25	  0.60	 68.07	     3	
 68.34	  0.25	  0.60	 68.94	     3	
 68.59	  0.25	  0.60	 69.19	     3	
 68.83	  0.25	  0.60	 69.43	     3	
 69.16	  0.25	  0.60	 69.76	     3	
 69.32	  0.25	  0.60	 69.92	     3	
 69.83	  0.25	  0.60	 70.43	     3	
 69.92	  0.25	  0.60	 70.52	     3	
 70.04	  0.25	  0.60	 70.64	     3	
 70.17	  0.25	  0.60	 70.77	     3	
 70.61	  0.25	  0.60	 71.21	     3	
 70.68	  0.25	  0.60	 71.28	     3	
 70.70	  0.25	  0.60	 71.30	     3	
 70.80	  0.25	  0.60	 71.40	     3	
 70.83	  0.25	  0.60	 71.43	     3	
 70.94	  0.25	  0.60	 71.54	     3	
 71.98	  0.25	  0.60	 72.58	     3	
 72.23	  0.25	  0.60	 72.83	     3	
 80.87	  0.25	  0.60	 81.47	     3	
 81.86	  0.25	  0.60	 82.46	     3	
 81.96	  0.25	  0.60	 82.56	     3	
 82.38	  0.25	  0.60	 82.98	     3	
 82.42	  0.25	  0.60	 83.02	     3	
 82.79	  0.25	  0.60	 83.39	     3	
 83.20	  0.25	  0.60	 83.80	     3	
 83.30	  0.25	  0.60	 83.90	     3	
 83.46	  0.25	  0.60	 84.06	     3	
 84.48	  0.25	  0.60	 85.08	     3	
 85.00	  0.25	  0.60	 85.60	     3	
 85.13	  0.25	  0.60	 85.73	     3	
 85.70	  0.25	  0.60	 86.30	     3	
 86.57	  0.25	  0.60	 87.17	     3	
 86.65	  0.25	  0.60	 87.25	     3	
 87.25	  0.25	  0.60	 87.85	     3	
 87.36	  0.25	  0.60	 87.96	     3	
 87.90	  0.25	  0.60	 88.50	     3	
 88.17	  0.25	  0.60	 88.77	     3	
 88.41	  0.25	  0.60	 89.01	     3	
 89.33	  0.25	  0.60	 89.93	     3	
 89.47	  0.25	  0.60	 90.07	     3	
 89.47	  0.25	  0.60	 90.07	     3	
 90.50	  0.25	  0.60	 91.10	     3	
 90.76	  0.25	  0.60	 91.36	     3	
 90.90	  0.25	  0.60	 91.50	     3	
 91.01	  0.25	  0.60	 91.61	     3	
 91.18	  0.25	  0.60	 91.78	     3	
 91.35	  0.25	  0.60	 91.95	     3	
 91.64	  0.25	  0.60	 92.24	     3	
 91.92	  0.25	  0.60	 92.52	     3	
 92.13	  0.25	  0.60	 92.73	     3	
 92.26	  0.25	  0.60	 92.86	     3	
 93.62	  0.25	  0.60	 94.22	     3	
 93.97	  0.25	  0.60	 94.57	     3	
 94.20	  0.25	  0.60	 94.80	     3	
 94.36	  0.25	  0.60	 94.96	     3	
 94.58	  0.25	  0.60	 95.18	     3	
 94.97	  0.25	  0.60	 95.57	     3	
 95.20	  0.25	  0.60	 95.80	     3	
 95.38	  0.25	  0.60	 95.98	     3	
 95.46	  0.25	  0.60	 96.06	     3	
 95.98	  0.25	  0.60	 96.58	     3	
104.97	  0.25	  0.60	105.57	     3	
105.17	  0.25	  0.60	105.77	     3	
105.44	  0.25	  0.60	106.04	     3	
105.44	  0.25	  0.60	106.04	     3	
106.29	  0.25	  0.60	106.89	     3	
106.78	  0.25	  0.60	107.38	     3	
107.00	  0.25	  0.60	107.60	     3	
107.54	  0.25	  0.60	108.14	     3	
107.58	  0.25	  0.60	108.18	     3	
108.04	  0.25	  0.60	108.64	     3	
108.28	  0.25	  0.60	108.88	     3	
108.40	  0.25	  0.60	109.00	     3	
109.22	  0.25	  0.60	109.82	     3	
109.46	  0.25	  0.60	110.06	     3	
110.28	  0.25	  0.60	110.88	     3	
110.70	  0.25	  0.60	111.30	     3	
110.73	  0.25	  0.60	111.33	     3	
110.75	  0.25	  0.60	111.35	     3	
111.94	  0.25	  0.60	112.54	     3	
112.38	  0.25	  0.60	112.98	     3	
113.67	  0.25	  0.60	114.27	     3	
114.40	  0.25	  0.60	115.00	     3	
114.58	  0.25	  0.60	115.18	     3	
115.22	  0.25	  0.60	115.82	     3	
116.32	  0.25	  0.60	116.92	     3	
116.94	  0.25	  0.60	117.54	     3	
117.40	  0.25	  0.60	118.00	     3	
117.49	  0.25	  0.60	118.09	     3	
117.51	  0.25	  0.60	118.11	     3	
117.51	  0.25	  0.60	118.11	     3	
117.75	  0.25	  0.60	118.35	     3	
118.64	  0.25	  0.60	119.24	     3	
119.37	  0.25	  0.60	119.97	     3	
119.55	  0.25	  0.60	120.15	     3	
120.19	  0.25	  0.60	120.79	     3	
128.59	  0.25	  0.60	129.19	     3	
128.69	  0.25	  0.60	129.29	     3	
129.56	  0.25	  0.60	130.16	     3	
129.78	  0.25	  0.60	130.38	     3	
130.90	  0.25	  0.60	131.50	     3	
131.13	  0.25	  0.60	131.73	     3	
131.41	  0.25	  0.60	132.01	     3	
131.53	  0.25	  0.60	132.13	     3	
131.56	  0.25	  0.60	132.16	     3	
132.78	  0.25	  0.60	133.38	     3	
133.40	  0.25	  0.60	134.00	     3	
133.42	  0.25	  0.60	134.02	     3	
133.77	  0.25	  0.60	134.37	     3	
134.23	  0.25	  0.60	134.83	     3	
134.68	  0.25	  0.60	135.28	     3	
134.84	  0.25	  0.60	135.44	     3	
135.08	  0.25	  0.60	135.68	     3	
135.53	  0.25	  0.60	136.13	     3	
135.57	  0.25	  0.60	136.17	     3	
135.61	  0.25	  0.60	136.21	     3	
135.97	  0.25	  0.60	136.57	     3	
136.54	  0.25	  0.60	137.14	     3	
136.76	  0.25	  0.60	137.36	     3	
137.64	  0.25	  0.60	138.24	     3	
137.77	  0.25	  0.60	138.37	     3	
138.10	  0.25	  0.60	138.70	     3	
138.30	  0.25	  0.60	138.90	     3	
138.54	  0.25	  0.60	139.14	     3	
139.03	  0.25	  0.60	139.63	     3	
139.47	  0.25	  0.60	140.07	     3	
140.04	  0.25	  0.60	140.64	     3	
140.60	  0.25	  0.60	141.20	     3	
140.67	  0.25	  0.60	141.27	     3	
140.86	  0.25	  0.60	141.46	     3	
141.12	  0.25	  0.60	141.72	     3	
141.73	  0.25	  0.60	142.33	     3	
142.33	  0.25	  0.60	142.93	     3	
142.47	  0.25	  0.60	143.07	     3	
143.63	  0.25	  0.60	144.23	     3	
144.10	  0.25	  0.60	144.70	     3	
144.27	  0.25	  0.60	144.87	     3	
152.71	  0.25	  0.60	153.31	     3	
153.37	  0.25	  0.60	153.97	     3	
153.39	  0.25	  0.60	153.99	     3	
153.42	  0.25	  0.60	154.02	     3	
153.89	  0.25	  0.60	154.49	     3	
153.97	  0.25	  0.60	154.57	     3	
154.38	  0.25	  0.60	154.98	     3	
154.44	  0.25	  0.60	155.04	     3	
155.12	  0.25	  0.60	155.72	     3	
155.26	  0.25	  0.60	155.86	     3	
155.28	  0.25	  0.60	155.88	     3	
155.63	  0.25	  0.60	156.23	     3	
155.70	  0.25	  0.60	156.30	     3	
156.02	  0.25	  0.60	156.62	     3	
157.08	  0.25	  0.60	157.68	     3	
157.16	  0.25	  0.60	157.76	     3	
157.59	  0.25	  0.60	158.19	     3	
157.69	  0.25	  0.60	158.29	     3	
157.83	  0.25	  0.60	158.43	     3	
158.35	  0.25	  0.60	158.95	     3	
158.52	  0.25	  0.60	159.12	     3	
158.91	  0.25	  0.60	159.51	     3	
159.31	  0.25	  0.60	159.91	     3	
159.85	  0.25	  0.60	160.45	     3	
159.93	  0.25	  0.60	160.53	     3	
160.72	  0.25	  0.60	161.32	     3	
160.89	  0.25	  0.60	161.49	     3	
161.05	  0.25	  0.60	161.65	     3	
161.57	  0.25	  0.60	162.17	     3	
161.71	  0.25	  0.60	162.31	     3	
161.76	  0.25	  0.60	162.36	     3	
161.76	  0.25	  0.60	162.36	     3	
162.26	  0.25	  0.60	162.86	     3	
162.47	  0.25	  0.60	163.07	     3	
162.85	  0.25	  0.60	163.45	     3	
162.91	  0.25	  0.60	163.51	     3	
163.77	  0.25	  0.60	164.37	     3	
163.95	  0.25	  0.60	164.55	     3	
164.16	  0.25	  0.60	164.76	     3	
164.21	  0.25	  0.60	164.81	     3	
164.42	  0.25	  0.60	165.02	     3	
164.46	  0.25	  0.60	165.06	     3	
164.93	  0.25	  0.60	165.53	     3	
165.09	  0.25	  0.60	165.69	     3	
165.91	  0.25	  0.60	166.51	     3	
166.03	  0.25	  0.60	166.63	     3	
166.94	  0.25	  0.60	167.54	     3	
167.38	  0.25	  0.60	167.98	     3	
167.84	  0.25	  0.60	168.44	     3	
167.90	  0.25	  0.60	168.50	     3	
168.09	  0.25	  0.60	168.69	     3	
