  8.56	  0.25	  0.60	  9.16	     3	
  8.82	  0.25	  0.60	  9.42	     3	
  8.86	  0.25	  0.60	  9.46	     3	
  8.95	  0.25	  0.60	  9.55	     3	
  9.37	  0.25	  0.60	  9.97	     3	
  9.47	  0.25	  0.60	 10.07	     3	
  9.48	  0.25	  0.60	 10.08	     3	
  9.62	  0.25	  0.60	 10.22	     3	
  9.63	  0.25	  0.60	 10.23	     3	
  9.78	  0.25	  0.60	 10.38	     3	
 10.07	  0.25	  0.60	 10.67	     3	
 10.07	  0.25	  0.60	 10.67	     3	
 10.18	  0.25	  0.60	 10.78	     3	
 10.25	  0.25	  0.60	 10.85	     3	
 10.26	  0.25	  0.60	 10.86	     3	
 10.28	  0.25	  0.60	 10.88	     3	
 10.34	  0.25	  0.60	 10.94	     3	
 10.39	  0.25	  0.60	 10.99	     3	
 10.76	  0.25	  0.60	 11.36	     3	
 10.92	  0.25	  0.60	 11.52	     3	
 11.02	  0.25	  0.60	 11.62	     3	
 11.06	  0.25	  0.60	 11.66	     3	
 11.14	  0.25	  0.60	 11.74	     3	
 11.17	  0.25	  0.60	 11.77	     3	
 11.22	  0.25	  0.60	 11.82	     3	
 11.26	  0.25	  0.60	 11.86	     3	
 11.33	  0.25	  0.60	 11.93	     3	
 11.36	  0.25	  0.60	 11.96	     3	
 11.40	  0.25	  0.60	 12.00	     3	
 11.42	  0.25	  0.60	 12.02	     3	
 11.45	  0.25	  0.60	 12.05	     3	
 11.45	  0.25	  0.60	 12.05	     3	
 11.55	  0.25	  0.60	 12.15	     3	
 11.62	  0.25	  0.60	 12.22	     3	
 11.72	  0.25	  0.60	 12.32	     3	
 11.91	  0.25	  0.60	 12.51	     3	
 12.06	  0.25	  0.60	 12.66	     3	
 12.06	  0.25	  0.60	 12.66	     3	
 12.13	  0.25	  0.60	 12.73	     3	
 12.15	  0.25	  0.60	 12.75	     3	
 12.18	  0.25	  0.60	 12.78	     3	
 12.31	  0.25	  0.60	 12.91	     3	
 12.48	  0.25	  0.60	 13.08	     3	
 12.60	  0.25	  0.60	 13.20	     3	
 12.64	  0.25	  0.60	 13.24	     3	
 12.64	  0.25	  0.60	 13.24	     3	
 12.75	  0.25	  0.60	 13.35	     3	
 12.79	  0.25	  0.60	 13.39	     3	
 13.01	  0.25	  0.60	 13.61	     3	
 13.03	  0.25	  0.60	 13.63	     3	
 13.09	  0.25	  0.60	 13.69	     3	
 13.31	  0.25	  0.60	 13.91	     3	
 13.33	  0.25	  0.60	 13.93	     3	
 13.43	  0.25	  0.60	 14.03	     3	
 13.92	  0.25	  0.60	 14.52	     3	
 14.18	  0.25	  0.60	 14.78	     3	
 14.40	  0.25	  0.60	 15.00	     3	
 14.46	  0.25	  0.60	 15.06	     3	
 14.70	  0.25	  0.60	 15.30	     3	
 14.83	  0.25	  0.60	 15.43	     3	
 15.02	  0.25	  0.60	 15.62	     3	
 15.11	  0.25	  0.60	 15.71	     3	
 15.13	  0.25	  0.60	 15.73	     3	
 15.30	  0.25	  0.60	 15.90	     3	
 15.38	  0.25	  0.60	 15.98	     3	
 15.39	  0.25	  0.60	 15.99	     3	
 15.53	  0.25	  0.60	 16.13	     3	
 15.62	  0.25	  0.60	 16.22	     3	
 15.67	  0.25	  0.60	 16.27	     3	
 15.67	  0.25	  0.60	 16.27	     3	
 15.93	  0.25	  0.60	 16.53	     3	
 16.11	  0.25	  0.60	 16.71	     3	
 16.14	  0.25	  0.60	 16.74	     3	
 16.19	  0.25	  0.60	 16.79	     3	
 16.26	  0.25	  0.60	 16.86	     3	
 16.43	  0.25	  0.60	 17.03	     3	
 16.80	  0.25	  0.60	 17.40	     3	
 16.95	  0.25	  0.60	 17.55	     3	
 16.96	  0.25	  0.60	 17.56	     3	
 17.11	  0.25	  0.60	 17.71	     3	
 17.36	  0.25	  0.60	 17.96	     3	
 17.39	  0.25	  0.60	 17.99	     3	
 17.52	  0.25	  0.60	 18.12	     3	
 17.62	  0.25	  0.60	 18.22	     3	
 17.73	  0.25	  0.60	 18.33	     3	
 17.79	  0.25	  0.60	 18.39	     3	
 17.88	  0.25	  0.60	 18.48	     3	
 18.04	  0.25	  0.60	 18.64	     3	
 18.12	  0.25	  0.60	 18.72	     3	
 18.20	  0.25	  0.60	 18.80	     3	
 18.28	  0.25	  0.60	 18.88	     3	
 18.40	  0.25	  0.60	 19.00	     3	
 18.59	  0.25	  0.60	 19.19	     3	
 18.82	  0.25	  0.60	 19.42	     3	
 19.29	  0.25	  0.60	 19.89	     3	
 19.35	  0.25	  0.60	 19.95	     3	
 19.37	  0.25	  0.60	 19.97	     3	
 19.43	  0.25	  0.60	 20.03	     3	
 19.47	  0.25	  0.60	 20.07	     3	
 19.57	  0.25	  0.60	 20.17	     3	
 19.73	  0.25	  0.60	 20.33	     3	
 19.76	  0.25	  0.60	 20.36	     3	
 19.83	  0.25	  0.60	 20.43	     3	
 19.88	  0.25	  0.60	 20.48	     3	
 19.90	  0.25	  0.60	 20.50	     3	
 19.92	  0.25	  0.60	 20.52	     3	
 20.06	  0.25	  0.60	 20.66	     3	
 20.23	  0.25	  0.60	 20.83	     3	
 20.59	  0.25	  0.60	 21.19	     3	
 20.61	  0.25	  0.60	 21.21	     3	
 20.62	  0.25	  0.60	 21.22	     3	
 20.73	  0.25	  0.60	 21.33	     3	
 20.84	  0.25	  0.60	 21.44	     3	
 20.91	  0.25	  0.60	 21.51	     3	
 21.10	  0.25	  0.60	 21.70	     3	
 21.13	  0.25	  0.60	 21.73	     3	
 21.21	  0.25	  0.60	 21.81	     3	
 21.27	  0.25	  0.60	 21.87	     3	
 21.42	  0.25	  0.60	 22.02	     3	
 21.42	  0.25	  0.60	 22.02	     3	
 21.64	  0.25	  0.60	 22.24	     3	
 21.66	  0.25	  0.60	 22.26	     3	
 21.70	  0.25	  0.60	 22.30	     3	
 21.72	  0.25	  0.60	 22.32	     3	
 21.78	  0.25	  0.60	 22.38	     3	
 21.99	  0.25	  0.60	 22.59	     3	
 22.11	  0.25	  0.60	 22.71	     3	
 22.25	  0.25	  0.60	 22.85	     3	
 22.26	  0.25	  0.60	 22.86	     3	
 22.43	  0.25	  0.60	 23.03	     3	
 22.59	  0.25	  0.60	 23.19	     3	
 22.66	  0.25	  0.60	 23.26	     3	
 23.28	  0.25	  0.60	 23.88	     3	
 23.36	  0.25	  0.60	 23.96	     3	
 23.53	  0.25	  0.60	 24.13	     3	
 23.57	  0.25	  0.60	 24.17	     3	
 23.62	  0.25	  0.60	 24.22	     3	
 23.68	  0.25	  0.60	 24.28	     3	
 23.92	  0.25	  0.60	 24.52	     3	
 23.92	  0.25	  0.60	 24.52	     3	
 23.96	  0.25	  0.60	 24.56	     3	
 24.00	  0.25	  0.60	 24.60	     3	
 24.24	  0.25	  0.60	 24.84	     3	
 24.32	  0.25	  0.60	 24.92	     3	
 24.37	  0.25	  0.60	 24.97	     3	
 24.39	  0.25	  0.60	 24.99	     3	
 24.47	  0.25	  0.60	 25.07	     3	
 32.50	  0.25	  0.60	 33.10	     3	
 32.72	  0.25	  0.60	 33.32	     3	
 32.78	  0.25	  0.60	 33.38	     3	
 32.78	  0.25	  0.60	 33.38	     3	
 32.81	  0.25	  0.60	 33.41	     3	
 32.85	  0.25	  0.60	 33.45	     3	
 32.91	  0.25	  0.60	 33.51	     3	
 32.91	  0.25	  0.60	 33.51	     3	
 33.05	  0.25	  0.60	 33.65	     3	
 33.16	  0.25	  0.60	 33.76	     3	
 33.17	  0.25	  0.60	 33.77	     3	
 33.20	  0.25	  0.60	 33.80	     3	
 33.39	  0.25	  0.60	 33.99	     3	
 33.59	  0.25	  0.60	 34.19	     3	
 33.59	  0.25	  0.60	 34.19	     3	
 33.68	  0.25	  0.60	 34.28	     3	
 33.69	  0.25	  0.60	 34.29	     3	
 33.84	  0.25	  0.60	 34.44	     3	
 33.92	  0.25	  0.60	 34.52	     3	
 34.10	  0.25	  0.60	 34.70	     3	
 34.11	  0.25	  0.60	 34.71	     3	
 34.20	  0.25	  0.60	 34.80	     3	
 34.52	  0.25	  0.60	 35.12	     3	
 34.67	  0.25	  0.60	 35.27	     3	
 34.69	  0.25	  0.60	 35.29	     3	
 34.86	  0.25	  0.60	 35.46	     3	
 34.98	  0.25	  0.60	 35.58	     3	
 35.04	  0.25	  0.60	 35.64	     3	
 35.08	  0.25	  0.60	 35.68	     3	
 35.13	  0.25	  0.60	 35.73	     3	
 35.14	  0.25	  0.60	 35.74	     3	
 35.28	  0.25	  0.60	 35.88	     3	
 35.29	  0.25	  0.60	 35.89	     3	
 35.58	  0.25	  0.60	 36.18	     3	
 35.84	  0.25	  0.60	 36.44	     3	
 36.00	  0.25	  0.60	 36.60	     3	
 36.05	  0.25	  0.60	 36.65	     3	
 36.26	  0.25	  0.60	 36.86	     3	
 36.30	  0.25	  0.60	 36.90	     3	
 36.31	  0.25	  0.60	 36.91	     3	
 36.32	  0.25	  0.60	 36.92	     3	
 36.62	  0.25	  0.60	 37.22	     3	
 36.69	  0.25	  0.60	 37.29	     3	
 36.89	  0.25	  0.60	 37.49	     3	
 37.10	  0.25	  0.60	 37.70	     3	
 37.15	  0.25	  0.60	 37.75	     3	
 37.17	  0.25	  0.60	 37.77	     3	
 37.19	  0.25	  0.60	 37.79	     3	
 37.32	  0.25	  0.60	 37.92	     3	
 37.45	  0.25	  0.60	 38.05	     3	
 37.52	  0.25	  0.60	 38.12	     3	
 37.55	  0.25	  0.60	 38.15	     3	
 37.68	  0.25	  0.60	 38.28	     3	
 37.73	  0.25	  0.60	 38.33	     3	
 37.93	  0.25	  0.60	 38.53	     3	
 37.97	  0.25	  0.60	 38.57	     3	
 38.11	  0.25	  0.60	 38.71	     3	
 38.38	  0.25	  0.60	 38.98	     3	
 38.38	  0.25	  0.60	 38.98	     3	
 38.45	  0.25	  0.60	 39.05	     3	
 38.46	  0.25	  0.60	 39.06	     3	
 38.54	  0.25	  0.60	 39.14	     3	
 38.60	  0.25	  0.60	 39.20	     3	
 38.65	  0.25	  0.60	 39.25	     3	
 38.71	  0.25	  0.60	 39.31	     3	
 38.76	  0.25	  0.60	 39.36	     3	
 38.80	  0.25	  0.60	 39.40	     3	
 38.84	  0.25	  0.60	 39.44	     3	
 39.10	  0.25	  0.60	 39.70	     3	
 39.12	  0.25	  0.60	 39.72	     3	
 39.21	  0.25	  0.60	 39.81	     3	
 39.30	  0.25	  0.60	 39.90	     3	
 39.61	  0.25	  0.60	 40.21	     3	
 39.98	  0.25	  0.60	 40.58	     3	
 40.01	  0.25	  0.60	 40.61	     3	
 40.01	  0.25	  0.60	 40.61	     3	
 40.22	  0.25	  0.60	 40.82	     3	
 40.28	  0.25	  0.60	 40.88	     3	
 40.46	  0.25	  0.60	 41.06	     3	
 40.48	  0.25	  0.60	 41.08	     3	
 40.56	  0.25	  0.60	 41.16	     3	
 40.76	  0.25	  0.60	 41.36	     3	
 40.77	  0.25	  0.60	 41.37	     3	
 40.83	  0.25	  0.60	 41.43	     3	
 40.86	  0.25	  0.60	 41.46	     3	
 41.12	  0.25	  0.60	 41.72	     3	
 41.14	  0.25	  0.60	 41.74	     3	
 41.26	  0.25	  0.60	 41.86	     3	
 41.30	  0.25	  0.60	 41.90	     3	
 41.62	  0.25	  0.60	 42.22	     3	
 41.77	  0.25	  0.60	 42.37	     3	
 41.81	  0.25	  0.60	 42.41	     3	
 42.02	  0.25	  0.60	 42.62	     3	
 42.03	  0.25	  0.60	 42.63	     3	
 42.30	  0.25	  0.60	 42.90	     3	
 42.31	  0.25	  0.60	 42.91	     3	
 42.40	  0.25	  0.60	 43.00	     3	
 42.45	  0.25	  0.60	 43.05	     3	
 42.45	  0.25	  0.60	 43.05	     3	
 42.82	  0.25	  0.60	 43.42	     3	
 42.83	  0.25	  0.60	 43.43	     3	
 43.10	  0.25	  0.60	 43.70	     3	
 43.15	  0.25	  0.60	 43.75	     3	
 43.25	  0.25	  0.60	 43.85	     3	
 43.36	  0.25	  0.60	 43.96	     3	
 43.38	  0.25	  0.60	 43.98	     3	
 43.50	  0.25	  0.60	 44.10	     3	
 43.59	  0.25	  0.60	 44.19	     3	
 44.29	  0.25	  0.60	 44.89	     3	
 44.43	  0.25	  0.60	 45.03	     3	
 44.76	  0.25	  0.60	 45.36	     3	
 44.77	  0.25	  0.60	 45.37	     3	
 44.89	  0.25	  0.60	 45.49	     3	
 45.05	  0.25	  0.60	 45.65	     3	
 45.09	  0.25	  0.60	 45.69	     3	
 45.44	  0.25	  0.60	 46.04	     3	
 45.51	  0.25	  0.60	 46.11	     3	
 45.66	  0.25	  0.60	 46.26	     3	
 45.83	  0.25	  0.60	 46.43	     3	
 45.94	  0.25	  0.60	 46.54	     3	
 45.95	  0.25	  0.60	 46.55	     3	
 45.96	  0.25	  0.60	 46.56	     3	
 46.14	  0.25	  0.60	 46.74	     3	
 46.17	  0.25	  0.60	 46.77	     3	
 46.24	  0.25	  0.60	 46.84	     3	
 46.51	  0.25	  0.60	 47.11	     3	
 46.83	  0.25	  0.60	 47.43	     3	
 46.87	  0.25	  0.60	 47.47	     3	
 46.89	  0.25	  0.60	 47.49	     3	
 47.07	  0.25	  0.60	 47.67	     3	
 47.26	  0.25	  0.60	 47.86	     3	
 47.43	  0.25	  0.60	 48.03	     3	
 47.50	  0.25	  0.60	 48.10	     3	
 47.65	  0.25	  0.60	 48.25	     3	
 47.71	  0.25	  0.60	 48.31	     3	
 47.78	  0.25	  0.60	 48.38	     3	
 47.89	  0.25	  0.60	 48.49	     3	
 47.96	  0.25	  0.60	 48.56	     3	
 48.11	  0.25	  0.60	 48.71	     3	
 48.11	  0.25	  0.60	 48.71	     3	
 48.23	  0.25	  0.60	 48.83	     3	
 48.25	  0.25	  0.60	 48.85	     3	
 48.38	  0.25	  0.60	 48.98	     3	
 56.59	  0.25	  0.60	 57.19	     3	
 56.67	  0.25	  0.60	 57.27	     3	
 56.70	  0.25	  0.60	 57.30	     3	
 56.91	  0.25	  0.60	 57.51	     3	
 57.00	  0.25	  0.60	 57.60	     3	
 57.16	  0.25	  0.60	 57.76	     3	
 57.27	  0.25	  0.60	 57.87	     3	
 57.28	  0.25	  0.60	 57.88	     3	
 57.28	  0.25	  0.60	 57.88	     3	
 57.32	  0.25	  0.60	 57.92	     3	
 57.62	  0.25	  0.60	 58.22	     3	
 57.63	  0.25	  0.60	 58.23	     3	
 57.91	  0.25	  0.60	 58.51	     3	
 58.02	  0.25	  0.60	 58.62	     3	
 58.11	  0.25	  0.60	 58.71	     3	
 58.12	  0.25	  0.60	 58.72	     3	
 58.16	  0.25	  0.60	 58.76	     3	
 58.21	  0.25	  0.60	 58.81	     3	
 58.76	  0.25	  0.60	 59.36	     3	
 58.81	  0.25	  0.60	 59.41	     3	
 58.91	  0.25	  0.60	 59.51	     3	
 58.99	  0.25	  0.60	 59.59	     3	
 59.01	  0.25	  0.60	 59.61	     3	
 59.11	  0.25	  0.60	 59.71	     3	
 59.14	  0.25	  0.60	 59.74	     3	
 59.22	  0.25	  0.60	 59.82	     3	
 59.43	  0.25	  0.60	 60.03	     3	
 59.63	  0.25	  0.60	 60.23	     3	
 59.63	  0.25	  0.60	 60.23	     3	
 59.77	  0.25	  0.60	 60.37	     3	
 59.87	  0.25	  0.60	 60.47	     3	
 59.89	  0.25	  0.60	 60.49	     3	
 60.06	  0.25	  0.60	 60.66	     3	
 60.06	  0.25	  0.60	 60.66	     3	
 60.25	  0.25	  0.60	 60.85	     3	
 60.26	  0.25	  0.60	 60.86	     3	
 60.39	  0.25	  0.60	 60.99	     3	
 60.54	  0.25	  0.60	 61.14	     3	
 60.54	  0.25	  0.60	 61.14	     3	
 60.64	  0.25	  0.60	 61.24	     3	
 60.65	  0.25	  0.60	 61.25	     3	
 60.68	  0.25	  0.60	 61.28	     3	
 60.74	  0.25	  0.60	 61.34	     3	
 60.84	  0.25	  0.60	 61.44	     3	
 60.91	  0.25	  0.60	 61.51	     3	
 61.02	  0.25	  0.60	 61.62	     3	
 61.06	  0.25	  0.60	 61.66	     3	
 61.19	  0.25	  0.60	 61.79	     3	
 61.32	  0.25	  0.60	 61.92	     3	
 61.56	  0.25	  0.60	 62.16	     3	
 61.80	  0.25	  0.60	 62.40	     3	
 61.93	  0.25	  0.60	 62.53	     3	
 62.04	  0.25	  0.60	 62.64	     3	
 62.39	  0.25	  0.60	 62.99	     3	
 62.42	  0.25	  0.60	 63.02	     3	
 62.45	  0.25	  0.60	 63.05	     3	
 62.47	  0.25	  0.60	 63.07	     3	
 62.48	  0.25	  0.60	 63.08	     3	
 62.50	  0.25	  0.60	 63.10	     3	
 62.68	  0.25	  0.60	 63.28	     3	
 62.88	  0.25	  0.60	 63.48	     3	
 63.33	  0.25	  0.60	 63.93	     3	
 63.45	  0.25	  0.60	 64.05	     3	
 63.90	  0.25	  0.60	 64.50	     3	
 63.98	  0.25	  0.60	 64.58	     3	
 64.04	  0.25	  0.60	 64.64	     3	
 64.20	  0.25	  0.60	 64.80	     3	
 64.24	  0.25	  0.60	 64.84	     3	
 64.31	  0.25	  0.60	 64.91	     3	
 64.35	  0.25	  0.60	 64.95	     3	
 64.37	  0.25	  0.60	 64.97	     3	
 64.42	  0.25	  0.60	 65.02	     3	
 64.45	  0.25	  0.60	 65.05	     3	
 64.58	  0.25	  0.60	 65.18	     3	
 64.61	  0.25	  0.60	 65.21	     3	
 64.65	  0.25	  0.60	 65.25	     3	
 64.80	  0.25	  0.60	 65.40	     3	
 64.87	  0.25	  0.60	 65.47	     3	
 64.99	  0.25	  0.60	 65.59	     3	
 65.04	  0.25	  0.60	 65.64	     3	
 65.07	  0.25	  0.60	 65.67	     3	
 65.62	  0.25	  0.60	 66.22	     3	
 65.78	  0.25	  0.60	 66.38	     3	
 65.81	  0.25	  0.60	 66.41	     3	
 65.88	  0.25	  0.60	 66.48	     3	
 66.06	  0.25	  0.60	 66.66	     3	
 66.10	  0.25	  0.60	 66.70	     3	
 66.19	  0.25	  0.60	 66.79	     3	
 66.47	  0.25	  0.60	 67.07	     3	
 66.56	  0.25	  0.60	 67.16	     3	
 66.67	  0.25	  0.60	 67.27	     3	
 67.35	  0.25	  0.60	 67.95	     3	
 67.41	  0.25	  0.60	 68.01	     3	
 67.47	  0.25	  0.60	 68.07	     3	
 67.50	  0.25	  0.60	 68.10	     3	
 67.88	  0.25	  0.60	 68.48	     3	
 67.94	  0.25	  0.60	 68.54	     3	
 67.98	  0.25	  0.60	 68.58	     3	
 68.33	  0.25	  0.60	 68.93	     3	
 68.34	  0.25	  0.60	 68.94	     3	
 68.46	  0.25	  0.60	 69.06	     3	
 68.54	  0.25	  0.60	 69.14	     3	
 68.59	  0.25	  0.60	 69.19	     3	
 68.60	  0.25	  0.60	 69.20	     3	
 68.64	  0.25	  0.60	 69.24	     3	
 68.64	  0.25	  0.60	 69.24	     3	
 68.83	  0.25	  0.60	 69.43	     3	
 68.89	  0.25	  0.60	 69.49	     3	
 69.13	  0.25	  0.60	 69.73	     3	
 69.14	  0.25	  0.60	 69.74	     3	
 69.16	  0.25	  0.60	 69.76	     3	
 69.20	  0.25	  0.60	 69.80	     3	
 69.32	  0.25	  0.60	 69.92	     3	
 69.35	  0.25	  0.60	 69.95	     3	
 69.73	  0.25	  0.60	 70.33	     3	
 69.83	  0.25	  0.60	 70.43	     3	
 69.85	  0.25	  0.60	 70.45	     3	
 69.92	  0.25	  0.60	 70.52	     3	
 69.96	  0.25	  0.60	 70.56	     3	
 69.97	  0.25	  0.60	 70.57	     3	
 70.04	  0.25	  0.60	 70.64	     3	
 70.10	  0.25	  0.60	 70.70	     3	
 70.12	  0.25	  0.60	 70.72	     3	
 70.17	  0.25	  0.60	 70.77	     3	
 70.44	  0.25	  0.60	 71.04	     3	
 70.56	  0.25	  0.60	 71.16	     3	
 70.61	  0.25	  0.60	 71.21	     3	
 70.64	  0.25	  0.60	 71.24	     3	
 70.68	  0.25	  0.60	 71.28	     3	
 70.70	  0.25	  0.60	 71.30	     3	
 70.80	  0.25	  0.60	 71.40	     3	
 70.83	  0.25	  0.60	 71.43	     3	
 70.94	  0.25	  0.60	 71.54	     3	
 71.27	  0.25	  0.60	 71.87	     3	
 71.43	  0.25	  0.60	 72.03	     3	
 71.43	  0.25	  0.60	 72.03	     3	
 71.45	  0.25	  0.60	 72.05	     3	
 71.45	  0.25	  0.60	 72.05	     3	
 71.67	  0.25	  0.60	 72.27	     3	
 71.80	  0.25	  0.60	 72.40	     3	
 71.81	  0.25	  0.60	 72.41	     3	
 71.98	  0.25	  0.60	 72.58	     3	
 71.99	  0.25	  0.60	 72.59	     3	
 72.16	  0.25	  0.60	 72.76	     3	
 72.23	  0.25	  0.60	 72.83	     3	
 72.39	  0.25	  0.60	 72.99	     3	
 80.55	  0.25	  0.60	 81.15	     3	
 80.75	  0.25	  0.60	 81.35	     3	
 80.87	  0.25	  0.60	 81.47	     3	
 80.99	  0.25	  0.60	 81.59	     3	
 81.06	  0.25	  0.60	 81.66	     3	
 81.08	  0.25	  0.60	 81.68	     3	
 81.45	  0.25	  0.60	 82.05	     3	
 81.55	  0.25	  0.60	 82.15	     3	
 81.78	  0.25	  0.60	 82.38	     3	
 81.86	  0.25	  0.60	 82.46	     3	
 81.89	  0.25	  0.60	 82.49	     3	
 81.93	  0.25	  0.60	 82.53	     3	
 81.96	  0.25	  0.60	 82.56	     3	
 82.06	  0.25	  0.60	 82.66	     3	
 82.31	  0.25	  0.60	 82.91	     3	
 82.32	  0.25	  0.60	 82.92	     3	
 82.38	  0.25	  0.60	 82.98	     3	
 82.39	  0.25	  0.60	 82.99	     3	
 82.42	  0.25	  0.60	 83.02	     3	
 82.45	  0.25	  0.60	 83.05	     3	
 82.56	  0.25	  0.60	 83.16	     3	
 82.64	  0.25	  0.60	 83.24	     3	
 82.75	  0.25	  0.60	 83.35	     3	
 82.79	  0.25	  0.60	 83.39	     3	
 83.20	  0.25	  0.60	 83.80	     3	
 83.24	  0.25	  0.60	 83.84	     3	
 83.30	  0.25	  0.60	 83.90	     3	
 83.46	  0.25	  0.60	 84.06	     3	
 83.48	  0.25	  0.60	 84.08	     3	
 83.56	  0.25	  0.60	 84.16	     3	
 83.64	  0.25	  0.60	 84.24	     3	
 83.75	  0.25	  0.60	 84.35	     3	
 84.11	  0.25	  0.60	 84.71	     3	
 84.45	  0.25	  0.60	 85.05	     3	
 84.46	  0.25	  0.60	 85.06	     3	
 84.48	  0.25	  0.60	 85.08	     3	
 84.55	  0.25	  0.60	 85.15	     3	
 84.60	  0.25	  0.60	 85.20	     3	
 84.91	  0.25	  0.60	 85.51	     3	
 84.93	  0.25	  0.60	 85.53	     3	
 84.96	  0.25	  0.60	 85.56	     3	
 85.00	  0.25	  0.60	 85.60	     3	
 85.01	  0.25	  0.60	 85.61	     3	
 85.01	  0.25	  0.60	 85.61	     3	
 85.04	  0.25	  0.60	 85.64	     3	
 85.06	  0.25	  0.60	 85.66	     3	
 85.13	  0.25	  0.60	 85.73	     3	
 85.29	  0.25	  0.60	 85.89	     3	
 85.70	  0.25	  0.60	 86.30	     3	
 85.95	  0.25	  0.60	 86.55	     3	
 85.98	  0.25	  0.60	 86.58	     3	
 85.98	  0.25	  0.60	 86.58	     3	
 86.05	  0.25	  0.60	 86.65	     3	
 86.35	  0.25	  0.60	 86.95	     3	
 86.38	  0.25	  0.60	 86.98	     3	
 86.47	  0.25	  0.60	 87.07	     3	
 86.52	  0.25	  0.60	 87.12	     3	
 86.57	  0.25	  0.60	 87.17	     3	
 86.59	  0.25	  0.60	 87.19	     3	
 86.65	  0.25	  0.60	 87.25	     3	
 86.75	  0.25	  0.60	 87.35	     3	
 86.77	  0.25	  0.60	 87.37	     3	
 86.91	  0.25	  0.60	 87.51	     3	
 87.02	  0.25	  0.60	 87.62	     3	
 87.06	  0.25	  0.60	 87.66	     3	
 87.06	  0.25	  0.60	 87.66	     3	
 87.06	  0.25	  0.60	 87.66	     3	
 87.25	  0.25	  0.60	 87.85	     3	
 87.28	  0.25	  0.60	 87.88	     3	
 87.36	  0.25	  0.60	 87.96	     3	
 87.41	  0.25	  0.60	 88.01	     3	
 87.42	  0.25	  0.60	 88.02	     3	
 87.74	  0.25	  0.60	 88.34	     3	
 87.76	  0.25	  0.60	 88.36	     3	
 87.90	  0.25	  0.60	 88.50	     3	
 87.90	  0.25	  0.60	 88.50	     3	
 88.10	  0.25	  0.60	 88.70	     3	
 88.16	  0.25	  0.60	 88.76	     3	
 88.17	  0.25	  0.60	 88.77	     3	
 88.30	  0.25	  0.60	 88.90	     3	
 88.39	  0.25	  0.60	 88.99	     3	
 88.40	  0.25	  0.60	 89.00	     3	
 88.41	  0.25	  0.60	 89.01	     3	
 88.65	  0.25	  0.60	 89.25	     3	
 88.71	  0.25	  0.60	 89.31	     3	
 89.06	  0.25	  0.60	 89.66	     3	
 89.33	  0.25	  0.60	 89.93	     3	
 89.38	  0.25	  0.60	 89.98	     3	
 89.47	  0.25	  0.60	 90.07	     3	
 89.47	  0.25	  0.60	 90.07	     3	
 89.62	  0.25	  0.60	 90.22	     3	
 89.75	  0.25	  0.60	 90.35	     3	
 89.92	  0.25	  0.60	 90.52	     3	
 90.24	  0.25	  0.60	 90.84	     3	
 90.50	  0.25	  0.60	 91.10	     3	
 90.76	  0.25	  0.60	 91.36	     3	
 90.90	  0.25	  0.60	 91.50	     3	
 91.01	  0.25	  0.60	 91.61	     3	
 91.01	  0.25	  0.60	 91.61	     3	
 91.08	  0.25	  0.60	 91.68	     3	
 91.09	  0.25	  0.60	 91.69	     3	
 91.17	  0.25	  0.60	 91.77	     3	
 91.18	  0.25	  0.60	 91.78	     3	
 91.28	  0.25	  0.60	 91.88	     3	
 91.35	  0.25	  0.60	 91.95	     3	
 91.63	  0.25	  0.60	 92.23	     3	
 91.64	  0.25	  0.60	 92.24	     3	
 91.72	  0.25	  0.60	 92.32	     3	
 91.82	  0.25	  0.60	 92.42	     3	
 91.90	  0.25	  0.60	 92.50	     3	
 91.92	  0.25	  0.60	 92.52	     3	
 91.98	  0.25	  0.60	 92.58	     3	
 92.02	  0.25	  0.60	 92.62	     3	
 92.13	  0.25	  0.60	 92.73	     3	
 92.20	  0.25	  0.60	 92.80	     3	
 92.21	  0.25	  0.60	 92.81	     3	
 92.26	  0.25	  0.60	 92.86	     3	
 92.39	  0.25	  0.60	 92.99	     3	
 92.46	  0.25	  0.60	 93.06	     3	
 92.50	  0.25	  0.60	 93.10	     3	
 92.54	  0.25	  0.60	 93.14	     3	
 92.56	  0.25	  0.60	 93.16	     3	
 92.97	  0.25	  0.60	 93.57	     3	
 93.03	  0.25	  0.60	 93.63	     3	
 93.07	  0.25	  0.60	 93.67	     3	
 93.33	  0.25	  0.60	 93.93	     3	
 93.49	  0.25	  0.60	 94.09	     3	
 93.53	  0.25	  0.60	 94.13	     3	
 93.55	  0.25	  0.60	 94.15	     3	
 93.62	  0.25	  0.60	 94.22	     3	
 93.64	  0.25	  0.60	 94.24	     3	
 93.84	  0.25	  0.60	 94.44	     3	
 93.89	  0.25	  0.60	 94.49	     3	
 93.89	  0.25	  0.60	 94.49	     3	
 93.96	  0.25	  0.60	 94.56	     3	
 93.97	  0.25	  0.60	 94.57	     3	
 94.00	  0.25	  0.60	 94.60	     3	
 94.00	  0.25	  0.60	 94.60	     3	
 94.20	  0.25	  0.60	 94.80	     3	
 94.36	  0.25	  0.60	 94.96	     3	
 94.38	  0.25	  0.60	 94.98	     3	
 94.51	  0.25	  0.60	 95.11	     3	
 94.58	  0.25	  0.60	 95.18	     3	
 94.59	  0.25	  0.60	 95.19	     3	
 94.71	  0.25	  0.60	 95.31	     3	
 94.76	  0.25	  0.60	 95.36	     3	
 94.76	  0.25	  0.60	 95.36	     3	
 94.82	  0.25	  0.60	 95.42	     3	
 94.86	  0.25	  0.60	 95.46	     3	
 94.90	  0.25	  0.60	 95.50	     3	
 94.97	  0.25	  0.60	 95.57	     3	
 95.20	  0.25	  0.60	 95.80	     3	
 95.22	  0.25	  0.60	 95.82	     3	
 95.30	  0.25	  0.60	 95.90	     3	
 95.38	  0.25	  0.60	 95.98	     3	
 95.46	  0.25	  0.60	 96.06	     3	
 95.63	  0.25	  0.60	 96.23	     3	
 95.64	  0.25	  0.60	 96.24	     3	
 95.66	  0.25	  0.60	 96.26	     3	
 95.70	  0.25	  0.60	 96.30	     3	
 95.80	  0.25	  0.60	 96.40	     3	
 95.98	  0.25	  0.60	 96.58	     3	
 96.03	  0.25	  0.60	 96.63	     3	
 96.07	  0.25	  0.60	 96.67	     3	
 96.07	  0.25	  0.60	 96.67	     3	
 96.30	  0.25	  0.60	 96.90	     3	
 96.31	  0.25	  0.60	 96.91	     3	
 96.35	  0.25	  0.60	 96.95	     3	
104.54	  0.25	  0.60	105.14	     3	
104.65	  0.25	  0.60	105.25	     3	
104.83	  0.25	  0.60	105.43	     3	
104.97	  0.25	  0.60	105.57	     3	
104.98	  0.25	  0.60	105.58	     3	
105.10	  0.25	  0.60	105.70	     3	
105.15	  0.25	  0.60	105.75	     3	
105.17	  0.25	  0.60	105.77	     3	
105.31	  0.25	  0.60	105.91	     3	
105.44	  0.25	  0.60	106.04	     3	
105.44	  0.25	  0.60	106.04	     3	
105.54	  0.25	  0.60	106.14	     3	
105.59	  0.25	  0.60	106.19	     3	
105.94	  0.25	  0.60	106.54	     3	
106.29	  0.25	  0.60	106.89	     3	
106.48	  0.25	  0.60	107.08	     3	
106.57	  0.25	  0.60	107.17	     3	
106.59	  0.25	  0.60	107.19	     3	
106.76	  0.25	  0.60	107.36	     3	
106.78	  0.25	  0.60	107.38	     3	
106.98	  0.25	  0.60	107.58	     3	
107.00	  0.25	  0.60	107.60	     3	
107.21	  0.25	  0.60	107.81	     3	
107.41	  0.25	  0.60	108.01	     3	
107.42	  0.25	  0.60	108.02	     3	
107.54	  0.25	  0.60	108.14	     3	
107.58	  0.25	  0.60	108.18	     3	
107.66	  0.25	  0.60	108.26	     3	
107.83	  0.25	  0.60	108.43	     3	
108.04	  0.25	  0.60	108.64	     3	
108.12	  0.25	  0.60	108.72	     3	
108.28	  0.25	  0.60	108.88	     3	
108.40	  0.25	  0.60	109.00	     3	
108.66	  0.25	  0.60	109.26	     3	
108.82	  0.25	  0.60	109.42	     3	
108.90	  0.25	  0.60	109.50	     3	
108.95	  0.25	  0.60	109.55	     3	
109.00	  0.25	  0.60	109.60	     3	
109.04	  0.25	  0.60	109.64	     3	
109.22	  0.25	  0.60	109.82	     3	
109.46	  0.25	  0.60	110.06	     3	
109.56	  0.25	  0.60	110.16	     3	
109.57	  0.25	  0.60	110.17	     3	
110.12	  0.25	  0.60	110.72	     3	
110.14	  0.25	  0.60	110.74	     3	
110.28	  0.25	  0.60	110.88	     3	
110.44	  0.25	  0.60	111.04	     3	
110.47	  0.25	  0.60	111.07	     3	
110.70	  0.25	  0.60	111.30	     3	
110.73	  0.25	  0.60	111.33	     3	
110.73	  0.25	  0.60	111.33	     3	
110.75	  0.25	  0.60	111.35	     3	
110.75	  0.25	  0.60	111.35	     3	
110.76	  0.25	  0.60	111.36	     3	
110.81	  0.25	  0.60	111.41	     3	
110.99	  0.25	  0.60	111.59	     3	
111.23	  0.25	  0.60	111.83	     3	
111.47	  0.25	  0.60	112.07	     3	
111.55	  0.25	  0.60	112.15	     3	
111.94	  0.25	  0.60	112.54	     3	
111.96	  0.25	  0.60	112.56	     3	
112.07	  0.25	  0.60	112.67	     3	
112.18	  0.25	  0.60	112.78	     3	
112.23	  0.25	  0.60	112.83	     3	
112.35	  0.25	  0.60	112.95	     3	
112.38	  0.25	  0.60	112.98	     3	
112.40	  0.25	  0.60	113.00	     3	
112.42	  0.25	  0.60	113.02	     3	
112.92	  0.25	  0.60	113.52	     3	
113.05	  0.25	  0.60	113.65	     3	
113.07	  0.25	  0.60	113.67	     3	
113.38	  0.25	  0.60	113.98	     3	
113.67	  0.25	  0.60	114.27	     3	
113.70	  0.25	  0.60	114.30	     3	
113.73	  0.25	  0.60	114.33	     3	
113.79	  0.25	  0.60	114.39	     3	
114.17	  0.25	  0.60	114.77	     3	
114.27	  0.25	  0.60	114.87	     3	
114.32	  0.25	  0.60	114.92	     3	
114.40	  0.25	  0.60	115.00	     3	
114.44	  0.25	  0.60	115.04	     3	
114.47	  0.25	  0.60	115.07	     3	
114.53	  0.25	  0.60	115.13	     3	
114.58	  0.25	  0.60	115.18	     3	
114.69	  0.25	  0.60	115.29	     3	
114.85	  0.25	  0.60	115.45	     3	
115.09	  0.25	  0.60	115.69	     3	
115.17	  0.25	  0.60	115.77	     3	
115.22	  0.25	  0.60	115.82	     3	
115.26	  0.25	  0.60	115.86	     3	
115.36	  0.25	  0.60	115.96	     3	
115.42	  0.25	  0.60	116.02	     3	
115.47	  0.25	  0.60	116.07	     3	
115.74	  0.25	  0.60	116.34	     3	
115.95	  0.25	  0.60	116.55	     3	
116.06	  0.25	  0.60	116.66	     3	
116.12	  0.25	  0.60	116.72	     3	
116.25	  0.25	  0.60	116.85	     3	
116.32	  0.25	  0.60	116.92	     3	
116.51	  0.25	  0.60	117.11	     3	
116.76	  0.25	  0.60	117.36	     3	
116.77	  0.25	  0.60	117.37	     3	
116.94	  0.25	  0.60	117.54	     3	
117.17	  0.25	  0.60	117.77	     3	
117.38	  0.25	  0.60	117.98	     3	
117.40	  0.25	  0.60	118.00	     3	
117.48	  0.25	  0.60	118.08	     3	
117.49	  0.25	  0.60	118.09	     3	
117.51	  0.25	  0.60	118.11	     3	
117.51	  0.25	  0.60	118.11	     3	
117.68	  0.25	  0.60	118.28	     3	
117.75	  0.25	  0.60	118.35	     3	
117.79	  0.25	  0.60	118.39	     3	
118.01	  0.25	  0.60	118.61	     3	
118.02	  0.25	  0.60	118.62	     3	
118.06	  0.25	  0.60	118.66	     3	
118.50	  0.25	  0.60	119.10	     3	
118.64	  0.25	  0.60	119.24	     3	
118.74	  0.25	  0.60	119.34	     3	
118.82	  0.25	  0.60	119.42	     3	
118.95	  0.25	  0.60	119.55	     3	
119.19	  0.25	  0.60	119.79	     3	
119.37	  0.25	  0.60	119.97	     3	
119.42	  0.25	  0.60	120.02	     3	
119.44	  0.25	  0.60	120.04	     3	
119.55	  0.25	  0.60	120.15	     3	
119.82	  0.25	  0.60	120.42	     3	
119.95	  0.25	  0.60	120.55	     3	
119.98	  0.25	  0.60	120.58	     3	
120.15	  0.25	  0.60	120.75	     3	
120.19	  0.25	  0.60	120.79	     3	
120.32	  0.25	  0.60	120.92	     3	
120.50	  0.25	  0.60	121.10	     3	
128.56	  0.25	  0.60	129.16	     3	
128.59	  0.25	  0.60	129.19	     3	
128.69	  0.25	  0.60	129.29	     3	
129.05	  0.25	  0.60	129.65	     3	
129.13	  0.25	  0.60	129.73	     3	
129.17	  0.25	  0.60	129.77	     3	
129.43	  0.25	  0.60	130.03	     3	
129.51	  0.25	  0.60	130.11	     3	
129.52	  0.25	  0.60	130.12	     3	
129.56	  0.25	  0.60	130.16	     3	
129.73	  0.25	  0.60	130.33	     3	
129.75	  0.25	  0.60	130.35	     3	
129.75	  0.25	  0.60	130.35	     3	
129.78	  0.25	  0.60	130.38	     3	
129.99	  0.25	  0.60	130.59	     3	
130.08	  0.25	  0.60	130.68	     3	
130.14	  0.25	  0.60	130.74	     3	
130.17	  0.25	  0.60	130.77	     3	
130.29	  0.25	  0.60	130.89	     3	
130.51	  0.25	  0.60	131.11	     3	
130.90	  0.25	  0.60	131.50	     3	
130.92	  0.25	  0.60	131.52	     3	
131.03	  0.25	  0.60	131.63	     3	
131.04	  0.25	  0.60	131.64	     3	
131.05	  0.25	  0.60	131.65	     3	
131.13	  0.25	  0.60	131.73	     3	
131.21	  0.25	  0.60	131.81	     3	
131.23	  0.25	  0.60	131.83	     3	
131.28	  0.25	  0.60	131.88	     3	
131.41	  0.25	  0.60	132.01	     3	
131.48	  0.25	  0.60	132.08	     3	
131.51	  0.25	  0.60	132.11	     3	
131.53	  0.25	  0.60	132.13	     3	
131.56	  0.25	  0.60	132.16	     3	
131.74	  0.25	  0.60	132.34	     3	
131.79	  0.25	  0.60	132.39	     3	
131.80	  0.25	  0.60	132.40	     3	
132.01	  0.25	  0.60	132.61	     3	
132.01	  0.25	  0.60	132.61	     3	
132.06	  0.25	  0.60	132.66	     3	
132.14	  0.25	  0.60	132.74	     3	
132.18	  0.25	  0.60	132.78	     3	
132.22	  0.25	  0.60	132.82	     3	
132.59	  0.25	  0.60	133.19	     3	
132.64	  0.25	  0.60	133.24	     3	
132.78	  0.25	  0.60	133.38	     3	
133.06	  0.25	  0.60	133.66	     3	
133.33	  0.25	  0.60	133.93	     3	
133.37	  0.25	  0.60	133.97	     3	
133.38	  0.25	  0.60	133.98	     3	
133.40	  0.25	  0.60	134.00	     3	
133.42	  0.25	  0.60	134.02	     3	
133.58	  0.25	  0.60	134.18	     3	
133.63	  0.25	  0.60	134.23	     3	
133.77	  0.25	  0.60	134.37	     3	
133.95	  0.25	  0.60	134.55	     3	
133.97	  0.25	  0.60	134.57	     3	
133.98	  0.25	  0.60	134.58	     3	
134.01	  0.25	  0.60	134.61	     3	
134.04	  0.25	  0.60	134.64	     3	
134.09	  0.25	  0.60	134.69	     3	
134.15	  0.25	  0.60	134.75	     3	
134.23	  0.25	  0.60	134.83	     3	
134.27	  0.25	  0.60	134.87	     3	
134.52	  0.25	  0.60	135.12	     3	
134.62	  0.25	  0.60	135.22	     3	
134.68	  0.25	  0.60	135.28	     3	
134.68	  0.25	  0.60	135.28	     3	
134.75	  0.25	  0.60	135.35	     3	
134.76	  0.25	  0.60	135.36	     3	
134.84	  0.25	  0.60	135.44	     3	
134.91	  0.25	  0.60	135.51	     3	
135.01	  0.25	  0.60	135.61	     3	
135.08	  0.25	  0.60	135.68	     3	
135.33	  0.25	  0.60	135.93	     3	
135.37	  0.25	  0.60	135.97	     3	
135.53	  0.25	  0.60	136.13	     3	
135.57	  0.25	  0.60	136.17	     3	
135.59	  0.25	  0.60	136.19	     3	
135.61	  0.25	  0.60	136.21	     3	
135.64	  0.25	  0.60	136.24	     3	
135.75	  0.25	  0.60	136.35	     3	
135.84	  0.25	  0.60	136.44	     3	
135.95	  0.25	  0.60	136.55	     3	
135.96	  0.25	  0.60	136.56	     3	
135.97	  0.25	  0.60	136.57	     3	
136.01	  0.25	  0.60	136.61	     3	
136.03	  0.25	  0.60	136.63	     3	
136.25	  0.25	  0.60	136.85	     3	
136.37	  0.25	  0.60	136.97	     3	
136.49	  0.25	  0.60	137.09	     3	
136.54	  0.25	  0.60	137.14	     3	
136.62	  0.25	  0.60	137.22	     3	
136.76	  0.25	  0.60	137.36	     3	
136.77	  0.25	  0.60	137.37	     3	
136.80	  0.25	  0.60	137.40	     3	
136.82	  0.25	  0.60	137.42	     3	
136.96	  0.25	  0.60	137.56	     3	
136.96	  0.25	  0.60	137.56	     3	
137.03	  0.25	  0.60	137.63	     3	
137.17	  0.25	  0.60	137.77	     3	
137.27	  0.25	  0.60	137.87	     3	
137.52	  0.25	  0.60	138.12	     3	
137.64	  0.25	  0.60	138.24	     3	
137.74	  0.25	  0.60	138.34	     3	
137.77	  0.25	  0.60	138.37	     3	
137.82	  0.25	  0.60	138.42	     3	
137.88	  0.25	  0.60	138.48	     3	
138.10	  0.25	  0.60	138.70	     3	
138.17	  0.25	  0.60	138.77	     3	
138.30	  0.25	  0.60	138.90	     3	
138.49	  0.25	  0.60	139.09	     3	
138.51	  0.25	  0.60	139.11	     3	
138.54	  0.25	  0.60	139.14	     3	
138.55	  0.25	  0.60	139.15	     3	
138.77	  0.25	  0.60	139.37	     3	
138.88	  0.25	  0.60	139.48	     3	
139.00	  0.25	  0.60	139.60	     3	
139.03	  0.25	  0.60	139.63	     3	
139.19	  0.25	  0.60	139.79	     3	
139.39	  0.25	  0.60	139.99	     3	
139.44	  0.25	  0.60	140.04	     3	
139.47	  0.25	  0.60	140.07	     3	
139.52	  0.25	  0.60	140.12	     3	
139.67	  0.25	  0.60	140.27	     3	
140.01	  0.25	  0.60	140.61	     3	
140.04	  0.25	  0.60	140.64	     3	
140.10	  0.25	  0.60	140.70	     3	
140.18	  0.25	  0.60	140.78	     3	
140.27	  0.25	  0.60	140.87	     3	
140.45	  0.25	  0.60	141.05	     3	
140.50	  0.25	  0.60	141.10	     3	
140.60	  0.25	  0.60	141.20	     3	
140.67	  0.25	  0.60	141.27	     3	
140.86	  0.25	  0.60	141.46	     3	
140.99	  0.25	  0.60	141.59	     3	
141.01	  0.25	  0.60	141.61	     3	
141.12	  0.25	  0.60	141.72	     3	
141.23	  0.25	  0.60	141.83	     3	
141.62	  0.25	  0.60	142.22	     3	
141.68	  0.25	  0.60	142.28	     3	
141.73	  0.25	  0.60	142.33	     3	
141.93	  0.25	  0.60	142.53	     3	
142.02	  0.25	  0.60	142.62	     3	
142.08	  0.25	  0.60	142.68	     3	
142.10	  0.25	  0.60	142.70	     3	
142.20	  0.25	  0.60	142.80	     3	
142.28	  0.25	  0.60	142.88	     3	
142.29	  0.25	  0.60	142.89	     3	
142.33	  0.25	  0.60	142.93	     3	
142.45	  0.25	  0.60	143.05	     3	
142.47	  0.25	  0.60	143.07	     3	
142.58	  0.25	  0.60	143.18	     3	
143.10	  0.25	  0.60	143.70	     3	
143.23	  0.25	  0.60	143.83	     3	
143.63	  0.25	  0.60	144.23	     3	
143.64	  0.25	  0.60	144.24	     3	
143.91	  0.25	  0.60	144.51	     3	
143.92	  0.25	  0.60	144.52	     3	
144.10	  0.25	  0.60	144.70	     3	
144.11	  0.25	  0.60	144.71	     3	
144.11	  0.25	  0.60	144.71	     3	
144.13	  0.25	  0.60	144.73	     3	
144.14	  0.25	  0.60	144.74	     3	
144.15	  0.25	  0.60	144.75	     3	
144.27	  0.25	  0.60	144.87	     3	
144.46	  0.25	  0.60	145.06	     3	
144.47	  0.25	  0.60	145.07	     3	
152.64	  0.25	  0.60	153.24	     3	
152.71	  0.25	  0.60	153.31	     3	
152.78	  0.25	  0.60	153.38	     3	
152.87	  0.25	  0.60	153.47	     3	
153.27	  0.25	  0.60	153.87	     3	
153.37	  0.25	  0.60	153.97	     3	
153.39	  0.25	  0.60	153.99	     3	
153.42	  0.25	  0.60	154.02	     3	
153.65	  0.25	  0.60	154.25	     3	
153.79	  0.25	  0.60	154.39	     3	
153.89	  0.25	  0.60	154.49	     3	
153.97	  0.25	  0.60	154.57	     3	
154.11	  0.25	  0.60	154.71	     3	
154.16	  0.25	  0.60	154.76	     3	
154.19	  0.25	  0.60	154.79	     3	
154.38	  0.25	  0.60	154.98	     3	
154.44	  0.25	  0.60	155.04	     3	
154.68	  0.25	  0.60	155.28	     3	
154.75	  0.25	  0.60	155.35	     3	
154.76	  0.25	  0.60	155.36	     3	
154.93	  0.25	  0.60	155.53	     3	
154.93	  0.25	  0.60	155.53	     3	
154.95	  0.25	  0.60	155.55	     3	
155.12	  0.25	  0.60	155.72	     3	
155.15	  0.25	  0.60	155.75	     3	
155.21	  0.25	  0.60	155.81	     3	
155.21	  0.25	  0.60	155.81	     3	
155.25	  0.25	  0.60	155.85	     3	
155.26	  0.25	  0.60	155.86	     3	
155.28	  0.25	  0.60	155.88	     3	
155.34	  0.25	  0.60	155.94	     3	
155.42	  0.25	  0.60	156.02	     3	
155.46	  0.25	  0.60	156.06	     3	
155.63	  0.25	  0.60	156.23	     3	
155.70	  0.25	  0.60	156.30	     3	
155.75	  0.25	  0.60	156.35	     3	
155.81	  0.25	  0.60	156.41	     3	
155.83	  0.25	  0.60	156.43	     3	
155.89	  0.25	  0.60	156.49	     3	
156.02	  0.25	  0.60	156.62	     3	
156.03	  0.25	  0.60	156.63	     3	
156.06	  0.25	  0.60	156.66	     3	
156.17	  0.25	  0.60	156.77	     3	
156.31	  0.25	  0.60	156.91	     3	
156.38	  0.25	  0.60	156.98	     3	
156.49	  0.25	  0.60	157.09	     3	
156.78	  0.25	  0.60	157.38	     3	
156.79	  0.25	  0.60	157.39	     3	
156.93	  0.25	  0.60	157.53	     3	
157.08	  0.25	  0.60	157.68	     3	
157.12	  0.25	  0.60	157.72	     3	
157.16	  0.25	  0.60	157.76	     3	
157.20	  0.25	  0.60	157.80	     3	
157.30	  0.25	  0.60	157.90	     3	
157.31	  0.25	  0.60	157.91	     3	
157.36	  0.25	  0.60	157.96	     3	
157.41	  0.25	  0.60	158.01	     3	
157.58	  0.25	  0.60	158.18	     3	
157.59	  0.25	  0.60	158.19	     3	
157.66	  0.25	  0.60	158.26	     3	
157.67	  0.25	  0.60	158.27	     3	
157.69	  0.25	  0.60	158.29	     3	
157.78	  0.25	  0.60	158.38	     3	
157.83	  0.25	  0.60	158.43	     3	
158.00	  0.25	  0.60	158.60	     3	
158.35	  0.25	  0.60	158.95	     3	
158.52	  0.25	  0.60	159.12	     3	
158.52	  0.25	  0.60	159.12	     3	
158.58	  0.25	  0.60	159.18	     3	
158.64	  0.25	  0.60	159.24	     3	
158.75	  0.25	  0.60	159.35	     3	
158.76	  0.25	  0.60	159.36	     3	
158.86	  0.25	  0.60	159.46	     3	
158.91	  0.25	  0.60	159.51	     3	
159.02	  0.25	  0.60	159.62	     3	
159.20	  0.25	  0.60	159.80	     3	
159.31	  0.25	  0.60	159.91	     3	
159.44	  0.25	  0.60	160.04	     3	
159.45	  0.25	  0.60	160.05	     3	
159.47	  0.25	  0.60	160.07	     3	
159.53	  0.25	  0.60	160.13	     3	
159.60	  0.25	  0.60	160.20	     3	
159.79	  0.25	  0.60	160.39	     3	
159.81	  0.25	  0.60	160.41	     3	
159.85	  0.25	  0.60	160.45	     3	
159.93	  0.25	  0.60	160.53	     3	
159.93	  0.25	  0.60	160.53	     3	
160.03	  0.25	  0.60	160.63	     3	
160.21	  0.25	  0.60	160.81	     3	
160.54	  0.25	  0.60	161.14	     3	
160.65	  0.25	  0.60	161.25	     3	
160.72	  0.25	  0.60	161.32	     3	
160.89	  0.25	  0.60	161.49	     3	
160.92	  0.25	  0.60	161.52	     3	
160.95	  0.25	  0.60	161.55	     3	
161.05	  0.25	  0.60	161.65	     3	
161.11	  0.25	  0.60	161.71	     3	
161.21	  0.25	  0.60	161.81	     3	
161.27	  0.25	  0.60	161.87	     3	
161.35	  0.25	  0.60	161.95	     3	
161.38	  0.25	  0.60	161.98	     3	
161.57	  0.25	  0.60	162.17	     3	
161.60	  0.25	  0.60	162.20	     3	
161.60	  0.25	  0.60	162.20	     3	
161.71	  0.25	  0.60	162.31	     3	
161.76	  0.25	  0.60	162.36	     3	
161.76	  0.25	  0.60	162.36	     3	
162.02	  0.25	  0.60	162.62	     3	
162.04	  0.25	  0.60	162.64	     3	
162.17	  0.25	  0.60	162.77	     3	
162.26	  0.25	  0.60	162.86	     3	
162.47	  0.25	  0.60	163.07	     3	
162.57	  0.25	  0.60	163.17	     3	
162.84	  0.25	  0.60	163.44	     3	
162.85	  0.25	  0.60	163.45	     3	
162.91	  0.25	  0.60	163.51	     3	
162.91	  0.25	  0.60	163.51	     3	
162.99	  0.25	  0.60	163.59	     3	
162.99	  0.25	  0.60	163.59	     3	
163.13	  0.25	  0.60	163.73	     3	
163.61	  0.25	  0.60	164.21	     3	
163.77	  0.25	  0.60	164.37	     3	
163.94	  0.25	  0.60	164.54	     3	
163.95	  0.25	  0.60	164.55	     3	
163.95	  0.25	  0.60	164.55	     3	
164.16	  0.25	  0.60	164.76	     3	
164.21	  0.25	  0.60	164.81	     3	
164.42	  0.25	  0.60	165.02	     3	
164.46	  0.25	  0.60	165.06	     3	
164.93	  0.25	  0.60	165.53	     3	
164.95	  0.25	  0.60	165.55	     3	
165.03	  0.25	  0.60	165.63	     3	
165.04	  0.25	  0.60	165.64	     3	
165.09	  0.25	  0.60	165.69	     3	
165.34	  0.25	  0.60	165.94	     3	
165.41	  0.25	  0.60	166.01	     3	
165.91	  0.25	  0.60	166.51	     3	
166.03	  0.25	  0.60	166.63	     3	
166.61	  0.25	  0.60	167.21	     3	
166.62	  0.25	  0.60	167.22	     3	
166.94	  0.25	  0.60	167.54	     3	
167.15	  0.25	  0.60	167.75	     3	
167.18	  0.25	  0.60	167.78	     3	
167.20	  0.25	  0.60	167.80	     3	
167.32	  0.25	  0.60	167.92	     3	
167.38	  0.25	  0.60	167.98	     3	
167.46	  0.25	  0.60	168.06	     3	
167.80	  0.25	  0.60	168.40	     3	
167.84	  0.25	  0.60	168.44	     3	
167.90	  0.25	  0.60	168.50	     3	
167.97	  0.25	  0.60	168.57	     3	
168.09	  0.25	  0.60	168.69	     3	
168.25	  0.25	  0.60	168.85	     3	
168.25	  0.25	  0.60	168.85	     3	
168.33	  0.25	  0.60	168.93	     3	
