  0.00	  0.04	
  0.25	  0.04	
  0.50	  0.04	
  0.75	  0.04	
  1.00	  0.04	
  1.25	  0.04	
  1.50	  0.04	
  1.75	  0.04	
  2.00	  0.04	
  2.25	  0.04	
  2.50	  0.04	
  2.75	  0.04	
  3.00	  0.04	
  3.25	  0.04	
  3.50	  0.04	
  3.75	  0.04	
  4.00	  0.04	
  4.25	  0.04	
  4.50	  0.04	
  4.75	  0.04	
  5.00	  0.04	
  5.25	  0.04	
  5.50	  0.04	
  5.75	  0.04	
  6.00	  0.08	
  6.25	  0.33	
  6.50	  0.42	
  6.75	  0.48	
  7.00	  0.69	
  7.25	  0.95	
  7.50	  1.07	
  7.75	  1.21	
  8.00	  1.10	
  8.25	  1.38	
  8.50	  1.56	
  8.75	  1.25	
  9.00	  0.81	
  9.25	  0.67	
  9.50	  0.67	
  9.75	  0.64	
 10.00	  0.37	
 10.25	  0.32	
 10.50	  0.26	
 10.75	  0.08	
 11.00	  0.12	
 11.25	  0.24	
 11.50	  0.30	
 11.75	  0.12	
 12.00	  0.09	
 12.25	  0.09	
 12.50	  0.05	
 12.75	  0.04	
 13.00	  0.04	
 13.25	  0.04	
 13.50	  0.04	
 13.75	  0.04	
 14.00	  0.10	
 14.25	  0.11	
 14.50	  0.11	
 14.75	  0.11	
 15.00	  0.11	
 15.25	  0.11	
 15.50	  0.11	
 15.75	  0.11	
 16.00	  0.20	
 16.25	  0.23	
 16.50	  0.08	
 16.75	  0.04	
 17.00	  0.04	
 17.25	  0.12	
 17.50	  0.16	
 17.75	  0.16	
 18.00	  0.16	
 18.25	  0.26	
 18.50	  0.28	
 18.75	  0.17	
 19.00	  0.44	
 19.25	  0.50	
 19.50	  0.62	
 19.75	  0.62	
 20.00	  0.56	
 20.25	  0.56	
 20.50	  0.58	
 20.75	  0.57	
 21.00	  0.58	
 21.25	  0.50	
 21.50	  0.52	
 21.75	  0.46	
 22.00	  0.48	
 22.25	  0.26	
 22.50	  0.24	
 22.75	  0.35	
 23.00	  0.24	
 23.25	  0.32	
 23.50	  0.34	
 23.75	  0.34	
 24.00	  0.26	
 24.25	  0.21	
 24.50	  0.21	
 24.75	  0.21	
 25.00	  0.15	
 25.25	  0.14	
 25.50	  0.12	
 25.75	  0.04	
 26.00	  0.04	
 26.25	  0.04	
 26.50	  0.04	
 26.75	  0.04	
 27.00	  0.04	
 27.25	  0.04	
 27.50	  0.04	
 27.75	  0.04	
 28.00	  0.04	
 28.25	  0.04	
 28.50	  0.04	
 28.75	  0.04	
 29.00	  0.04	
 29.25	  0.04	
 29.50	  0.04	
 29.75	  0.04	
 30.00	  0.04	
 30.25	  0.11	
 30.50	  0.17	
 30.75	  0.13	
 31.00	  0.35	
 31.25	  0.88	
 31.50	  1.24	
 31.75	  1.30	
 32.00	  1.24	
 32.25	  1.05	
 32.50	  1.48	
 32.75	  1.50	
 33.00	  1.49	
 33.25	  1.44	
 33.50	  1.34	
 33.75	  1.07	
 34.00	  0.80	
 34.25	  0.51	
 34.50	  0.36	
 34.75	  0.28	
 35.00	  0.19	
 35.25	  0.15	
 35.50	  0.12	
 35.75	  0.14	
 36.00	  0.04	
 36.25	  0.04	
 36.50	  0.04	
 36.75	  0.04	
 37.00	  0.04	
 37.25	  0.04	
 37.50	  0.06	
 37.75	  0.22	
 38.00	  0.28	
 38.25	  0.28	
 38.50	  0.28	
 38.75	  0.28	
 39.00	  0.28	
 39.25	  0.28	
 39.50	  0.28	
 39.75	  0.14	
 40.00	  0.04	
 40.25	  0.04	
 40.50	  0.12	
 40.75	  0.16	
 41.00	  0.18	
 41.25	  0.29	
 41.50	  0.22	
 41.75	  0.22	
 42.00	  0.19	
 42.25	  0.14	
 42.50	  0.14	
 42.75	  0.11	
 43.00	  0.19	
 43.25	  0.41	
 43.50	  0.62	
 43.75	  0.67	
 44.00	  0.77	
 44.25	  0.66	
 44.50	  0.66	
 44.75	  0.63	
 45.00	  0.84	
 45.25	  0.96	
 45.50	  0.66	
 45.75	  0.65	
 46.00	  0.65	
 46.25	  0.58	
 46.50	  0.58	
 46.75	  0.66	
 47.00	  0.82	
 47.25	  0.83	
 47.50	  0.71	
 47.75	  0.59	
 48.00	  0.26	
 48.25	  0.17	
 48.50	  0.17	
 48.75	  0.15	
 49.00	  0.04	
 49.25	  0.04	
 49.50	  0.04	
 49.75	  0.04	
 50.00	  0.04	
 50.25	  0.04	
 50.50	  0.04	
 50.75	  0.04	
 51.00	  0.04	
 51.25	  0.04	
 51.50	  0.04	
 51.75	  0.04	
 52.00	  0.04	
 52.25	  0.04	
 52.50	  0.04	
 52.75	  0.04	
 53.00	  0.04	
 53.25	  0.04	
 53.50	  0.04	
 53.75	  0.04	
 54.00	  0.07	
 54.25	  0.08	
 54.50	  0.20	
 54.75	  0.46	
 55.00	  0.67	
 55.25	  0.69	
 55.50	  0.80	
 55.75	  0.88	
 56.00	  0.84	
 56.25	  1.20	
 56.50	  1.50	
 56.75	  1.21	
 57.00	  1.18	
 57.25	  1.20	
 57.50	  1.08	
 57.75	  1.08	
 58.00	  0.67	
 58.25	  0.51	
 58.50	  0.34	
 58.75	  0.23	
 59.00	  0.09	
 59.25	  0.04	
 59.50	  0.04	
 59.75	  0.04	
 60.00	  0.04	
 60.25	  0.04	
 60.50	  0.06	
 60.75	  0.22	
 61.00	  0.22	
 61.25	  0.22	
 61.50	  0.22	
 61.75	  0.22	
 62.00	  0.17	
 62.25	  0.04	
 62.50	  0.04	
 62.75	  0.04	
 63.00	  0.04	
 63.25	  0.04	
 63.50	  0.19	
 63.75	  0.25	
 64.00	  0.26	
 64.25	  0.26	
 64.50	  0.26	
 64.75	  0.26	
 65.00	  0.22	
 65.25	  0.23	
 65.50	  0.27	
 65.75	  0.21	
 66.00	  0.20	
 66.25	  0.17	
 66.50	  0.04	
 66.75	  0.04	
 67.00	  0.10	
 67.25	  0.15	
 67.50	  0.21	
 67.75	  0.27	
 68.00	  0.22	
 68.25	  0.38	
 68.50	  0.57	
 68.75	  0.62	
 69.00	  0.56	
 69.25	  0.64	
 69.50	  0.44	
 69.75	  0.31	
 70.00	  0.23	
 70.25	  0.25	
 70.50	  0.24	
 70.75	  0.20	
 71.00	  0.20	
 71.25	  0.20	
 71.50	  0.20	
 71.75	  0.20	
 72.00	  0.20	
 72.25	  0.20	
 72.50	  0.20	
 72.75	  0.06	
 73.00	  0.04	
 73.25	  0.04	
 73.50	  0.04	
 73.75	  0.04	
 74.00	  0.04	
 74.25	  0.04	
 74.50	  0.04	
 74.75	  0.04	
 75.00	  0.04	
 75.25	  0.04	
 75.50	  0.04	
 75.75	  0.04	
 76.00	  0.04	
 76.25	  0.04	
 76.50	  0.04	
 76.75	  0.04	
 77.00	  0.04	
 77.25	  0.04	
 77.50	  0.04	
 77.75	  0.04	
 78.00	  0.04	
 78.25	  0.15	
 78.50	  0.33	
 78.75	  0.62	
 79.00	  0.83	
 79.25	  1.08	
 79.50	  1.12	
 79.75	  1.19	
 80.00	  1.20	
 80.25	  1.56	
 80.50	  1.59	
 80.75	  1.71	
 81.00	  1.73	
 81.25	  1.68	
 81.50	  1.04	
 81.75	  0.60	
 82.00	  0.43	
 82.25	  0.29	
 82.50	  0.21	
 82.75	  0.12	
 83.00	  0.11	
 83.25	  0.18	
 83.50	  0.30	
 83.75	  0.30	
 84.00	  0.30	
 84.25	  0.30	
 84.50	  0.50	
 84.75	  0.59	
 85.00	  0.59	
 85.25	  0.59	
 85.50	  0.45	
 85.75	  0.33	
 86.00	  0.37	
 86.25	  0.41	
 86.50	  0.41	
 86.75	  0.32	
 87.00	  0.11	
 87.25	  0.11	
 87.50	  0.18	
 87.75	  0.23	
 88.00	  0.23	
 88.25	  0.31	
 88.50	  0.35	
 88.75	  0.35	
 89.00	  0.29	
 89.25	  0.27	
 89.50	  0.27	
 89.75	  0.27	
 90.00	  0.27	
 90.25	  0.18	
 90.50	  0.15	
 90.75	  0.15	
 91.00	  0.17	
 91.25	  0.20	
 91.50	  0.48	
 91.75	  0.52	
 92.00	  0.73	
 92.25	  0.77	
 92.50	  0.84	
 92.75	  0.85	
 93.00	  0.87	
 93.25	  0.98	
 93.50	  1.04	
 93.75	  0.79	
 94.00	  0.62	
 94.25	  0.28	
 94.50	  0.18	
 94.75	  0.13	
 95.00	  0.11	
 95.25	  0.04	
 95.50	  0.04	
 95.75	  0.04	
 96.00	  0.04	
 96.25	  0.04	
 96.50	  0.04	
 96.75	  0.04	
 97.00	  0.04	
 97.25	  0.04	
 97.50	  0.04	
 97.75	  0.04	
 98.00	  0.04	
 98.25	  0.04	
 98.50	  0.04	
 98.75	  0.04	
 99.00	  0.04	
 99.25	  0.04	
 99.50	  0.04	
 99.75	  0.04	
100.00	  0.04	
100.25	  0.04	
100.50	  0.04	
100.75	  0.04	
101.00	  0.04	
101.25	  0.04	
101.50	  0.04	
101.75	  0.04	
102.00	  0.18	
102.25	  0.81	
102.50	  0.95	
102.75	  1.02	
103.00	  1.37	
103.25	  1.56	
103.50	  1.73	
103.75	  1.54	
104.00	  1.69	
104.25	  1.73	
104.50	  1.60	
104.75	  1.73	
105.00	  1.53	
105.25	  1.41	
105.50	  1.22	
105.75	  1.18	
106.00	  0.98	
106.25	  0.67	
106.50	  0.44	
106.75	  0.36	
107.00	  0.30	
107.25	  0.24	
107.50	  0.13	
107.75	  0.13	
108.00	  0.13	
108.25	  0.14	
108.50	  0.20	
108.75	  0.16	
109.00	  0.15	
109.25	  0.13	
109.50	  0.15	
109.75	  0.33	
110.00	  0.37	
110.25	  0.36	
110.50	  0.43	
110.75	  0.45	
111.00	  0.51	
111.25	  0.51	
111.50	  0.51	
111.75	  0.56	
112.00	  0.61	
112.25	  0.45	
112.50	  0.45	
112.75	  0.60	
113.00	  0.55	
113.25	  0.50	
113.50	  0.42	
113.75	  0.33	
114.00	  0.33	
114.25	  0.29	
114.50	  0.22	
114.75	  0.11	
115.00	  0.08	
115.25	  0.22	
115.50	  0.25	
115.75	  0.25	
116.00	  0.28	
116.25	  0.57	
116.50	  0.63	
116.75	  0.63	
117.00	  0.67	
117.25	  0.59	
117.50	  0.59	
117.75	  0.56	
118.00	  0.50	
118.25	  0.42	
118.50	  0.39	
118.75	  0.11	
119.00	  0.11	
119.25	  0.24	
119.50	  0.24	
119.75	  0.24	
120.00	  0.24	
120.25	  0.24	
120.50	  0.24	
120.75	  0.24	
121.00	  0.24	
121.25	  0.24	
121.50	  0.07	
121.75	  0.04	
122.00	  0.04	
122.25	  0.04	
122.50	  0.04	
122.75	  0.04	
123.00	  0.04	
123.25	  0.04	
123.50	  0.04	
123.75	  0.04	
124.00	  0.04	
124.25	  0.04	
124.50	  0.04	
124.75	  0.04	
125.00	  0.04	
125.25	  0.04	
125.50	  0.04	
125.75	  0.04	
126.00	  0.04	
126.25	  0.12	
126.50	  0.47	
126.75	  0.79	
127.00	  1.07	
127.25	  1.37	
127.50	  1.67	
127.75	  1.79	
128.00	  1.71	
128.25	  1.88	
128.50	  2.05	
128.75	  2.03	
129.00	  1.63	
129.25	  1.46	
129.50	  1.11	
129.75	  1.06	
130.00	  0.78	
130.25	  0.44	
130.50	  0.34	
130.75	  0.34	
131.00	  0.34	
131.25	  0.16	
131.50	  0.15	
131.75	  0.11	
132.00	  0.04	
132.25	  0.04	
132.50	  0.04	
132.75	  0.04	
133.00	  0.04	
133.25	  0.04	
133.50	  0.04	
133.75	  0.04	
134.00	  0.04	
134.25	  0.04	
134.50	  0.04	
134.75	  0.04	
135.00	  0.10	
135.25	  0.14	
135.50	  0.14	
135.75	  0.14	
136.00	  0.22	
136.25	  0.26	
136.50	  0.33	
136.75	  0.37	
137.00	  0.30	
137.25	  0.24	
137.50	  0.17	
137.75	  0.10	
138.00	  0.18	
138.25	  0.23	
138.50	  0.23	
138.75	  0.11	
139.00	  0.04	
139.25	  0.04	
139.50	  0.04	
139.75	  0.04	
140.00	  0.06	
140.25	  0.08	
140.50	  0.08	
140.75	  0.16	
141.00	  0.30	
141.25	  0.41	
141.50	  0.49	
141.75	  0.49	
142.00	  0.35	
142.25	  0.30	
142.50	  0.23	
142.75	  0.22	
143.00	  0.20	
143.25	  0.20	
143.50	  0.20	
143.75	  0.11	
144.00	  0.04	
144.25	  0.04	
144.50	  0.04	
144.75	  0.04	
145.00	  0.04	
145.25	  0.04	
145.50	  0.04	
145.75	  0.04	
146.00	  0.04	
146.25	  0.04	
146.50	  0.04	
146.75	  0.04	
147.00	  0.04	
147.25	  0.04	
147.50	  0.04	
147.75	  0.04	
148.00	  0.04	
148.25	  0.04	
148.50	  0.04	
148.75	  0.04	
149.00	  0.04	
149.25	  0.04	
149.50	  0.04	
149.75	  0.04	
150.00	  0.04	
150.25	  0.05	
150.50	  0.19	
150.75	  0.36	
151.00	  0.48	
151.25	  0.74	
151.50	  0.98	
151.75	  1.21	
152.00	  1.43	
152.25	  1.42	
152.50	  1.59	
152.75	  1.42	
153.00	  1.35	
153.25	  1.25	
153.50	  0.91	
153.75	  0.84	
154.00	  0.62	
154.25	  0.48	
154.50	  0.42	
154.75	  0.23	
155.00	  0.23	
155.25	  0.13	
155.50	  0.05	
155.75	  0.04	
156.00	  0.04	
156.25	  0.04	
156.50	  0.04	
156.75	  0.04	
157.00	  0.04	
157.25	  0.04	
157.50	  0.04	
157.75	  0.04	
158.00	  0.04	
158.25	  0.04	
158.50	  0.04	
158.75	  0.04	
159.00	  0.04	
159.25	  0.04	
159.50	  0.04	
159.75	  0.04	
160.00	  0.04	
160.25	  0.04	
160.50	  0.04	
160.75	  0.04	
161.00	  0.04	
161.25	  0.04	
161.50	  0.04	
161.75	  0.04	
162.00	  0.04	
162.25	  0.04	
162.50	  0.04	
162.75	  0.04	
163.00	  0.04	
163.25	  0.08	
163.50	  0.42	
163.75	  0.41	
164.00	  0.56	
164.25	  0.58	
164.50	  0.64	
164.75	  0.74	
165.00	  0.86	
165.25	  1.00	
165.50	  0.78	
165.75	  0.69	
166.00	  0.57	
166.25	  0.53	
166.50	  0.53	
166.75	  0.53	
167.00	  0.45	
167.25	  0.44	
167.50	  0.44	
167.75	  0.38	
168.00	  0.10	
