  8.86	  0.25	  0.60	  9.46	     3	
  9.37	  0.25	  0.60	  9.97	     3	
  9.47	  0.25	  0.60	 10.07	     3	
  9.63	  0.25	  0.60	 10.23	     3	
  9.78	  0.25	  0.60	 10.38	     3	
 10.07	  0.25	  0.60	 10.67	     3	
 10.07	  0.25	  0.60	 10.67	     3	
 10.39	  0.25	  0.60	 10.99	     3	
 11.22	  0.25	  0.60	 11.82	     3	
 11.55	  0.25	  0.60	 12.15	     3	
 11.62	  0.25	  0.60	 12.22	     3	
 12.06	  0.25	  0.60	 12.66	     3	
 12.18	  0.25	  0.60	 12.78	     3	
 12.48	  0.25	  0.60	 13.08	     3	
 12.79	  0.25	  0.60	 13.39	     3	
 13.31	  0.25	  0.60	 13.91	     3	
 13.43	  0.25	  0.60	 14.03	     3	
 13.92	  0.25	  0.60	 14.52	     3	
 14.40	  0.25	  0.60	 15.00	     3	
 15.02	  0.25	  0.60	 15.62	     3	
 15.13	  0.25	  0.60	 15.73	     3	
 15.53	  0.25	  0.60	 16.13	     3	
 15.93	  0.25	  0.60	 16.53	     3	
 16.26	  0.25	  0.60	 16.86	     3	
 16.96	  0.25	  0.60	 17.56	     3	
 17.11	  0.25	  0.60	 17.71	     3	
 19.57	  0.25	  0.60	 20.17	     3	
 19.88	  0.25	  0.60	 20.48	     3	
 20.61	  0.25	  0.60	 21.21	     3	
 20.62	  0.25	  0.60	 21.22	     3	
 20.91	  0.25	  0.60	 21.51	     3	
 21.66	  0.25	  0.60	 22.26	     3	
 21.78	  0.25	  0.60	 22.38	     3	
 21.99	  0.25	  0.60	 22.59	     3	
 23.92	  0.25	  0.60	 24.52	     3	
 24.47	  0.25	  0.60	 25.07	     3	
 32.50	  0.25	  0.60	 33.10	     3	
 32.81	  0.25	  0.60	 33.41	     3	
 32.91	  0.25	  0.60	 33.51	     3	
 32.91	  0.25	  0.60	 33.51	     3	
 33.16	  0.25	  0.60	 33.76	     3	
 33.69	  0.25	  0.60	 34.29	     3	
 33.84	  0.25	  0.60	 34.44	     3	
 34.69	  0.25	  0.60	 35.29	     3	
 34.98	  0.25	  0.60	 35.58	     3	
 35.13	  0.25	  0.60	 35.73	     3	
 35.28	  0.25	  0.60	 35.88	     3	
 35.58	  0.25	  0.60	 36.18	     3	
 35.84	  0.25	  0.60	 36.44	     3	
 38.46	  0.25	  0.60	 39.06	     3	
 38.84	  0.25	  0.60	 39.44	     3	
 39.10	  0.25	  0.60	 39.70	     3	
 40.01	  0.25	  0.60	 40.61	     3	
 40.48	  0.25	  0.60	 41.08	     3	
 41.14	  0.25	  0.60	 41.74	     3	
 41.26	  0.25	  0.60	 41.86	     3	
 41.30	  0.25	  0.60	 41.90	     3	
 41.81	  0.25	  0.60	 42.41	     3	
 42.03	  0.25	  0.60	 42.63	     3	
 42.45	  0.25	  0.60	 43.05	     3	
 42.82	  0.25	  0.60	 43.42	     3	
 42.83	  0.25	  0.60	 43.43	     3	
 43.25	  0.25	  0.60	 43.85	     3	
 44.77	  0.25	  0.60	 45.37	     3	
 45.05	  0.25	  0.60	 45.65	     3	
 45.09	  0.25	  0.60	 45.69	     3	
 45.94	  0.25	  0.60	 46.54	     3	
 46.24	  0.25	  0.60	 46.84	     3	
 46.83	  0.25	  0.60	 47.43	     3	
 46.87	  0.25	  0.60	 47.47	     3	
 47.07	  0.25	  0.60	 47.67	     3	
 48.11	  0.25	  0.60	 48.71	     3	
 56.59	  0.25	  0.60	 57.19	     3	
 56.70	  0.25	  0.60	 57.30	     3	
 57.16	  0.25	  0.60	 57.76	     3	
 57.28	  0.25	  0.60	 57.88	     3	
 57.63	  0.25	  0.60	 58.23	     3	
 57.91	  0.25	  0.60	 58.51	     3	
 58.11	  0.25	  0.60	 58.71	     3	
 58.76	  0.25	  0.60	 59.36	     3	
 58.99	  0.25	  0.60	 59.59	     3	
 59.01	  0.25	  0.60	 59.61	     3	
 59.87	  0.25	  0.60	 60.47	     3	
 59.89	  0.25	  0.60	 60.49	     3	
 60.06	  0.25	  0.60	 60.66	     3	
 60.06	  0.25	  0.60	 60.66	     3	
 60.26	  0.25	  0.60	 60.86	     3	
 60.39	  0.25	  0.60	 60.99	     3	
 60.68	  0.25	  0.60	 61.28	     3	
 61.56	  0.25	  0.60	 62.16	     3	
 61.93	  0.25	  0.60	 62.53	     3	
 62.39	  0.25	  0.60	 62.99	     3	
 63.90	  0.25	  0.60	 64.50	     3	
 64.24	  0.25	  0.60	 64.84	     3	
 64.31	  0.25	  0.60	 64.91	     3	
 64.61	  0.25	  0.60	 65.21	     3	
 66.06	  0.25	  0.60	 66.66	     3	
 66.56	  0.25	  0.60	 67.16	     3	
 66.67	  0.25	  0.60	 67.27	     3	
 67.94	  0.25	  0.60	 68.54	     3	
 68.46	  0.25	  0.60	 69.06	     3	
 68.60	  0.25	  0.60	 69.20	     3	
 68.64	  0.25	  0.60	 69.24	     3	
 69.96	  0.25	  0.60	 70.56	     3	
 69.97	  0.25	  0.60	 70.57	     3	
 70.64	  0.25	  0.60	 71.24	     3	
 71.43	  0.25	  0.60	 72.03	     3	
 71.67	  0.25	  0.60	 72.27	     3	
 71.99	  0.25	  0.60	 72.59	     3	
 72.16	  0.25	  0.60	 72.76	     3	
 80.75	  0.25	  0.60	 81.35	     3	
 82.06	  0.25	  0.60	 82.66	     3	
 82.39	  0.25	  0.60	 82.99	     3	
 83.48	  0.25	  0.60	 84.08	     3	
 83.56	  0.25	  0.60	 84.16	     3	
 84.11	  0.25	  0.60	 84.71	     3	
 84.91	  0.25	  0.60	 85.51	     3	
 84.93	  0.25	  0.60	 85.53	     3	
 85.01	  0.25	  0.60	 85.61	     3	
 86.05	  0.25	  0.60	 86.65	     3	
 86.35	  0.25	  0.60	 86.95	     3	
 86.47	  0.25	  0.60	 87.07	     3	
 86.52	  0.25	  0.60	 87.12	     3	
 86.59	  0.25	  0.60	 87.19	     3	
 86.77	  0.25	  0.60	 87.37	     3	
 86.91	  0.25	  0.60	 87.51	     3	
 87.41	  0.25	  0.60	 88.01	     3	
 87.74	  0.25	  0.60	 88.34	     3	
 87.90	  0.25	  0.60	 88.50	     3	
 89.62	  0.25	  0.60	 90.22	     3	
 91.01	  0.25	  0.60	 91.61	     3	
 91.08	  0.25	  0.60	 91.68	     3	
 91.09	  0.25	  0.60	 91.69	     3	
 91.17	  0.25	  0.60	 91.77	     3	
 91.63	  0.25	  0.60	 92.23	     3	
 91.98	  0.25	  0.60	 92.58	     3	
 92.02	  0.25	  0.60	 92.62	     3	
 92.20	  0.25	  0.60	 92.80	     3	
 92.39	  0.25	  0.60	 92.99	     3	
 92.50	  0.25	  0.60	 93.10	     3	
 92.56	  0.25	  0.60	 93.16	     3	
 92.97	  0.25	  0.60	 93.57	     3	
 93.84	  0.25	  0.60	 94.44	     3	
 93.89	  0.25	  0.60	 94.49	     3	
 94.00	  0.25	  0.60	 94.60	     3	
 94.00	  0.25	  0.60	 94.60	     3	
 94.76	  0.25	  0.60	 95.36	     3	
 94.86	  0.25	  0.60	 95.46	     3	
 96.30	  0.25	  0.60	 96.90	     3	
 96.31	  0.25	  0.60	 96.91	     3	
105.15	  0.25	  0.60	105.75	     3	
105.31	  0.25	  0.60	105.91	     3	
105.94	  0.25	  0.60	106.54	     3	
107.21	  0.25	  0.60	107.81	     3	
107.66	  0.25	  0.60	108.26	     3	
108.12	  0.25	  0.60	108.72	     3	
108.66	  0.25	  0.60	109.26	     3	
108.90	  0.25	  0.60	109.50	     3	
108.95	  0.25	  0.60	109.55	     3	
110.44	  0.25	  0.60	111.04	     3	
110.76	  0.25	  0.60	111.36	     3	
111.47	  0.25	  0.60	112.07	     3	
112.07	  0.25	  0.60	112.67	     3	
112.40	  0.25	  0.60	113.00	     3	
114.17	  0.25	  0.60	114.77	     3	
114.27	  0.25	  0.60	114.87	     3	
114.32	  0.25	  0.60	114.92	     3	
114.47	  0.25	  0.60	115.07	     3	
115.09	  0.25	  0.60	115.69	     3	
115.74	  0.25	  0.60	116.34	     3	
116.06	  0.25	  0.60	116.66	     3	
116.12	  0.25	  0.60	116.72	     3	
116.76	  0.25	  0.60	117.36	     3	
117.38	  0.25	  0.60	117.98	     3	
117.68	  0.25	  0.60	118.28	     3	
117.79	  0.25	  0.60	118.39	     3	
118.02	  0.25	  0.60	118.62	     3	
118.06	  0.25	  0.60	118.66	     3	
118.74	  0.25	  0.60	119.34	     3	
119.19	  0.25	  0.60	119.79	     3	
119.44	  0.25	  0.60	120.04	     3	
128.56	  0.25	  0.60	129.16	     3	
129.13	  0.25	  0.60	129.73	     3	
129.43	  0.25	  0.60	130.03	     3	
129.99	  0.25	  0.60	130.59	     3	
130.29	  0.25	  0.60	130.89	     3	
131.04	  0.25	  0.60	131.64	     3	
132.01	  0.25	  0.60	132.61	     3	
132.14	  0.25	  0.60	132.74	     3	
132.59	  0.25	  0.60	133.19	     3	
132.64	  0.25	  0.60	133.24	     3	
133.06	  0.25	  0.60	133.66	     3	
133.63	  0.25	  0.60	134.23	     3	
133.97	  0.25	  0.60	134.57	     3	
134.15	  0.25	  0.60	134.75	     3	
134.76	  0.25	  0.60	135.36	     3	
134.91	  0.25	  0.60	135.51	     3	
135.33	  0.25	  0.60	135.93	     3	
136.01	  0.25	  0.60	136.61	     3	
136.37	  0.25	  0.60	136.97	     3	
136.49	  0.25	  0.60	137.09	     3	
137.27	  0.25	  0.60	137.87	     3	
137.88	  0.25	  0.60	138.48	     3	
138.17	  0.25	  0.60	138.77	     3	
138.49	  0.25	  0.60	139.09	     3	
140.99	  0.25	  0.60	141.59	     3	
141.62	  0.25	  0.60	142.22	     3	
142.08	  0.25	  0.60	142.68	     3	
142.10	  0.25	  0.60	142.70	     3	
142.29	  0.25	  0.60	142.89	     3	
142.45	  0.25	  0.60	143.05	     3	
143.10	  0.25	  0.60	143.70	     3	
143.23	  0.25	  0.60	143.83	     3	
143.64	  0.25	  0.60	144.24	     3	
143.91	  0.25	  0.60	144.51	     3	
144.11	  0.25	  0.60	144.71	     3	
144.13	  0.25	  0.60	144.73	     3	
144.46	  0.25	  0.60	145.06	     3	
152.64	  0.25	  0.60	153.24	     3	
152.87	  0.25	  0.60	153.47	     3	
154.11	  0.25	  0.60	154.71	     3	
154.19	  0.25	  0.60	154.79	     3	
154.93	  0.25	  0.60	155.53	     3	
154.95	  0.25	  0.60	155.55	     3	
155.42	  0.25	  0.60	156.02	     3	
155.83	  0.25	  0.60	156.43	     3	
156.78	  0.25	  0.60	157.38	     3	
157.20	  0.25	  0.60	157.80	     3	
157.36	  0.25	  0.60	157.96	     3	
157.41	  0.25	  0.60	158.01	     3	
157.58	  0.25	  0.60	158.18	     3	
158.00	  0.25	  0.60	158.60	     3	
158.75	  0.25	  0.60	159.35	     3	
159.47	  0.25	  0.60	160.07	     3	
159.53	  0.25	  0.60	160.13	     3	
159.60	  0.25	  0.60	160.20	     3	
159.81	  0.25	  0.60	160.41	     3	
159.93	  0.25	  0.60	160.53	     3	
160.03	  0.25	  0.60	160.63	     3	
160.21	  0.25	  0.60	160.81	     3	
161.27	  0.25	  0.60	161.87	     3	
161.38	  0.25	  0.60	161.98	     3	
161.60	  0.25	  0.60	162.20	     3	
162.02	  0.25	  0.60	162.62	     3	
162.84	  0.25	  0.60	163.44	     3	
162.99	  0.25	  0.60	163.59	     3	
163.94	  0.25	  0.60	164.54	     3	
165.34	  0.25	  0.60	165.94	     3	
165.41	  0.25	  0.60	166.01	     3	
166.62	  0.25	  0.60	167.22	     3	
167.15	  0.25	  0.60	167.75	     3	
167.18	  0.25	  0.60	167.78	     3	
167.20	  0.25	  0.60	167.80	     3	
167.46	  0.25	  0.60	168.06	     3	
168.25	  0.25	  0.60	168.85	     3	
168.25	  0.25	  0.60	168.85	     3	
