 17.22	  0.28	  1.11	 18.33	     5	
 52.33	  0.22	  2.85	 55.18	     5	
 55.74	  0.24	  0.92	 56.66	     5	
 58.27	  0.23	  2.03	 60.30	     5	
 61.25	  0.12	  1.80	 63.05	     5	
 62.87	  0.17	  0.34	 63.21	     5	
 65.52	  0.18	  2.69	 68.21	     5	
 66.07	  0.13	  3.83	 69.90	     5	
 78.10	  0.27	  0.92	 79.02	     5	
 92.81	  0.14	  2.19	 95.00	     5	
 93.95	  0.14	  0.33	 94.28	     5	
 94.10	  0.23	  3.11	 97.21	     5	
110.74	  0.10	  0.61	111.35	     5	
114.71	  0.13	  2.84	117.56	     5	
117.76	  0.23	  2.64	120.41	     5	
122.62	  0.21	  1.65	124.27	     5	
126.01	  0.12	  3.73	129.74	     5	
152.76	  0.11	  0.60	153.35	     5	
