  0.00	  0.46	
  0.25	  0.46	
  0.50	  0.46	
  0.75	  0.46	
  1.00	  0.46	
  1.25	  0.46	
  1.50	  0.46	
  1.75	  0.46	
  2.00	  0.46	
  2.25	  0.46	
  2.50	  0.46	
  2.75	  0.46	
  3.00	  0.46	
  3.25	  0.46	
  3.50	  0.46	
  3.75	  0.47	
  4.00	  0.72	
  4.25	  0.72	
  4.50	  0.72	
  4.75	  0.72	
  5.00	  0.72	
  5.25	  0.72	
  5.50	  0.72	
  5.75	  0.72	
  6.00	  0.76	
  6.25	  1.19	
  6.50	  1.64	
  6.75	  2.24	
  7.00	  2.71	
  7.25	  3.38	
  7.50	  4.42	
  7.75	  5.02	
  8.00	  6.00	
  8.25	  6.77	
  8.50	  7.52	
  8.75	  7.64	
  9.00	  7.25	
  9.25	  6.49	
  9.50	  6.35	
  9.75	  6.10	
 10.00	  5.01	
 10.25	  7.04	
 10.50	  8.68	
 10.75	  7.52	
 11.00	  7.12	
 11.25	  6.65	
 11.50	  5.53	
 11.75	  4.32	
 12.00	  3.39	
 12.25	  3.07	
 12.50	  3.26	
 12.75	  2.99	
 13.00	  3.09	
 13.25	  2.51	
 13.50	  2.32	
 13.75	  2.68	
 14.00	  1.51	
 14.25	  1.48	
 14.50	  1.85	
 14.75	  2.26	
 15.00	  2.46	
 15.25	  3.11	
 15.50	  3.82	
 15.75	  3.57	
 16.00	  3.34	
 16.25	  3.19	
 16.50	  2.73	
 16.75	  1.93	
 17.00	  2.10	
 17.25	  2.59	
 17.50	  2.74	
 17.75	  3.34	
 18.00	  3.10	
 18.25	  3.12	
 18.50	  2.69	
 18.75	  2.19	
 19.00	  1.95	
 19.25	  2.40	
 19.50	  3.42	
 19.75	  4.48	
 20.00	  4.43	
 20.25	  4.23	
 20.50	  5.56	
 20.75	  6.36	
 21.00	  5.01	
 21.25	  3.86	
 21.50	  4.00	
 21.75	  4.08	
 22.00	  4.56	
 22.25	  3.84	
 22.50	  3.83	
 22.75	  3.49	
 23.00	  2.58	
 23.25	  2.22	
 23.50	  2.88	
 23.75	  3.50	
 24.00	  3.11	
 24.25	  2.91	
 24.50	  2.79	
 24.75	  2.30	
 25.00	  0.84	
 25.25	  0.66	
 25.50	  0.54	
 25.75	  0.46	
 26.00	  0.46	
 26.25	  0.46	
 26.50	  0.46	
 26.75	  0.46	
 27.00	  0.46	
 27.25	  0.46	
 27.50	  0.46	
 27.75	  0.46	
 28.00	  0.46	
 28.25	  0.46	
 28.50	  0.46	
 28.75	  0.46	
 29.00	  0.46	
 29.25	  0.46	
 29.50	  0.46	
 29.75	  0.46	
 30.00	  0.60	
 30.25	  1.13	
 30.50	  3.23	
 30.75	  3.91	
 31.00	  4.90	
 31.25	  6.03	
 31.50	  5.58	
 31.75	  6.13	
 32.00	  6.61	
 32.25	  6.77	
 32.50	  7.49	
 32.75	  8.67	
 33.00	  8.91	
 33.25	  8.49	
 33.50	  6.95	
 33.75	  5.89	
 34.00	  5.39	
 34.25	  5.99	
 34.50	  5.28	
 34.75	  4.52	
 35.00	  3.09	
 35.25	  3.01	
 35.50	  2.52	
 35.75	  1.77	
 36.00	  2.05	
 36.25	  3.95	
 36.50	  4.01	
 36.75	  2.70	
 37.00	  2.30	
 37.25	  2.57	
 37.50	  3.33	
 37.75	  3.08	
 38.00	  2.54	
 38.25	  2.03	
 38.50	  3.61	
 38.75	  5.08	
 39.00	  3.62	
 39.25	  2.32	
 39.50	  1.85	
 39.75	  1.25	
 40.00	  1.55	
 40.25	  1.99	
 40.50	  2.35	
 40.75	  2.61	
 41.00	  2.51	
 41.25	  2.64	
 41.50	  3.72	
 41.75	  4.32	
 42.00	  4.06	
 42.25	  3.78	
 42.50	  3.28	
 42.75	  3.04	
 43.00	  3.52	
 43.25	  4.42	
 43.50	  4.96	
 43.75	  3.37	
 44.00	  2.56	
 44.25	  2.98	
 44.50	  3.50	
 44.75	  4.06	
 45.00	  4.54	
 45.25	  4.67	
 45.50	  4.69	
 45.75	  6.20	
 46.00	  6.23	
 46.25	  4.26	
 46.50	  3.20	
 46.75	  2.89	
 47.00	  3.15	
 47.25	  3.35	
 47.50	  3.34	
 47.75	  3.38	
 48.00	  2.60	
 48.25	  2.47	
 48.50	  1.91	
 48.75	  1.07	
 49.00	  0.48	
 49.25	  0.46	
 49.50	  0.46	
 49.75	  0.46	
 50.00	  0.46	
 50.25	  0.46	
 50.50	  0.46	
 50.75	  0.46	
 51.00	  0.46	
 51.25	  0.46	
 51.50	  0.46	
 51.75	  0.46	
 52.00	  0.46	
 52.25	  0.61	
 52.50	  0.68	
 52.75	  0.68	
 53.00	  0.68	
 53.25	  0.68	
 53.50	  0.73	
 53.75	  2.71	
 54.00	  2.85	
 54.25	  1.33	
 54.50	  1.86	
 54.75	  2.48	
 55.00	  3.12	
 55.25	  3.32	
 55.50	  3.97	
 55.75	  4.56	
 56.00	  4.69	
 56.25	  5.12	
 56.50	  5.75	
 56.75	  6.33	
 57.00	  6.56	
 57.25	  7.02	
 57.50	  6.25	
 57.75	  5.47	
 58.00	  4.51	
 58.25	  4.24	
 58.50	  3.43	
 58.75	  2.60	
 59.00	  3.55	
 59.25	  4.52	
 59.50	  4.15	
 59.75	  3.56	
 60.00	  6.00	
 60.25	  5.63	
 60.50	  5.61	
 60.75	  6.04	
 61.00	  4.51	
 61.25	  3.26	
 61.50	  2.74	
 61.75	  2.39	
 62.00	  2.72	
 62.25	  2.75	
 62.50	  2.96	
 62.75	  3.05	
 63.00	  1.79	
 63.25	  1.34	
 63.50	  1.42	
 63.75	  1.64	
 64.00	  2.04	
 64.25	  3.41	
 64.50	  4.02	
 64.75	  3.71	
 65.00	  3.13	
 65.25	  2.42	
 65.50	  2.42	
 65.75	  2.94	
 66.00	  3.32	
 66.25	  3.23	
 66.50	  2.89	
 66.75	  2.68	
 67.00	  2.27	
 67.25	  2.22	
 67.50	  2.92	
 67.75	  3.80	
 68.00	  4.43	
 68.25	  6.25	
 68.50	  6.82	
 68.75	  6.86	
 69.00	  5.79	
 69.25	  6.11	
 69.50	  9.01	
 69.75	  8.42	
 70.00	  6.26	
 70.25	  5.59	
 70.50	  3.99	
 70.75	  3.34	
 71.00	  3.06	
 71.25	  3.41	
 71.50	  3.64	
 71.75	  3.81	
 72.00	  2.36	
 72.25	  2.23	
 72.50	  1.63	
 72.75	  0.89	
 73.00	  0.46	
 73.25	  0.46	
 73.50	  0.46	
 73.75	  0.46	
 74.00	  0.46	
 74.25	  0.46	
 74.50	  0.61	
 74.75	  0.88	
 75.00	  0.88	
 75.25	  0.87	
 75.50	  0.84	
 75.75	  0.73	
 76.00	  0.68	
 76.25	  0.59	
 76.50	  0.59	
 76.75	  0.59	
 77.00	  0.59	
 77.25	  0.59	
 77.50	  0.64	
 77.75	  1.71	
 78.00	  2.97	
 78.25	  2.79	
 78.50	  2.66	
 78.75	  3.74	
 79.00	  4.18	
 79.25	  4.59	
 79.50	  5.04	
 79.75	  6.35	
 80.00	  9.75	
 80.25	 10.50	
 80.50	 10.72	
 80.75	 11.82	
 81.00	 10.73	
 81.25	  9.53	
 81.50	  8.68	
 81.75	  6.67	
 82.00	  6.58	
 82.25	  6.55	
 82.50	  5.34	
 82.75	  4.80	
 83.00	  2.96	
 83.25	  2.54	
 83.50	  3.01	
 83.75	  2.99	
 84.00	  2.33	
 84.25	  1.85	
 84.50	  2.57	
 84.75	  2.62	
 85.00	  4.61	
 85.25	  4.95	
 85.50	  3.61	
 85.75	  2.64	
 86.00	  2.34	
 86.25	  2.26	
 86.50	  2.60	
 86.75	  2.98	
 87.00	  3.09	
 87.25	  2.86	
 87.50	  2.55	
 87.75	  2.55	
 88.00	  2.42	
 88.25	  3.39	
 88.50	  4.13	
 88.75	  7.28	
 89.00	  5.95	
 89.25	  3.91	
 89.50	  3.98	
 89.75	  2.35	
 90.00	  1.73	
 90.25	  1.50	
 90.50	  1.44	
 90.75	  1.77	
 91.00	  2.65	
 91.25	  3.54	
 91.50	  3.56	
 91.75	  3.59	
 92.00	  4.90	
 92.25	  5.50	
 92.50	  5.64	
 92.75	  4.77	
 93.00	  4.39	
 93.25	  4.34	
 93.50	  4.73	
 93.75	  4.77	
 94.00	  5.33	
 94.25	  4.44	
 94.50	  3.65	
 94.75	  5.23	
 95.00	  5.58	
 95.25	  3.50	
 95.50	  3.18	
 95.75	  3.44	
 96.00	  3.40	
 96.25	  2.90	
 96.50	  2.45	
 96.75	  1.71	
 97.00	  1.29	
 97.25	  1.15	
 97.50	  1.15	
 97.75	  1.15	
 98.00	  0.96	
 98.25	  0.87	
 98.50	  0.98	
 98.75	  1.06	
 99.00	  0.94	
 99.25	  0.83	
 99.50	  0.83	
 99.75	  0.75	
100.00	  0.49	
100.25	  0.46	
100.50	  0.57	
100.75	  0.59	
101.00	  0.59	
101.25	  0.59	
101.50	  0.59	
101.75	  0.59	
102.00	  2.23	
102.25	  3.60	
102.50	  4.41	
102.75	  4.82	
103.00	  4.55	
103.25	  4.77	
103.50	  5.63	
103.75	  5.52	
104.00	  6.27	
104.25	  6.73	
104.50	  7.29	
104.75	  7.83	
105.00	  7.97	
105.25	  7.64	
105.50	  8.32	
105.75	  7.29	
106.00	  6.23	
106.25	  3.14	
106.50	  3.02	
106.75	  3.42	
107.00	  3.33	
107.25	  2.98	
107.50	  2.36	
107.75	  2.45	
108.00	  2.28	
108.25	  2.25	
108.50	  2.29	
108.75	  2.26	
109.00	  2.91	
109.25	  2.95	
109.50	  2.19	
109.75	  2.12	
110.00	  2.27	
110.25	  4.19	
110.50	  4.65	
110.75	  5.78	
111.00	  5.43	
111.25	  3.64	
111.50	  2.01	
111.75	  2.00	
112.00	  2.45	
112.25	  2.95	
112.50	  2.91	
112.75	  2.39	
113.00	  1.77	
113.25	  1.93	
113.50	  1.79	
113.75	  2.36	
114.00	  2.34	
114.25	  2.61	
114.50	  3.36	
114.75	  3.39	
115.00	  2.49	
115.25	  2.91	
115.50	  3.31	
115.75	  2.99	
116.00	  3.44	
116.25	  4.55	
116.50	  5.00	
116.75	  4.71	
117.00	  4.51	
117.25	  4.17	
117.50	  6.72	
117.75	  6.96	
118.00	  4.26	
118.25	  3.28	
118.50	  2.69	
118.75	  2.43	
119.00	  2.64	
119.25	  2.91	
119.50	  3.01	
119.75	  2.55	
120.00	  2.22	
120.25	  2.31	
120.50	  1.93	
120.75	  1.26	
121.00	  0.90	
121.25	  0.80	
121.50	  0.63	
121.75	  0.60	
122.00	  0.76	
122.25	  0.76	
122.50	  0.75	
122.75	  0.85	
123.00	  0.85	
123.25	  0.85	
123.50	  0.90	
123.75	  0.98	
124.00	  0.96	
124.25	  0.76	
124.50	  0.93	
124.75	  1.00	
125.00	  1.00	
125.25	  1.00	
125.50	  1.00	
125.75	  2.14	
126.00	  3.45	
126.25	  2.24	
126.50	  2.27	
126.75	  2.76	
127.00	  3.22	
127.25	  3.90	
127.50	  5.04	
127.75	  5.66	
128.00	  5.94	
128.25	  8.36	
128.50	  9.14	
128.75	  7.47	
129.00	  7.13	
129.25	  6.17	
129.50	  6.10	
129.75	  5.61	
130.00	  4.97	
130.25	  6.08	
130.50	  4.56	
130.75	  2.42	
131.00	  3.01	
131.25	  3.52	
131.50	  3.87	
131.75	  3.24	
132.00	  3.17	
132.25	  3.28	
132.50	  3.01	
132.75	  2.16	
133.00	  2.03	
133.25	  2.22	
133.50	  3.05	
133.75	  3.28	
134.00	  3.60	
134.25	  4.68	
134.50	  5.03	
134.75	  6.04	
135.00	  5.52	
135.25	  3.05	
135.50	  2.91	
135.75	  3.46	
136.00	  3.82	
136.25	  3.25	
136.50	  3.15	
136.75	  4.10	
137.00	  4.22	
137.25	  3.27	
137.50	  2.42	
137.75	  2.68	
138.00	  2.92	
138.25	  2.51	
138.50	  2.64	
138.75	  2.67	
139.00	  2.98	
139.25	  3.38	
139.50	  4.49	
139.75	  5.07	
140.00	  5.11	
140.25	  5.40	
140.50	  4.02	
140.75	  4.02	
141.00	  4.27	
141.25	  3.50	
141.50	  2.65	
141.75	  2.64	
142.00	  2.91	
142.25	  3.47	
142.50	  3.50	
142.75	  2.70	
143.00	  2.07	
143.25	  2.03	
143.50	  1.87	
143.75	  1.78	
144.00	  2.69	
144.25	  3.10	
144.50	  2.74	
144.75	  1.12	
145.00	  0.62	
145.25	  0.49	
145.50	  0.46	
145.75	  0.46	
146.00	  0.46	
146.25	  0.46	
146.50	  0.46	
146.75	  0.46	
147.00	  0.54	
147.25	  0.60	
147.50	  0.47	
147.75	  0.46	
148.00	  0.46	
148.25	  0.46	
148.50	  0.46	
148.75	  0.46	
149.00	  0.46	
149.25	  0.46	
149.50	  1.49	
149.75	  2.30	
150.00	  1.19	
150.25	  0.88	
150.50	  1.38	
150.75	  1.88	
151.00	  2.83	
151.25	  4.01	
151.50	  5.05	
151.75	  6.40	
152.00	  6.71	
152.25	  7.19	
152.50	  8.13	
152.75	  8.35	
153.00	  7.63	
153.25	  7.27	
153.50	  6.60	
153.75	  6.69	
154.00	  5.60	
154.25	  5.88	
154.50	  6.26	
154.75	  3.94	
155.00	  3.91	
155.25	  4.83	
155.50	  4.34	
155.75	  3.84	
156.00	  3.49	
156.25	  2.86	
156.50	  2.41	
156.75	  3.27	
157.00	  3.37	
157.25	  4.09	
157.50	  4.33	
157.75	  3.47	
158.00	  2.98	
158.25	  1.86	
158.50	  2.68	
158.75	  4.18	
159.00	  4.12	
159.25	  2.96	
159.50	  3.05	
159.75	  3.63	
160.00	  3.42	
160.25	  2.67	
160.50	  1.87	
160.75	  3.20	
161.00	  5.61	
161.25	  6.74	
161.50	  6.47	
161.75	  4.46	
162.00	  3.69	
162.25	  2.52	
162.50	  2.29	
162.75	  2.38	
163.00	  3.03	
163.25	  3.01	
163.50	  2.60	
163.75	  2.63	
164.00	  4.02	
164.25	  4.13	
164.50	  3.79	
164.75	  3.51	
165.00	  4.12	
165.25	  4.18	
165.50	  3.40	
165.75	  3.28	
166.00	  3.89	
166.25	  3.37	
166.50	  3.23	
166.75	  2.99	
167.00	  2.54	
167.25	  2.89	
167.50	  2.99	
167.75	  2.61	
168.00	  2.28	
