 10.47	  2.20	
 11.63	  0.01	
 41.56	  2.19	
 42.07	  0.01	
 71.27	  1.30	
 71.97	  0.01	
 79.91	  1.75	
 80.97	  2.77	
 81.06	  1.03	
 81.78	  0.01	
125.87	  1.98	
126.30	  0.01	
139.65	  1.91	
140.52	  0.01	
161.32	  1.02	
162.34	  0.01	
