  6.40	  0.22	
  6.53	  0.39	
  6.58	  0.44	
  6.86	  0.51	
  7.06	  0.54	
  7.23	  0.62	
  7.40	  0.57	
  7.40	  0.73	
  7.46	  0.76	
  7.56	  0.90	
  7.65	  0.95	
  7.67	  1.10	
  7.69	  1.13	
  7.80	  1.23	
  7.83	  1.18	
  7.95	  1.15	
  8.02	  1.33	
  8.10	  1.49	
  8.13	  1.72	
  8.16	  1.81	
  8.20	  1.90	
  8.25	  2.02	
  8.33	  2.09	
  8.44	  2.21	
  8.45	  2.26	
  8.48	  2.40	
  8.49	  2.53	
  8.63	  2.68	
  8.84	  2.56	
  8.86	  2.81	
  8.92	  2.58	
  8.93	  2.44	
  8.94	  2.27	
  8.96	  2.21	
  9.13	  2.26	
  9.13	  2.09	
  9.16	  1.99	
  9.24	  1.94	
  9.27	  1.85	
  9.29	  1.71	
  9.37	  1.96	
  9.45	  1.77	
  9.45	  2.20	
  9.46	  1.95	
  9.47	  2.20	
  9.50	  2.10	
  9.63	  2.35	
  9.74	  2.23	
  9.78	  2.48	
  9.81	  2.41	
  9.97	  2.16	
 10.05	  2.13	
 10.06	  1.70	
 10.07	  1.95	
 10.07	  2.20	
 10.07	  1.95	
 10.16	  1.92	
 10.18	  1.77	
 10.19	  1.70	
 10.23	  1.45	
 10.29	  1.29	
 10.38	  1.04	
 10.39	  1.29	
 10.67	  1.04	
 10.67	  0.79	
 10.69	  0.86	
 10.92	  0.70	
 10.98	  0.61	
 10.99	  0.49	
 10.99	  0.24	
 11.22	  0.49	
 11.23	  0.42	
 11.55	  0.67	
 11.62	  0.92	
 11.74	  1.61	
 11.82	  1.36	
 11.86	  1.47	
 12.06	  1.72	
 12.07	  1.66	
 12.15	  1.41	
 12.18	  1.66	
 12.22	  1.41	
 12.32	  0.73	
 12.48	  0.98	
 12.66	  0.73	
 12.78	  0.48	
 12.79	  0.73	
 13.08	  0.48	
 13.31	  0.73	
 13.39	  0.48	
 13.42	  0.53	
 13.43	  0.78	
 13.74	  0.67	
 13.86	  0.76	
 13.91	  0.51	
 13.92	  0.76	
 13.92	  0.71	
 14.03	  0.46	
 14.40	  0.71	
 14.52	  0.46	
 14.84	  0.60	
 15.00	  0.35	
 15.02	  0.60	
 15.13	  0.85	
 15.39	  1.04	
 15.53	  1.29	
 15.62	  1.04	
 15.73	  0.79	
 15.93	  1.04	
 16.13	  0.79	
 16.15	  0.82	
 16.26	  1.07	
 16.53	  0.98	
 16.53	  0.73	
 16.86	  0.48	
 16.86	  0.34	
 16.96	  0.59	
 17.11	  0.84	
 17.56	  0.59	
 17.71	  0.34	
 17.93	  0.15	
 18.05	  0.30	
 18.57	  0.47	
 19.12	  0.44	
 19.20	  0.64	
 19.57	  0.89	
 19.60	  0.96	
 19.88	  1.21	
 19.98	  1.31	
 20.09	  1.23	
 20.17	  0.98	
 20.41	  1.07	
 20.42	  0.97	
 20.48	  0.72	
 20.61	  0.97	
 20.62	  1.22	
 20.75	  1.07	
 20.84	  1.24	
 20.91	  1.49	
 20.99	  1.32	
 21.21	  1.07	
 21.22	  0.82	
 21.51	  0.57	
 21.66	  0.82	
 21.78	  1.07	
 21.94	  0.88	
 21.99	  1.13	
 22.21	  0.95	
 22.26	  0.70	
 22.38	  0.45	
 22.59	  0.20	
 23.15	  0.11	
 23.31	  0.68	
 23.48	  0.81	
 23.61	  0.68	
 23.92	  0.93	
 24.06	  0.36	
 24.47	  0.61	
 24.52	  0.36	
 25.07	  0.11	
 30.12	  0.27	
 30.22	  0.40	
 30.70	  0.45	
 30.79	  0.54	
 30.93	  0.73	
 30.95	  0.60	
 30.97	  0.73	
 31.05	  0.91	
 31.13	  1.11	
 31.25	  1.24	
 31.32	  1.35	
 31.37	  1.52	
 31.44	  1.60	
 31.44	  1.41	
 31.46	  1.59	
 31.46	  1.72	
 31.48	  1.85	
 31.57	  1.95	
 31.68	  1.82	
 31.76	  1.95	
 31.89	  2.02	
 31.93	  1.94	
 31.95	  2.00	
 32.01	  2.10	
 32.03	  2.02	
 32.04	  2.13	
 32.08	  1.95	
 32.08	  1.76	
 32.09	  1.63	
 32.14	  1.79	
 32.22	  1.94	
 32.26	  2.13	
 32.37	  2.32	
 32.43	  2.38	
 32.45	  2.22	
 32.50	  2.47	
 32.54	  2.67	
 32.56	  2.75	
 32.70	  2.69	
 32.81	  2.94	
 32.84	  2.98	
 32.88	  3.04	
 32.91	  3.29	
 32.91	  3.54	
 33.03	  3.37	
 33.05	  3.26	
 33.10	  3.01	
 33.16	  3.26	
 33.22	  3.18	
 33.34	  3.00	
 33.39	  2.87	
 33.40	  2.77	
 33.41	  2.52	
 33.46	  2.33	
 33.51	  2.08	
 33.51	  1.83	
 33.60	  1.69	
 33.69	  1.94	
 33.76	  1.78	
 33.76	  1.53	
 33.82	  1.33	
 33.84	  1.58	
 33.94	  1.54	
 34.10	  1.47	
 34.17	  1.34	
 34.28	  3.75	
 34.29	  3.50	
 34.30	  3.40	
 34.37	  3.34	
 34.37	  3.20	
 34.44	  2.95	
 34.47	  2.88	
 34.67	  2.78	
 34.69	  3.03	
 34.94	  3.13	
 34.98	  3.38	
 34.98	  3.18	
 35.05	  0.77	
 35.12	  0.67	
 35.13	  0.92	
 35.28	  1.17	
 35.29	  0.92	
 35.49	  0.87	
 35.58	  0.62	
 35.58	  0.87	
 35.73	  0.62	
 35.84	  0.87	
 35.88	  0.62	
 36.18	  0.37	
 36.26	  1.45	
 36.44	  1.20	
 36.50	  1.35	
 36.74	  0.27	
 37.26	  0.12	
 38.46	  0.37	
 38.61	  0.45	
 38.84	  0.70	
 39.06	  0.45	
 39.10	  0.70	
 39.36	  0.85	
 39.44	  0.60	
 39.52	  0.45	
 39.70	  0.20	
 39.83	  0.37	
 40.01	  0.62	
 40.03	  0.45	
 40.46	  0.58	
 40.48	  0.83	
 40.61	  0.58	
 40.62	  0.49	
 40.90	  0.57	
 41.08	  0.32	
 41.14	  0.57	
 41.26	  0.82	
 41.30	  1.07	
 41.74	  0.99	
 41.74	  0.74	
 41.81	  0.99	
 41.86	  0.74	
 41.90	  0.49	
 42.03	  0.74	
 42.04	  1.06	
 42.41	  0.81	
 42.45	  1.06	
 42.54	  0.74	
 42.63	  0.49	
 42.82	  0.74	
 42.83	  0.99	
 43.05	  0.74	
 43.25	  0.99	
 43.42	  0.74	
 43.43	  0.49	
 43.47	  0.62	
 43.69	  0.49	
 43.82	  0.64	
 43.85	  0.39	
 44.08	  0.46	
 44.28	  0.58	
 44.30	  0.62	
 44.55	  0.68	
 44.77	  0.93	
 45.05	  1.18	
 45.09	  1.43	
 45.14	  1.49	
 45.19	  1.67	
 45.37	  1.42	
 45.41	  1.37	
 45.41	  1.48	
 45.49	  1.59	
 45.65	  1.34	
 45.69	  1.09	
 45.71	  1.75	
 45.82	  1.68	
 45.94	  1.93	
 45.98	  1.81	
 46.11	  1.75	
 46.24	  2.00	
 46.28	  1.34	
 46.31	  1.19	
 46.54	  0.94	
 46.65	  0.83	
 46.72	  0.92	
 46.83	  1.17	
 46.84	  0.92	
 46.87	  1.17	
 47.07	  1.42	
 47.26	  1.30	
 47.36	  1.38	
 47.43	  1.13	
 47.47	  0.88	
 47.51	  0.77	
 47.67	  0.52	
 47.77	  0.45	
 47.99	  0.38	
 48.11	  0.63	
 48.19	  0.45	
 48.71	  0.20	
 49.07	  0.12	
 54.00	  0.22	
 54.56	  0.30	
 54.62	  0.39	
 54.68	  0.44	
 54.68	  0.33	
 54.82	  0.55	
 54.83	  0.59	
 54.97	  0.67	
 55.11	  0.72	
 55.13	  0.64	
 55.24	  0.76	
 55.28	  0.89	
 55.28	  0.67	
 55.39	  0.78	
 55.69	  0.73	
 55.72	  0.69	
 55.84	  0.76	
 55.91	  0.87	
 55.99	  0.99	
 56.19	  0.91	
 56.20	  1.02	
 56.24	  0.88	
 56.32	  0.95	
 56.40	  1.09	
 56.49	  0.97	
 56.55	  0.87	
 56.59	  1.12	
 56.69	  1.31	
 56.70	  1.56	
 56.70	  1.44	
 56.77	  1.34	
 57.11	  1.25	
 57.16	  1.50	
 57.19	  1.25	
 57.22	  1.20	
 57.28	  1.45	
 57.30	  1.20	
 57.63	  1.45	
 57.67	  1.37	
 57.76	  1.12	
 57.83	  1.00	
 57.88	  0.75	
 57.91	  1.00	
 58.07	  0.81	
 58.10	  0.68	
 58.11	  0.93	
 58.11	  0.87	
 58.14	  1.03	
 58.23	  0.78	
 58.51	  0.53	
 58.71	  0.28	
 58.74	  0.12	
 58.76	  0.37	
 58.95	  0.54	
 58.99	  0.79	
 59.01	  1.04	
 59.36	  0.79	
 59.36	  0.84	
 59.59	  0.59	
 59.61	  0.34	
 59.75	  0.17	
 59.87	  0.42	
 59.89	  0.67	
 60.03	  0.89	
 60.06	  1.14	
 60.06	  1.39	
 60.26	  1.64	
 60.27	  1.59	
 60.39	  1.84	
 60.47	  1.59	
 60.49	  1.34	
 60.66	  1.09	
 60.66	  0.84	
 60.68	  1.09	
 60.86	  0.84	
 60.99	  0.59	
 61.28	  0.34	
 61.56	  0.59	
 61.93	  0.84	
 62.11	  1.94	
 62.16	  1.69	
 62.39	  1.94	
 62.40	  0.84	
 62.53	  0.59	
 62.71	  0.68	
 62.79	  0.46	
 62.99	  0.21	
 63.30	  0.34	
 63.42	  0.21	
 63.90	  0.46	
 64.24	  0.71	
 64.28	  0.62	
 64.31	  0.87	
 64.50	  0.62	
 64.61	  0.87	
 64.84	  0.62	
 64.91	  0.37	
 65.21	  0.12	
 65.52	  0.49	
 65.68	  0.67	
 65.87	  0.72	
 66.06	  0.97	
 66.07	  0.60	
 66.56	  0.85	
 66.66	  0.60	
 66.67	  0.85	
 66.80	  1.09	
 67.16	  0.84	
 67.27	  0.59	
 67.64	  0.64	
 67.88	  1.31	
 67.94	  1.56	
 68.06	  1.65	
 68.09	  1.72	
 68.09	  1.67	
 68.10	  1.72	
 68.21	  1.79	
 68.23	  1.89	
 68.26	  1.80	
 68.46	  2.05	
 68.52	  1.38	
 68.54	  1.13	
 68.59	  0.95	
 68.60	  1.20	
 68.64	  1.45	
 68.97	  1.49	
 69.00	  1.45	
 69.06	  1.20	
 69.20	  0.95	
 69.24	  0.70	
 69.43	  0.82	
 69.44	  3.27	
 69.48	  3.41	
 69.57	  3.29	
 69.59	  3.22	
 69.96	  3.47	
 69.97	  3.72	
 69.98	  1.28	
 70.06	  1.18	
 70.28	  1.13	
 70.33	  1.09	
 70.37	  0.84	
 70.56	  0.59	
 70.57	  0.34	
 70.64	  0.59	
 70.64	  0.65	
 70.66	  0.83	
 70.78	  0.65	
 70.98	  0.73	
 71.07	  0.65	
 71.24	  0.40	
 71.25	  0.34	
 71.43	  0.59	
 71.67	  0.84	
 71.99	  1.09	
 72.03	  0.84	
 72.16	  1.09	
 72.27	  0.84	
 72.40	  0.70	
 72.59	  0.45	
 72.76	  0.20	
 72.96	  0.12	
 74.61	  0.39	
 75.10	  0.53	
 75.66	  0.26	
 76.16	  0.12	
 78.01	  0.29	
 78.22	  0.38	
 78.32	  0.47	
 78.52	  0.60	
 78.74	  0.74	
 79.04	  0.78	
 79.15	  0.74	
 79.22	  0.60	
 79.24	  0.77	
 79.27	  0.68	
 79.30	  0.88	
 79.51	  1.06	
 79.56	  0.98	
 79.60	  1.06	
 79.64	  1.21	
 79.64	  1.32	
 79.70	  1.44	
 79.78	  1.60	
 79.87	  1.73	
 79.93	  1.57	
 79.94	  1.71	
 80.28	  1.78	
 80.29	  1.83	
 80.39	  1.65	
 80.42	  1.81	
 80.47	  1.63	
 80.51	  1.56	
 80.62	  1.69	
 80.75	  1.94	
 80.77	  2.07	
 81.04	  2.17	
 81.20	  2.23	
 81.23	  2.39	
 81.23	  2.23	
 81.30	  2.10	
 81.34	  1.98	
 81.34	  1.85	
 81.35	  1.60	
 81.36	  1.77	
 81.53	  2.41	
 81.56	  2.24	
 81.73	  2.14	
 81.89	  2.08	
 81.98	  1.95	
 82.06	  2.20	
 82.09	  2.14	
 82.10	  1.95	
 82.11	  1.87	
 82.23	  1.22	
 82.39	  1.47	
 82.52	  1.32	
 82.53	  1.21	
 82.66	  0.96	
 82.67	  0.83	
 82.69	  0.67	
 82.99	  0.42	
 83.34	  0.25	
 83.35	  0.11	
 83.48	  0.36	
 83.56	  0.61	
 84.08	  0.36	
 84.11	  0.61	
 84.16	  0.36	
 84.16	  0.51	
 84.71	  0.26	
 84.91	  0.51	
 84.93	  0.76	
 85.01	  1.01	
 85.09	  1.18	
 85.32	  1.03	
 85.33	  1.21	
 85.51	  0.96	
 85.53	  0.71	
 85.60	  0.55	
 85.61	  0.30	
 85.96	  0.11	
 86.05	  0.36	
 86.35	  0.61	
 86.47	  0.86	
 86.52	  1.12	
 86.59	  1.37	
 86.65	  1.12	
 86.77	  1.37	
 86.91	  1.62	
 86.95	  1.37	
 87.02	  1.43	
 87.07	  1.18	
 87.12	  0.93	
 87.19	  0.68	
 87.37	  0.43	
 87.41	  0.68	
 87.51	  0.43	
 87.74	  0.68	
 87.90	  0.93	
 87.97	  1.03	
 88.01	  0.78	
 88.34	  0.53	
 88.50	  0.28	
 88.72	  2.27	
 88.74	  4.08	
 89.02	  3.98	
 89.07	  3.91	
 89.28	  1.93	
 89.62	  2.18	
 89.73	  0.36	
 90.22	  0.11	
 90.35	  0.32	
 90.64	  0.41	
 90.75	  0.57	
 91.01	  0.82	
 91.08	  1.07	
 91.09	  1.32	
 91.17	  1.57	
 91.28	  1.73	
 91.35	  1.57	
 91.61	  1.32	
 91.63	  1.57	
 91.68	  1.32	
 91.68	  1.16	
 91.69	  0.91	
 91.71	  1.07	
 91.77	  0.82	
 91.91	  0.74	
 91.98	  0.99	
 92.02	  1.24	
 92.03	  1.36	
 92.08	  1.47	
 92.20	  1.72	
 92.23	  1.47	
 92.27	  1.62	
 92.39	  1.87	
 92.43	  1.92	
 92.43	  1.80	
 92.48	  1.88	
 92.50	  2.13	
 92.56	  2.38	
 92.58	  2.13	
 92.62	  1.88	
 92.80	  1.63	
 92.88	  1.52	
 92.97	  1.77	
 92.99	  1.52	
 93.10	  1.27	
 93.16	  1.02	
 93.40	  1.18	
 93.42	  1.24	
 93.57	  0.99	
 93.59	  0.84	
 93.64	  0.63	
 93.70	  0.81	
 93.79	  0.65	
 93.84	  0.90	
 93.89	  1.15	
 94.00	  1.40	
 94.00	  1.65	
 94.00	  1.57	
 94.34	  1.69	
 94.44	  1.44	
 94.49	  1.19	
 94.60	  0.94	
 94.60	  0.69	
 94.76	  0.94	
 94.86	  1.19	
 94.91	  1.13	
 95.36	  0.88	
 95.46	  0.63	
 95.91	  0.58	
 96.09	  0.41	
 96.14	  0.23	
 96.30	  0.48	
 96.31	  0.73	
 96.90	  0.48	
 96.91	  0.23	
 97.17	  0.47	
 98.11	  0.35	
 98.61	  0.55	
 99.12	  0.31	
 99.90	  0.11	
102.09	  0.19	
102.32	  0.34	
102.44	  0.37	
102.68	  0.48	
102.78	  0.37	
102.82	  0.45	
103.02	  0.60	
103.19	  0.77	
103.24	  0.93	
103.31	  1.02	
103.45	  1.11	
103.50	  1.28	
103.51	  1.45	
103.67	  1.53	
103.81	  1.50	
103.99	  1.41	
104.08	  1.33	
104.09	  1.41	
104.09	  1.51	
104.10	  1.69	
104.12	  1.84	
104.23	  1.67	
104.24	  1.51	
104.27	  1.68	
104.30	  1.54	
104.37	  1.60	
104.41	  1.64	
104.41	  1.81	
104.46	  1.91	
104.61	  1.82	
104.70	  1.65	
104.71	  1.58	
104.76	  1.40	
104.82	  1.55	
104.85	  1.67	
104.87	  1.86	
105.05	  1.67	
105.07	  1.70	
105.15	  1.95	
105.26	  1.80	
105.31	  2.05	
105.49	  2.01	
105.61	  4.15	
105.75	  3.90	
105.77	  3.78	
105.78	  3.61	
105.79	  3.44	
105.84	  3.34	
105.91	  3.09	
105.94	  3.34	
106.24	  1.20	
106.30	  1.05	
106.31	  1.02	
106.33	  0.93	
106.45	  0.85	
106.54	  0.60	
106.63	  0.50	
106.73	  0.35	
106.85	  0.29	
106.89	  0.84	
106.97	  0.66	
107.21	  0.91	
107.29	  1.06	
107.51	  0.51	
107.66	  0.76	
107.81	  0.51	
108.12	  0.76	
108.26	  0.51	
108.63	  0.58	
108.66	  0.83	
108.72	  0.58	
108.87	  0.43	
108.90	  0.68	
108.95	  0.93	
109.03	  1.07	
109.22	  1.23	
109.26	  0.98	
109.45	  0.91	
109.50	  0.66	
109.55	  0.41	
110.02	  0.55	
110.22	  0.60	
110.44	  0.45	
110.44	  0.70	
110.46	  0.55	
110.76	  0.80	
111.04	  0.55	
111.36	  0.30	
111.47	  0.55	
112.07	  0.80	
112.07	  0.55	
112.11	  0.41	
112.40	  0.66	
112.54	  0.61	
112.67	  0.36	
113.00	  0.11	
113.62	  0.21	
114.17	  0.46	
114.19	  0.63	
114.27	  0.88	
114.32	  1.13	
114.47	  1.38	
114.77	  1.13	
114.87	  0.88	
114.92	  0.63	
115.07	  0.38	
115.09	  0.63	
115.40	  0.76	
115.50	  0.66	
115.69	  0.41	
115.74	  0.66	
116.06	  0.91	
116.09	  1.01	
116.12	  1.26	
116.15	  1.43	
116.18	  1.57	
116.22	  1.75	
116.34	  1.50	
116.56	  1.69	
116.58	  1.83	
116.66	  1.58	
116.70	  1.45	
116.72	  1.20	
116.76	  1.45	
116.97	  1.28	
117.26	  1.08	
117.36	  0.83	
117.38	  1.08	
117.47	  1.28	
117.48	  1.10	
117.57	  0.93	
117.68	  1.18	
117.70	  1.03	
117.79	  1.28	
117.98	  1.03	
118.02	  1.28	
118.06	  1.53	
118.28	  1.28	
118.39	  1.03	
118.59	  0.94	
118.62	  0.69	
118.66	  0.44	
118.74	  0.69	
118.80	  0.76	
119.08	  0.63	
119.11	  0.43	
119.19	  0.68	
119.34	  0.43	
119.44	  0.68	
119.79	  0.43	
120.04	  0.18	
120.36	  0.11	
123.71	  0.40	
126.13	  0.11	
126.14	  0.30	
126.26	  0.35	
126.48	  0.16	
126.58	  0.24	
126.65	  0.38	
126.68	  0.52	
126.97	  0.57	
127.05	  0.71	
127.06	  0.82	
127.25	  0.86	
127.30	  1.01	
127.45	  1.08	
127.51	  1.22	
127.53	  1.18	
127.64	  1.30	
127.65	  1.34	
127.66	  1.43	
127.70	  1.60	
127.73	  1.45	
127.80	  1.30	
127.85	  1.14	
127.86	  1.31	
127.88	  1.43	
127.88	  1.57	
127.93	  1.64	
127.99	  1.60	
128.00	  1.65	
128.09	  1.84	
128.23	  1.79	
128.23	  1.91	
128.30	  2.10	
128.36	  2.22	
128.36	  2.34	
128.36	  2.23	
128.36	  2.11	
128.45	  2.31	
128.50	  2.47	
128.53	  2.33	
128.56	  2.58	
128.72	  2.70	
128.73	  2.56	
129.05	  2.49	
129.11	  2.37	
129.13	  2.62	
129.16	  2.37	
129.18	  2.29	
129.25	  2.12	
129.30	  1.96	
129.32	  1.99	
129.43	  2.24	
129.46	  2.11	
129.57	  1.98	
129.73	  1.73	
129.74	  1.59	
129.80	  1.52	
129.99	  1.77	
130.00	  1.67	
130.03	  1.42	
130.03	  1.31	
130.10	  1.26	
130.12	  1.35	
130.29	  1.60	
130.33	  1.41	
130.44	  1.37	
130.47	  1.34	
130.49	  1.49	
130.51	  1.30	
130.55	  1.18	
130.59	  0.93	
130.71	  0.81	
130.89	  0.56	
131.04	  0.81	
131.36	  0.61	
131.61	  0.80	
131.64	  0.55	
131.78	  0.40	
131.86	  0.30	
132.01	  0.55	
132.14	  0.80	
132.26	  0.99	
132.34	  1.60	
132.59	  1.85	
132.61	  1.60	
132.64	  1.85	
132.74	  1.60	
132.88	  0.99	
133.02	  1.04	
133.06	  1.29	
133.08	  1.45	
133.19	  1.20	
133.24	  0.95	
133.29	  0.76	
133.32	  0.95	
133.63	  1.20	
133.66	  0.95	
133.97	  1.20	
134.15	  1.45	
134.18	  2.54	
134.23	  2.29	
134.54	  2.24	
134.57	  1.99	
134.58	  2.07	
134.75	  1.82	
134.76	  2.07	
134.90	  1.89	
134.91	  2.14	
134.92	  1.04	
135.24	  0.89	
135.33	  1.14	
135.36	  0.89	
135.38	  1.07	
135.51	  0.82	
135.93	  0.57	
135.93	  0.38	
136.01	  0.63	
136.37	  0.88	
136.49	  1.13	
136.61	  0.88	
136.64	  0.70	
136.97	  0.45	
137.09	  0.20	
137.22	  0.11	
137.27	  0.36	
137.29	  0.45	
137.87	  0.20	
137.88	  0.45	
138.17	  0.70	
138.26	  0.61	
138.48	  0.36	
138.49	  0.61	
138.75	  0.86	
138.77	  0.61	
139.09	  0.36	
139.14	  0.45	
139.72	  0.59	
139.74	  0.79	
139.79	  0.54	
139.86	  0.45	
140.20	  0.31	
140.23	  0.46	
140.40	  0.31	
140.84	  0.35	
140.99	  0.60	
141.25	  0.76	
141.45	  0.56	
141.59	  0.31	
141.62	  0.56	
142.08	  0.81	
142.09	  0.99	
142.09	  0.95	
142.10	  1.20	
142.22	  0.95	
142.29	  1.20	
142.45	  1.45	
142.68	  1.20	
142.70	  0.95	
142.89	  0.70	
143.05	  0.45	
143.10	  0.70	
143.23	  0.95	
143.64	  1.20	
143.70	  0.95	
143.83	  0.70	
143.91	  0.95	
144.11	  1.20	
144.13	  1.45	
144.24	  1.29	
144.24	  1.04	
144.46	  1.29	
144.51	  1.04	
144.68	  0.86	
144.71	  0.61	
144.73	  0.36	
145.06	  0.11	
149.61	  1.95	
150.09	  0.11	
150.16	  0.24	
150.36	  0.41	
150.66	  0.28	
150.82	  0.39	
150.92	  0.49	
151.03	  0.63	
151.05	  0.75	
151.07	  0.85	
151.15	  1.01	
151.20	  1.11	
151.29	  1.15	
151.39	  1.28	
151.54	  1.45	
151.57	  1.65	
151.65	  1.73	
151.85	  1.93	
151.87	  2.01	
151.87	  1.84	
151.95	  1.89	
151.96	  1.95	
152.12	  1.89	
152.18	  1.77	
152.40	  1.61	
152.42	  1.41	
152.42	  1.25	
152.50	  1.38	
152.54	  1.42	
152.56	  1.61	
152.57	  1.42	
152.64	  1.53	
152.64	  1.72	
152.64	  1.97	
152.69	  1.83	
152.70	  1.88	
152.76	  2.04	
152.77	  2.08	
152.86	  1.88	
152.87	  2.13	
152.87	  2.10	
152.87	  1.90	
152.87	  1.94	
152.89	  1.98	
152.90	  1.94	
153.03	  1.85	
153.05	  1.74	
153.09	  1.70	
153.12	  1.59	
153.21	  1.64	
153.24	  1.39	
153.31	  1.56	
153.42	  1.42	
153.47	  1.17	
153.58	  1.09	
153.71	  1.38	
153.95	  1.25	
153.97	  1.22	
154.07	  1.12	
154.10	  1.03	
154.11	  1.28	
154.19	  1.53	
154.60	  1.49	
154.71	  1.24	
154.75	  1.20	
154.79	  0.95	
154.93	  1.20	
154.95	  1.14	
154.95	  0.98	
154.95	  1.23	
155.39	  1.42	
155.42	  1.67	
155.48	  1.50	
155.49	  1.39	
155.53	  1.14	
155.55	  0.89	
155.83	  1.14	
155.89	  0.85	
156.02	  0.60	
156.11	  0.55	
156.43	  0.30	
156.68	  0.46	
156.72	  1.65	
156.78	  1.90	
156.88	  1.74	
157.20	  1.99	
157.36	  2.24	
157.38	  1.99	
157.41	  1.81	
157.41	  2.06	
157.58	  2.31	
157.76	  1.11	
157.80	  0.86	
157.96	  0.61	
158.00	  0.86	
158.01	  0.61	
158.18	  0.36	
158.21	  0.56	
158.60	  0.31	
158.68	  0.40	
158.72	  0.55	
158.75	  0.80	
159.22	  0.61	
159.24	  0.73	
159.35	  0.48	
159.47	  0.73	
159.53	  0.98	
159.60	  1.23	
159.63	  1.14	
159.78	  1.31	
159.81	  1.56	
159.93	  1.81	
160.03	  2.06	
160.07	  1.81	
160.13	  1.56	
160.20	  1.31	
160.21	  1.56	
160.41	  1.31	
160.41	  1.19	
160.53	  0.94	
160.63	  0.69	
160.81	  0.88	
160.81	  0.63	
160.92	  0.46	
161.00	  0.84	
161.27	  1.09	
161.38	  1.34	
161.60	  1.59	
161.61	  1.21	
161.62	  1.06	
161.70	  0.86	
161.87	  0.61	
161.98	  0.36	
162.02	  0.61	
162.20	  0.36	
162.47	  0.55	
162.57	  0.60	
162.62	  0.35	
162.84	  0.60	
162.99	  0.85	
163.02	  0.90	
163.07	  0.85	
163.37	  1.04	
163.44	  0.79	
163.48	  0.93	
163.59	  0.68	
163.94	  0.93	
164.05	  1.12	
164.07	  1.24	
164.54	  0.99	
164.58	  1.13	
164.65	  0.98	
164.79	  1.16	
165.07	  1.32	
165.10	  1.26	
165.15	  1.36	
165.18	  1.24	
165.34	  1.49	
165.34	  1.31	
165.35	  1.12	
165.41	  1.37	
165.45	  1.48	
165.45	  1.53	
165.49	  1.35	
165.94	  1.10	
165.94	  2.30	
166.01	  2.05	
166.28	  1.86	
166.28	  2.02	
166.47	  1.93	
166.59	  1.82	
166.62	  2.07	
166.91	  0.86	
167.00	  0.82	
167.15	  1.07	
167.18	  1.32	
167.20	  1.57	
167.22	  1.32	
167.31	  1.17	
167.34	  1.03	
167.46	  1.28	
167.75	  1.03	
167.78	  0.78	
167.80	  0.53	
168.06	  0.28	
168.17	  0.11	
168.25	  0.36	
168.25	  0.61	
168.85	  0.36	
168.85	  0.11	
