  6.40	  0.10	  2.76	  9.16	     4	
  6.53	  0.17	  2.60	  9.13	     4	
  6.58	  0.05	  0.81	  7.40	     4	
  6.86	  0.07	  2.94	  9.81	     4	
  7.06	  0.04	  0.89	  7.95	     4	
  7.23	  0.07	  2.96	 10.19	     4	
  7.40	  0.16	  1.54	  8.94	     4	
  7.46	  0.03	  2.59	 10.05	     4	
  7.56	  0.14	  1.74	  9.29	     4	
  7.65	  0.04	  0.18	  7.83	     4	
  7.67	  0.15	  2.51	 10.18	     4	
  7.69	  0.03	  2.47	 10.16	     4	
  7.80	  0.10	  1.70	  9.50	     4	
  8.02	  0.19	  1.43	  9.45	     4	
  8.10	  0.16	  2.82	 10.92	     4	
  8.13	  0.23	  0.79	  8.92	     5	
  8.16	  0.09	  2.81	 10.98	     4	
  8.20	  0.08	  1.07	  9.27	     4	
  8.25	  0.12	  1.49	  9.74	     4	
  8.33	  0.06	  0.64	  8.96	     4	
  8.44	  0.13	  2.55	 10.99	     4	
  8.45	  0.05	  0.79	  9.24	     4	
  8.48	  0.14	  0.45	  8.93	     4	
  8.49	  0.13	  0.35	  8.84	     4	
  8.63	  0.16	  1.66	 10.29	     4	
  8.86	  0.25	  0.60	  9.46	     3	
  9.13	  0.05	  2.95	 12.07	     4	
  9.37	  0.25	  0.60	  9.97	     3	
  9.45	  0.43	  0.61	 10.06	     2	
  9.47	  0.25	  0.60	 10.07	     3	
  9.63	  0.25	  0.60	 10.23	     3	
  9.78	  0.25	  0.60	 10.38	     3	
 10.07	  0.25	  0.60	 10.67	     3	
 10.07	  0.25	  0.60	 10.67	     3	
 10.39	  0.25	  0.60	 10.99	     3	
 10.69	  0.07	  0.54	 11.23	     4	
 11.22	  0.25	  0.60	 11.82	     3	
 11.55	  0.25	  0.60	 12.15	     3	
 11.62	  0.25	  0.60	 12.22	     3	
 11.74	  0.69	  0.58	 12.32	     2	
 11.86	  0.11	  1.87	 13.74	     4	
 12.06	  0.25	  0.60	 12.66	     3	
 12.18	  0.25	  0.60	 12.78	     3	
 12.48	  0.25	  0.60	 13.08	     3	
 12.79	  0.25	  0.60	 13.39	     3	
 13.31	  0.25	  0.60	 13.91	     3	
 13.42	  0.05	  0.50	 13.92	     4	
 13.43	  0.25	  0.60	 14.03	     3	
 13.86	  0.09	  2.67	 16.53	     4	
 13.92	  0.25	  0.60	 14.52	     3	
 14.40	  0.25	  0.60	 15.00	     3	
 14.84	  0.14	  2.02	 16.86	     4	
 15.02	  0.25	  0.60	 15.62	     3	
 15.13	  0.25	  0.60	 15.73	     3	
 15.39	  0.19	  2.54	 17.93	     4	
 15.53	  0.25	  0.60	 16.13	     3	
 15.93	  0.25	  0.60	 16.53	     3	
 16.15	  0.03	  2.98	 19.12	     4	
 16.26	  0.25	  0.60	 16.86	     3	
 16.96	  0.25	  0.60	 17.56	     3	
 17.11	  0.25	  0.60	 17.71	     3	
 18.05	  0.15	  2.70	 20.75	     4	
 18.57	  0.17	  2.43	 20.99	     4	
 19.20	  0.19	  2.74	 21.94	     4	
 19.57	  0.25	  0.60	 20.17	     3	
 19.60	  0.07	  0.49	 20.09	     4	
 19.88	  0.25	  0.60	 20.48	     3	
 19.98	  0.10	  0.45	 20.42	     4	
 20.41	  0.09	  2.74	 23.15	     4	
 20.61	  0.25	  0.60	 21.21	     3	
 20.62	  0.25	  0.60	 21.22	     3	
 20.84	  0.18	  1.37	 22.21	     4	
 20.91	  0.25	  0.60	 21.51	     3	
 21.66	  0.25	  0.60	 22.26	     3	
 21.78	  0.25	  0.60	 22.38	     3	
 21.99	  0.25	  0.60	 22.59	     3	
 23.31	  0.57	  0.74	 24.06	     2	
 23.48	  0.12	  0.13	 23.61	     4	
 23.92	  0.25	  0.60	 24.52	     3	
 24.47	  0.25	  0.60	 25.07	     3	
 30.12	  0.16	  2.33	 32.45	     5	
 30.22	  0.13	  0.72	 30.95	     4	
 30.70	  0.06	  2.00	 32.70	     4	
 30.79	  0.08	  1.14	 31.93	     4	
 30.93	  0.19	  0.51	 31.44	     4	
 30.97	  0.13	  1.11	 32.09	     4	
 31.05	  0.18	  2.30	 33.34	     4	
 31.13	  0.20	  0.95	 32.08	     4	
 31.25	  0.13	  0.43	 31.68	     4	
 31.32	  0.11	  1.73	 33.05	     4	
 31.37	  0.17	  1.66	 33.03	     4	
 31.44	  0.08	  0.60	 32.03	     4	
 31.46	  0.18	  0.62	 32.08	     4	
 31.46	  0.14	  2.91	 34.37	     4	
 31.48	  0.13	  1.91	 33.39	     4	
 31.57	  0.10	  1.83	 33.40	     4	
 31.76	  0.13	  2.40	 34.17	     4	
 31.89	  0.07	  2.58	 34.47	     4	
 31.95	  0.06	  2.15	 34.10	     4	
 32.01	  0.10	  2.67	 34.67	     4	
 32.04	  0.11	  2.27	 34.30	     4	
 32.14	  0.16	  1.62	 33.76	     4	
 32.22	  0.15	  1.38	 33.60	     4	
 32.26	  0.19	  1.56	 33.82	     4	
 32.37	  0.19	  1.09	 33.46	     4	
 32.43	  0.06	  1.94	 34.37	     4	
 32.50	  0.25	  0.60	 33.10	     3	
 32.54	  0.20	  2.45	 34.98	     4	
 32.56	  0.08	  0.66	 33.22	     4	
 32.81	  0.25	  0.60	 33.41	     3	
 32.84	  0.05	  1.10	 33.94	     4	
 32.88	  0.06	  2.61	 35.49	     4	
 32.91	  0.25	  0.60	 33.51	     3	
 32.91	  0.25	  0.60	 33.51	     3	
 33.16	  0.25	  0.60	 33.76	     3	
 33.69	  0.25	  0.60	 34.29	     3	
 33.84	  0.25	  0.60	 34.44	     3	
 34.28	  2.41	  0.76	 35.05	     1	
 34.69	  0.25	  0.60	 35.29	     3	
 34.94	  0.10	  0.18	 35.12	     4	
 34.98	  0.25	  0.60	 35.58	     3	
 35.13	  0.25	  0.60	 35.73	     3	
 35.28	  0.25	  0.60	 35.88	     3	
 35.58	  0.25	  0.60	 36.18	     3	
 35.84	  0.25	  0.60	 36.44	     3	
 36.26	  1.09	  0.48	 36.74	     1	
 36.50	  0.15	  0.75	 37.26	     4	
 38.46	  0.25	  0.60	 39.06	     3	
 38.61	  0.09	  2.01	 40.62	     4	
 38.84	  0.25	  0.60	 39.44	     3	
 39.10	  0.25	  0.60	 39.70	     3	
 39.36	  0.15	  0.15	 39.52	     4	
 39.83	  0.17	  0.20	 40.03	     4	
 40.01	  0.25	  0.60	 40.61	     3	
 40.46	  0.13	  3.23	 43.69	     5	
 40.48	  0.25	  0.60	 41.08	     3	
 40.90	  0.07	  0.84	 41.74	     4	
 41.14	  0.25	  0.60	 41.74	     3	
 41.26	  0.25	  0.60	 41.86	     3	
 41.30	  0.25	  0.60	 41.90	     3	
 41.81	  0.25	  0.60	 42.41	     3	
 42.03	  0.25	  0.60	 42.63	     3	
 42.04	  0.32	  0.51	 42.54	     2	
 42.45	  0.25	  0.60	 43.05	     3	
 42.82	  0.25	  0.60	 43.42	     3	
 42.83	  0.25	  0.60	 43.43	     3	
 43.25	  0.25	  0.60	 43.85	     3	
 43.47	  0.13	  2.50	 45.98	     4	
 43.82	  0.15	  2.49	 46.31	     4	
 44.08	  0.07	  1.75	 45.82	     4	
 44.28	  0.11	  2.98	 47.26	     5	
 44.30	  0.04	  1.10	 45.41	     4	
 44.55	  0.06	  1.56	 46.11	     4	
 44.77	  0.25	  0.60	 45.37	     3	
 45.05	  0.25	  0.60	 45.65	     3	
 45.09	  0.25	  0.60	 45.69	     3	
 45.14	  0.06	  2.63	 47.77	     4	
 45.19	  0.18	  2.99	 48.19	     4	
 45.41	  0.11	  1.24	 46.65	     4	
 45.49	  0.11	  2.01	 47.51	     4	
 45.71	  0.66	  0.57	 46.28	     2	
 45.94	  0.25	  0.60	 46.54	     3	
 46.24	  0.25	  0.60	 46.84	     3	
 46.72	  0.09	  2.35	 49.07	     4	
 46.83	  0.25	  0.60	 47.43	     3	
 46.87	  0.25	  0.60	 47.47	     3	
 47.07	  0.25	  0.60	 47.67	     3	
 47.36	  0.08	  0.63	 47.99	     4	
 48.11	  0.25	  0.60	 48.71	     3	
 54.00	  0.10	  0.68	 54.68	     4	
 54.56	  0.08	  1.62	 56.19	     4	
 54.62	  0.09	  2.49	 57.11	     4	
 54.68	  0.05	  2.54	 57.22	     4	
 54.82	  0.22	  0.47	 55.28	     5	
 54.83	  0.04	  0.89	 55.72	     4	
 54.97	  0.08	  0.16	 55.13	     4	
 55.11	  0.05	  0.58	 55.69	     4	
 55.24	  0.12	  1.46	 56.70	     4	
 55.28	  0.13	  0.96	 56.24	     4	
 55.39	  0.11	  1.11	 56.49	     4	
 55.84	  0.07	  2.28	 58.11	     4	
 55.91	  0.10	  0.86	 56.77	     4	
 55.99	  0.12	  1.85	 57.83	     4	
 56.20	  0.10	  0.35	 56.55	     4	
 56.32	  0.07	  1.35	 57.67	     4	
 56.40	  0.13	  1.70	 58.10	     4	
 56.59	  0.25	  0.60	 57.19	     3	
 56.69	  0.19	  1.38	 58.07	     4	
 56.70	  0.25	  0.60	 57.30	     3	
 57.16	  0.25	  0.60	 57.76	     3	
 57.28	  0.25	  0.60	 57.88	     3	
 57.63	  0.25	  0.60	 58.23	     3	
 57.91	  0.25	  0.60	 58.51	     3	
 58.11	  0.25	  0.60	 58.71	     3	
 58.14	  0.16	  0.59	 58.74	     4	
 58.76	  0.25	  0.60	 59.36	     3	
 58.95	  0.17	  0.80	 59.75	     4	
 58.99	  0.25	  0.60	 59.59	     3	
 59.01	  0.25	  0.60	 59.61	     3	
 59.36	  0.05	  0.91	 60.27	     4	
 59.87	  0.25	  0.60	 60.47	     3	
 59.89	  0.25	  0.60	 60.49	     3	
 60.03	  0.22	  2.76	 62.79	     5	
 60.06	  0.25	  0.60	 60.66	     3	
 60.06	  0.25	  0.60	 60.66	     3	
 60.26	  0.25	  0.60	 60.86	     3	
 60.39	  0.25	  0.60	 60.99	     3	
 60.68	  0.25	  0.60	 61.28	     3	
 61.56	  0.25	  0.60	 62.16	     3	
 61.93	  0.25	  0.60	 62.53	     3	
 62.11	  1.11	  0.29	 62.40	     1	
 62.39	  0.25	  0.60	 62.99	     3	
 62.71	  0.09	  1.57	 64.28	     4	
 63.30	  0.14	  0.13	 63.42	     4	
 63.90	  0.25	  0.60	 64.50	     3	
 64.24	  0.25	  0.60	 64.84	     3	
 64.31	  0.25	  0.60	 64.91	     3	
 64.61	  0.25	  0.60	 65.21	     3	
 65.52	  0.38	  0.54	 66.07	     2	
 65.68	  0.18	  2.91	 68.59	     4	
 65.87	  0.05	  2.22	 68.09	     4	
 66.06	  0.25	  0.60	 66.66	     3	
 66.56	  0.25	  0.60	 67.16	     3	
 66.67	  0.25	  0.60	 67.27	     3	
 66.80	  0.25	  3.57	 70.37	     5	
 67.64	  0.04	  1.36	 69.00	     4	
 67.88	  0.67	  0.64	 68.52	     2	
 67.94	  0.25	  0.60	 68.54	     3	
 68.06	  0.09	  0.21	 68.26	     4	
 68.09	  0.08	  2.99	 71.07	     4	
 68.10	  0.05	  2.18	 70.28	     4	
 68.21	  0.07	  1.39	 69.59	     4	
 68.23	  0.10	  1.84	 70.06	     4	
 68.46	  0.25	  0.60	 69.06	     3	
 68.60	  0.25	  0.60	 69.20	     3	
 68.64	  0.25	  0.60	 69.24	     3	
 68.97	  0.04	  1.37	 70.33	     4	
 69.43	  0.12	  0.14	 69.57	     4	
 69.44	  2.45	  0.54	 69.98	     1	
 69.48	  0.15	  2.92	 72.40	     4	
 69.96	  0.25	  0.60	 70.56	     3	
 69.97	  0.25	  0.60	 70.57	     3	
 70.64	  0.25	  0.60	 71.24	     3	
 70.64	  0.06	  0.62	 71.25	     4	
 70.66	  0.18	  0.12	 70.78	     5	
 70.98	  0.08	  1.98	 72.96	     4	
 71.43	  0.25	  0.60	 72.03	     3	
 71.67	  0.25	  0.60	 72.27	     3	
 71.99	  0.25	  0.60	 72.59	     3	
 72.16	  0.25	  0.60	 72.76	     3	
 74.61	  0.27	  1.05	 75.66	     5	
 75.10	  0.14	  1.05	 76.16	     5	
 78.01	  0.18	  2.46	 80.47	     4	
 78.22	  0.08	  1.34	 79.56	     4	
 78.32	  0.09	  0.95	 79.27	     4	
 78.52	  0.13	  2.82	 81.34	     4	
 78.74	  0.14	  0.48	 79.22	     4	
 79.04	  0.03	  0.11	 79.15	     4	
 79.24	  0.17	  2.32	 81.56	     4	
 79.30	  0.19	  2.79	 82.10	     4	
 79.51	  0.18	  0.88	 80.39	     4	
 79.60	  0.08	  2.51	 82.11	     4	
 79.64	  0.16	  0.29	 79.93	     4	
 79.64	  0.11	  2.09	 81.73	     4	
 79.70	  0.12	  1.64	 81.34	     4	
 79.78	  0.16	  1.45	 81.23	     4	
 79.87	  0.13	  2.81	 82.67	     4	
 79.94	  0.13	  2.04	 81.98	     4	
 80.28	  0.07	  0.23	 80.51	     4	
 80.29	  0.05	  1.80	 82.09	     4	
 80.42	  0.16	  2.09	 82.52	     4	
 80.62	  0.13	  0.68	 81.30	     4	
 80.75	  0.25	  0.60	 81.35	     3	
 80.77	  0.13	  2.58	 83.35	     4	
 81.04	  0.10	  1.49	 82.53	     4	
 81.20	  0.06	  0.69	 81.89	     4	
 81.23	  0.16	  1.47	 82.69	     5	
 81.36	  0.17	  1.98	 83.34	     4	
 81.53	  0.64	  0.70	 82.23	     2	
 82.06	  0.25	  0.60	 82.66	     3	
 82.39	  0.25	  0.60	 82.99	     3	
 83.48	  0.25	  0.60	 84.08	     3	
 83.56	  0.25	  0.60	 84.16	     3	
 84.11	  0.25	  0.60	 84.71	     3	
 84.16	  0.15	  1.16	 85.32	     4	
 84.91	  0.25	  0.60	 85.51	     3	
 84.93	  0.25	  0.60	 85.53	     3	
 85.01	  0.25	  0.60	 85.61	     3	
 85.09	  0.17	  0.50	 85.60	     4	
 85.33	  0.18	  0.63	 85.96	     4	
 86.05	  0.25	  0.60	 86.65	     3	
 86.35	  0.25	  0.60	 86.95	     3	
 86.47	  0.25	  0.60	 87.07	     3	
 86.52	  0.25	  0.60	 87.12	     3	
 86.59	  0.25	  0.60	 87.19	     3	
 86.77	  0.25	  0.60	 87.37	     3	
 86.91	  0.25	  0.60	 87.51	     3	
 87.02	  0.07	  2.04	 89.07	     4	
 87.41	  0.25	  0.60	 88.01	     3	
 87.74	  0.25	  0.60	 88.34	     3	
 87.90	  0.25	  0.60	 88.50	     3	
 87.97	  0.10	  1.05	 89.02	     4	
 88.72	  1.98	  0.55	 89.28	     1	
 88.74	  1.81	  0.98	 89.73	     1	
 89.62	  0.25	  0.60	 90.22	     3	
 90.35	  0.21	  3.30	 93.64	     5	
 90.64	  0.08	  1.27	 91.91	     4	
 90.75	  0.16	  0.61	 91.35	     4	
 91.01	  0.25	  0.60	 91.61	     3	
 91.08	  0.25	  0.60	 91.68	     3	
 91.09	  0.25	  0.60	 91.69	     3	
 91.17	  0.25	  0.60	 91.77	     3	
 91.28	  0.16	  0.40	 91.68	     4	
 91.63	  0.25	  0.60	 92.23	     3	
 91.71	  0.16	  2.08	 93.79	     4	
 91.98	  0.25	  0.60	 92.58	     3	
 92.02	  0.25	  0.60	 92.62	     3	
 92.03	  0.12	  0.41	 92.43	     4	
 92.08	  0.11	  0.79	 92.88	     4	
 92.20	  0.25	  0.60	 92.80	     3	
 92.27	  0.15	  1.32	 93.59	     4	
 92.39	  0.25	  0.60	 92.99	     3	
 92.43	  0.05	  2.48	 94.91	     4	
 92.48	  0.08	  1.52	 94.00	     4	
 92.50	  0.25	  0.60	 93.10	     3	
 92.56	  0.25	  0.60	 93.16	     3	
 92.97	  0.25	  0.60	 93.57	     3	
 93.40	  0.17	  2.68	 96.09	     5	
 93.42	  0.06	  2.50	 95.91	     4	
 93.70	  0.18	  2.44	 96.14	     4	
 93.84	  0.25	  0.60	 94.44	     3	
 93.89	  0.25	  0.60	 94.49	     3	
 94.00	  0.25	  0.60	 94.60	     3	
 94.00	  0.25	  0.60	 94.60	     3	
 94.34	  0.11	  3.77	 98.11	     5	
 94.76	  0.25	  0.60	 95.36	     3	
 94.86	  0.25	  0.60	 95.46	     3	
 96.30	  0.25	  0.60	 96.90	     3	
 96.31	  0.25	  0.60	 96.91	     3	
 97.17	  0.24	  1.94	 99.12	     5	
 98.61	  0.20	  1.30	 99.90	     5	
102.09	  0.08	  1.99	104.08	     4	
102.32	  0.14	  1.97	104.30	     4	
102.44	  0.03	  1.36	103.81	     4	
102.68	  0.11	  0.10	102.78	     4	
102.82	  0.08	  1.17	103.99	     4	
103.02	  0.15	  2.23	105.26	     4	
103.19	  0.17	  2.60	105.79	     4	
103.24	  0.15	  1.00	104.24	     4	
103.31	  0.09	  1.30	104.61	     4	
103.45	  0.09	  2.88	106.33	     4	
103.50	  0.17	  0.73	104.23	     4	
103.51	  0.17	  1.25	104.76	     4	
103.67	  0.07	  1.05	104.71	     4	
104.09	  0.08	  2.36	106.45	     4	
104.09	  0.10	  1.75	105.84	     4	
104.10	  0.18	  2.87	106.97	     4	
104.12	  0.15	  2.61	106.73	     4	
104.27	  0.17	  0.43	104.70	     4	
104.37	  0.06	  2.48	106.85	     4	
104.41	  0.04	  1.08	105.49	     4	
104.41	  0.17	  1.37	105.78	     4	
104.46	  0.10	  2.16	106.63	     4	
104.82	  0.15	  1.49	106.30	     4	
104.85	  0.12	  0.92	105.77	     4	
104.87	  0.19	  0.18	105.05	     4	
105.07	  0.03	  1.24	106.31	     4	
105.15	  0.25	  0.60	105.75	     3	
105.31	  0.25	  0.60	105.91	     3	
105.61	  2.14	  0.64	106.24	     1	
105.94	  0.25	  0.60	106.54	     3	
106.89	  0.55	  0.62	107.51	     2	
107.21	  0.25	  0.60	107.81	     3	
107.29	  0.15	  1.58	108.87	     4	
107.66	  0.25	  0.60	108.26	     3	
108.12	  0.25	  0.60	108.72	     3	
108.63	  0.06	  0.82	109.45	     4	
108.66	  0.25	  0.60	109.26	     3	
108.90	  0.25	  0.60	109.50	     3	
108.95	  0.25	  0.60	109.55	     3	
109.03	  0.14	  1.41	110.44	     4	
109.22	  0.16	  1.24	110.46	     4	
110.02	  0.13	  2.09	112.11	     4	
110.22	  0.05	  2.31	112.54	     4	
110.44	  0.25	  0.60	111.04	     3	
110.76	  0.25	  0.60	111.36	     3	
111.47	  0.25	  0.60	112.07	     3	
112.07	  0.25	  0.60	112.67	     3	
112.40	  0.25	  0.60	113.00	     3	
113.62	  0.09	  1.88	115.50	     4	
114.17	  0.25	  0.60	114.77	     3	
114.19	  0.18	  2.77	116.97	     4	
114.27	  0.25	  0.60	114.87	     3	
114.32	  0.25	  0.60	114.92	     3	
114.47	  0.25	  0.60	115.07	     3	
115.09	  0.25	  0.60	115.69	     3	
115.40	  0.12	  1.29	116.70	     4	
115.74	  0.25	  0.60	116.34	     3	
116.06	  0.25	  0.60	116.66	     3	
116.09	  0.09	  2.50	118.59	     4	
116.12	  0.25	  0.60	116.72	     3	
116.15	  0.17	  1.33	117.48	     4	
116.18	  0.14	  1.52	117.70	     4	
116.22	  0.18	  1.34	117.57	     4	
116.56	  0.19	  0.70	117.26	     4	
116.58	  0.13	  2.49	119.08	     4	
116.76	  0.25	  0.60	117.36	     3	
117.38	  0.25	  0.60	117.98	     3	
117.47	  0.19	  1.63	119.11	     4	
117.68	  0.25	  0.60	118.28	     3	
117.79	  0.25	  0.60	118.39	     3	
118.02	  0.25	  0.60	118.62	     3	
118.06	  0.25	  0.60	118.66	     3	
118.74	  0.25	  0.60	119.34	     3	
118.80	  0.07	  1.56	120.36	     4	
119.19	  0.25	  0.60	119.79	     3	
119.44	  0.25	  0.60	120.04	     3	
123.71	  0.28	  2.42	126.13	     5	
126.14	  0.19	  0.34	126.48	     4	
126.26	  0.05	  1.73	127.99	     4	
126.58	  0.08	  2.61	129.18	     4	
126.65	  0.13	  2.80	129.46	     4	
126.68	  0.14	  2.06	128.73	     4	
126.97	  0.05	  1.26	128.23	     4	
127.05	  0.15	  0.75	127.80	     4	
127.06	  0.11	  1.30	128.36	     4	
127.25	  0.04	  0.28	127.53	     4	
127.30	  0.15	  0.43	127.73	     4	
127.45	  0.07	  2.35	129.80	     4	
127.51	  0.14	  2.23	129.74	     4	
127.64	  0.11	  2.39	130.03	     4	
127.65	  0.04	  2.79	130.44	     4	
127.66	  0.10	  2.34	130.00	     4	
127.70	  0.16	  0.15	127.85	     4	
127.86	  0.18	  1.40	129.25	     4	
127.88	  0.12	  0.48	128.36	     4	
127.88	  0.14	  0.64	128.53	     4	
127.93	  0.08	  1.12	129.05	     4	
128.00	  0.05	  2.10	130.10	     4	
128.09	  0.19	  2.42	130.51	     4	
128.23	  0.12	  2.48	130.71	     4	
128.30	  0.18	  2.02	130.33	     4	
128.36	  0.13	  1.21	129.57	     4	
128.36	  0.11	  0.75	129.11	     4	
128.45	  0.20	  2.91	131.36	     4	
128.50	  0.16	  0.80	129.30	     4	
128.56	  0.25	  0.60	129.16	     3	
128.72	  0.12	  1.83	130.55	     4	
129.13	  0.25	  0.60	129.73	     3	
129.32	  0.03	  1.14	130.47	     4	
129.43	  0.25	  0.60	130.03	     3	
129.99	  0.25	  0.60	130.59	     3	
130.12	  0.09	  1.74	131.86	     4	
130.29	  0.25	  0.60	130.89	     3	
130.49	  0.15	  1.29	131.78	     4	
131.04	  0.25	  0.60	131.64	     3	
131.61	  0.19	  1.68	133.29	     5	
132.01	  0.25	  0.60	132.61	     3	
132.14	  0.25	  0.60	132.74	     3	
132.26	  0.18	  2.64	134.90	     4	
132.34	  0.61	  0.54	132.88	     2	
132.59	  0.25	  0.60	133.19	     3	
132.64	  0.25	  0.60	133.24	     3	
133.02	  0.06	  1.53	134.54	     4	
133.06	  0.25	  0.60	133.66	     3	
133.08	  0.15	  2.15	135.24	     4	
133.32	  0.19	  2.61	135.93	     4	
133.63	  0.25	  0.60	134.23	     3	
133.97	  0.25	  0.60	134.57	     3	
134.15	  0.25	  0.60	134.75	     3	
134.18	  1.10	  0.73	134.92	     1	
134.58	  0.08	  2.64	137.22	     4	
134.76	  0.25	  0.60	135.36	     3	
134.91	  0.25	  0.60	135.51	     3	
135.33	  0.25	  0.60	135.93	     3	
135.38	  0.18	  1.25	136.64	     4	
136.01	  0.25	  0.60	136.61	     3	
136.37	  0.25	  0.60	136.97	     3	
136.49	  0.25	  0.60	137.09	     3	
137.27	  0.25	  0.60	137.87	     3	
137.29	  0.08	  0.97	138.26	     4	
137.88	  0.25	  0.60	138.48	     3	
138.17	  0.25	  0.60	138.77	     3	
138.49	  0.25	  0.60	139.09	     3	
138.75	  0.25	  1.04	139.79	     5	
139.14	  0.09	  0.71	139.86	     4	
139.72	  0.14	  0.48	140.20	     4	
139.74	  0.20	  1.71	141.45	     4	
140.23	  0.15	  0.17	140.40	     4	
140.84	  0.04	  1.25	142.09	     4	
140.99	  0.25	  0.60	141.59	     3	
141.25	  0.16	  2.99	144.24	     4	
141.62	  0.25	  0.60	142.22	     3	
142.08	  0.25	  0.60	142.68	     3	
142.09	  0.17	  2.59	144.68	     4	
142.10	  0.25	  0.60	142.70	     3	
142.29	  0.25	  0.60	142.89	     3	
142.45	  0.25	  0.60	143.05	     3	
143.10	  0.25	  0.60	143.70	     3	
143.23	  0.25	  0.60	143.83	     3	
143.64	  0.25	  0.60	144.24	     3	
143.91	  0.25	  0.60	144.51	     3	
144.11	  0.25	  0.60	144.71	     3	
144.13	  0.25	  0.60	144.73	     3	
144.46	  0.25	  0.60	145.06	     3	
149.61	  1.84	  0.48	150.09	     1	
150.16	  0.13	  0.49	150.66	     4	
150.36	  0.16	  2.06	152.42	     4	
150.82	  0.12	  2.23	153.05	     4	
150.92	  0.09	  2.11	153.03	     4	
151.03	  0.14	  1.66	152.69	     4	
151.05	  0.12	  1.13	152.18	     4	
151.07	  0.10	  2.05	153.12	     4	
151.15	  0.16	  1.24	152.40	     4	
151.20	  0.10	  2.87	154.07	     4	
151.29	  0.04	  1.58	152.87	     4	
151.39	  0.13	  2.56	153.95	     4	
151.54	  0.17	  0.33	151.87	     4	
151.57	  0.20	  0.85	152.42	     4	
151.65	  0.08	  2.46	154.10	     4	
151.85	  0.19	  0.73	152.57	     4	
151.87	  0.08	  1.72	153.58	     4	
151.95	  0.05	  2.80	154.75	     4	
151.96	  0.06	  0.16	152.12	     4	
152.50	  0.13	  0.92	153.42	     4	
152.54	  0.04	  1.43	153.97	     4	
152.56	  0.19	  0.31	152.87	     4	
152.64	  0.11	  2.85	155.49	     4	
152.64	  0.19	  0.22	152.86	     4	
152.64	  0.25	  0.60	153.24	     3	
152.70	  0.05	  2.24	154.95	     4	
152.76	  0.16	  2.19	154.95	     4	
152.77	  0.04	  0.14	152.90	     4	
152.87	  0.25	  0.60	153.47	     3	
152.87	  0.04	  0.22	153.09	     4	
152.89	  0.04	  1.71	154.60	     4	
153.21	  0.05	  2.90	156.11	     4	
153.31	  0.17	  2.17	155.48	     4	
153.71	  0.29	  2.18	155.89	     5	
154.11	  0.25	  0.60	154.71	     3	
154.19	  0.25	  0.60	154.79	     3	
154.93	  0.25	  0.60	155.53	     3	
154.95	  0.25	  0.60	155.55	     3	
155.39	  0.19	  2.01	157.41	     5	
155.42	  0.25	  0.60	156.02	     3	
155.83	  0.25	  0.60	156.43	     3	
156.68	  0.16	  0.20	156.88	     4	
156.72	  1.19	  1.04	157.76	     1	
156.78	  0.25	  0.60	157.38	     3	
157.20	  0.25	  0.60	157.80	     3	
157.36	  0.25	  0.60	157.96	     3	
157.41	  0.25	  0.60	158.01	     3	
157.58	  0.25	  0.60	158.18	     3	
158.00	  0.25	  0.60	158.60	     3	
158.21	  0.20	  1.01	159.22	     4	
158.68	  0.09	  0.95	159.63	     4	
158.72	  0.15	  2.90	161.62	     5	
158.75	  0.25	  0.60	159.35	     3	
159.24	  0.13	  1.17	160.41	     4	
159.47	  0.25	  0.60	160.07	     3	
159.53	  0.25	  0.60	160.13	     3	
159.60	  0.25	  0.60	160.20	     3	
159.78	  0.17	  1.14	160.92	     4	
159.81	  0.25	  0.60	160.41	     3	
159.93	  0.25	  0.60	160.53	     3	
160.03	  0.25	  0.60	160.63	     3	
160.21	  0.25	  0.60	160.81	     3	
160.81	  0.19	  0.89	161.70	     4	
161.00	  0.38	  0.61	161.61	     2	
161.27	  0.25	  0.60	161.87	     3	
161.38	  0.25	  0.60	161.98	     3	
161.60	  0.25	  0.60	162.20	     3	
162.02	  0.25	  0.60	162.62	     3	
162.47	  0.18	  2.87	165.34	     4	
162.57	  0.05	  0.50	163.07	     4	
162.84	  0.25	  0.60	163.44	     3	
162.99	  0.25	  0.60	163.59	     3	
163.02	  0.06	  2.07	165.10	     4	
163.37	  0.19	  2.91	166.28	     4	
163.48	  0.14	  1.17	164.65	     4	
163.94	  0.25	  0.60	164.54	     3	
164.05	  0.18	  1.30	165.35	     4	
164.07	  0.12	  1.11	165.18	     4	
164.58	  0.14	  2.76	167.34	     4	
164.79	  0.18	  0.70	165.49	     4	
165.07	  0.15	  2.24	167.31	     4	
165.15	  0.10	  1.32	166.47	     4	
165.34	  0.25	  0.60	165.94	     3	
165.41	  0.25	  0.60	166.01	     3	
165.45	  0.11	  1.14	166.59	     4	
165.45	  0.04	  1.55	167.00	     4	
165.94	  1.20	  0.96	166.91	     1	
166.28	  0.16	  1.88	168.17	     4	
166.62	  0.25	  0.60	167.22	     3	
167.15	  0.25	  0.60	167.75	     3	
167.18	  0.25	  0.60	167.78	     3	
167.20	  0.25	  0.60	167.80	     3	
167.46	  0.25	  0.60	168.06	     3	
168.25	  0.25	  0.60	168.85	     3	
168.25	  0.25	  0.60	168.85	     3	
