  6.40	  0.14	
  6.53	  0.31	
  6.58	  0.37	
  6.86	  0.43	
  7.06	  0.47	
  7.23	  0.54	
  7.40	  0.49	
  7.40	  0.66	
  7.46	  0.69	
  7.56	  0.83	
  7.65	  0.87	
  7.67	  1.02	
  7.69	  1.05	
  7.80	  1.15	
  7.83	  1.11	
  7.95	  1.07	
  8.02	  1.26	
  8.10	  1.42	
  8.16	  1.51	
  8.20	  1.59	
  8.25	  1.72	
  8.33	  1.78	
  8.44	  1.91	
  8.45	  1.96	
  8.48	  2.10	
  8.49	  2.22	
  8.63	  2.38	
  8.84	  2.25	
  8.93	  2.11	
  8.94	  1.95	
  8.96	  1.88	
  9.13	  1.93	
  9.13	  1.77	
  9.16	  1.66	
  9.24	  1.61	
  9.27	  1.53	
  9.29	  1.39	
  9.45	  1.20	
  9.50	  1.10	
  9.74	  0.97	
  9.81	  0.91	
 10.05	  0.88	
 10.16	  0.85	
 10.18	  0.70	
 10.19	  0.62	
 10.29	  0.47	
 10.69	  0.54	
 10.92	  0.38	
 10.98	  0.29	
 10.99	  0.16	
 11.23	  0.09	
 11.86	  0.20	
 12.07	  0.15	
 13.42	  0.20	
 13.74	  0.09	
 13.86	  0.18	
 13.92	  0.13	
 14.84	  0.27	
 15.39	  0.46	
 16.15	  0.49	
 16.53	  0.40	
 16.86	  0.26	
 17.93	  0.07	
 18.05	  0.22	
 18.57	  0.40	
 19.12	  0.37	
 19.20	  0.56	
 19.60	  0.63	
 19.98	  0.73	
 20.09	  0.66	
 20.41	  0.74	
 20.42	  0.65	
 20.75	  0.49	
 20.84	  0.67	
 20.99	  0.50	
 21.94	  0.30	
 22.21	  0.13	
 23.15	  0.04	
 23.48	  0.16	
 23.61	  0.04	
 30.22	  0.17	
 30.70	  0.22	
 30.79	  0.31	
 30.93	  0.50	
 30.95	  0.37	
 30.97	  0.50	
 31.05	  0.68	
 31.13	  0.88	
 31.25	  1.01	
 31.32	  1.12	
 31.37	  1.29	
 31.44	  1.37	
 31.44	  1.18	
 31.46	  1.35	
 31.46	  1.49	
 31.48	  1.62	
 31.57	  1.72	
 31.68	  1.59	
 31.76	  1.72	
 31.89	  1.79	
 31.93	  1.71	
 31.95	  1.77	
 32.01	  1.87	
 32.03	  1.79	
 32.04	  1.90	
 32.08	  1.72	
 32.08	  1.52	
 32.09	  1.40	
 32.14	  1.56	
 32.22	  1.71	
 32.26	  1.90	
 32.37	  2.09	
 32.43	  2.15	
 32.54	  2.34	
 32.56	  2.42	
 32.70	  2.36	
 32.84	  2.41	
 32.88	  2.47	
 33.03	  2.29	
 33.05	  2.18	
 33.22	  2.11	
 33.34	  1.92	
 33.39	  1.79	
 33.40	  1.70	
 33.46	  1.51	
 33.60	  1.36	
 33.76	  1.20	
 33.82	  1.01	
 33.94	  0.96	
 34.10	  0.90	
 34.17	  0.77	
 34.30	  0.66	
 34.37	  0.60	
 34.37	  0.47	
 34.47	  0.40	
 34.67	  0.29	
 34.94	  0.39	
 34.98	  0.19	
 35.12	  0.10	
 35.49	  0.04	
 36.50	  0.19	
 37.26	  0.04	
 38.61	  0.13	
 39.36	  0.28	
 39.52	  0.13	
 39.83	  0.30	
 40.03	  0.13	
 40.62	  0.04	
 40.90	  0.11	
 41.74	  0.04	
 43.47	  0.17	
 43.82	  0.32	
 44.08	  0.39	
 44.30	  0.43	
 44.55	  0.49	
 45.14	  0.55	
 45.19	  0.73	
 45.41	  0.68	
 45.41	  0.79	
 45.49	  0.90	
 45.82	  0.83	
 45.98	  0.71	
 46.11	  0.65	
 46.31	  0.50	
 46.65	  0.39	
 46.72	  0.48	
 47.36	  0.55	
 47.51	  0.44	
 47.77	  0.38	
 47.99	  0.30	
 48.19	  0.13	
 49.07	  0.04	
 54.00	  0.14	
 54.56	  0.22	
 54.62	  0.31	
 54.68	  0.36	
 54.68	  0.26	
 54.83	  0.29	
 54.97	  0.37	
 55.11	  0.42	
 55.13	  0.34	
 55.24	  0.46	
 55.28	  0.59	
 55.39	  0.71	
 55.69	  0.66	
 55.72	  0.62	
 55.84	  0.69	
 55.91	  0.79	
 55.99	  0.91	
 56.19	  0.84	
 56.20	  0.94	
 56.24	  0.81	
 56.32	  0.88	
 56.40	  1.01	
 56.49	  0.90	
 56.55	  0.79	
 56.69	  0.98	
 56.70	  0.87	
 56.77	  0.76	
 57.11	  0.67	
 57.22	  0.62	
 57.67	  0.55	
 57.83	  0.43	
 58.07	  0.24	
 58.10	  0.11	
 58.11	  0.04	
 58.14	  0.20	
 58.74	  0.04	
 58.95	  0.21	
 59.36	  0.27	
 59.75	  0.09	
 60.27	  0.04	
 62.71	  0.13	
 63.30	  0.27	
 63.42	  0.13	
 64.28	  0.04	
 65.68	  0.22	
 65.87	  0.27	
 67.64	  0.31	
 68.06	  0.40	
 68.09	  0.48	
 68.09	  0.42	
 68.10	  0.47	
 68.21	  0.54	
 68.23	  0.64	
 68.26	  0.55	
 68.59	  0.38	
 68.97	  0.42	
 69.00	  0.38	
 69.43	  0.50	
 69.48	  0.65	
 69.57	  0.53	
 69.59	  0.46	
 70.06	  0.36	
 70.28	  0.31	
 70.33	  0.27	
 70.64	  0.32	
 70.98	  0.40	
 71.07	  0.33	
 71.25	  0.27	
 72.40	  0.12	
 72.96	  0.04	
 78.01	  0.22	
 78.22	  0.30	
 78.32	  0.39	
 78.52	  0.53	
 78.74	  0.67	
 79.04	  0.70	
 79.15	  0.67	
 79.22	  0.53	
 79.24	  0.70	
 79.27	  0.61	
 79.30	  0.80	
 79.51	  0.98	
 79.56	  0.90	
 79.60	  0.98	
 79.64	  1.14	
 79.64	  1.24	
 79.70	  1.36	
 79.78	  1.52	
 79.87	  1.66	
 79.93	  1.50	
 79.94	  1.63	
 80.28	  1.70	
 80.29	  1.76	
 80.39	  1.57	
 80.42	  1.73	
 80.47	  1.55	
 80.51	  1.48	
 80.62	  1.61	
 80.77	  1.74	
 81.04	  1.85	
 81.20	  1.90	
 81.23	  1.74	
 81.30	  1.62	
 81.34	  1.49	
 81.34	  1.36	
 81.36	  1.53	
 81.56	  1.36	
 81.73	  1.26	
 81.89	  1.20	
 81.98	  1.07	
 82.09	  1.01	
 82.10	  0.82	
 82.11	  0.74	
 82.52	  0.58	
 82.53	  0.48	
 82.67	  0.35	
 83.34	  0.17	
 83.35	  0.04	
 84.16	  0.19	
 85.09	  0.36	
 85.32	  0.21	
 85.33	  0.39	
 85.60	  0.22	
 85.96	  0.04	
 87.02	  0.11	
 87.97	  0.21	
 89.02	  0.11	
 89.07	  0.04	
 90.64	  0.12	
 90.75	  0.28	
 91.28	  0.45	
 91.35	  0.28	
 91.68	  0.12	
 91.71	  0.29	
 91.91	  0.20	
 92.03	  0.32	
 92.08	  0.43	
 92.27	  0.58	
 92.43	  0.63	
 92.43	  0.52	
 92.48	  0.59	
 92.88	  0.48	
 93.42	  0.54	
 93.59	  0.39	
 93.70	  0.57	
 93.79	  0.40	
 94.00	  0.33	
 94.91	  0.28	
 95.91	  0.22	
 96.14	  0.04	
102.09	  0.12	
102.32	  0.26	
102.44	  0.29	
102.68	  0.40	
102.78	  0.29	
102.82	  0.37	
103.02	  0.53	
103.19	  0.70	
103.24	  0.85	
103.31	  0.94	
103.45	  1.03	
103.50	  1.20	
103.51	  1.38	
103.67	  1.45	
103.81	  1.42	
103.99	  1.34	
104.08	  1.26	
104.09	  1.33	
104.09	  1.44	
104.10	  1.61	
104.12	  1.76	
104.23	  1.59	
104.24	  1.44	
104.27	  1.61	
104.30	  1.47	
104.37	  1.52	
104.41	  1.56	
104.41	  1.73	
104.46	  1.83	
104.61	  1.74	
104.70	  1.58	
104.71	  1.50	
104.76	  1.33	
104.82	  1.48	
104.85	  1.59	
104.87	  1.78	
105.05	  1.59	
105.07	  1.63	
105.26	  1.47	
105.49	  1.43	
105.77	  1.32	
105.78	  1.15	
105.79	  0.98	
105.84	  0.88	
106.30	  0.73	
106.31	  0.69	
106.33	  0.60	
106.45	  0.52	
106.63	  0.42	
106.73	  0.27	
106.85	  0.22	
106.97	  0.04	
107.29	  0.19	
108.63	  0.25	
108.87	  0.10	
109.03	  0.24	
109.22	  0.40	
109.45	  0.34	
110.02	  0.47	
110.22	  0.52	
110.44	  0.38	
110.46	  0.22	
112.11	  0.09	
112.54	  0.04	
113.62	  0.13	
114.19	  0.31	
115.40	  0.43	
115.50	  0.34	
116.09	  0.43	
116.15	  0.61	
116.18	  0.75	
116.22	  0.93	
116.56	  1.12	
116.58	  1.25	
116.70	  1.13	
116.97	  0.95	
117.26	  0.76	
117.47	  0.95	
117.48	  0.78	
117.57	  0.60	
117.70	  0.46	
118.59	  0.37	
118.80	  0.43	
119.08	  0.30	
119.11	  0.11	
120.36	  0.04	
126.14	  0.23	
126.26	  0.28	
126.48	  0.09	
126.58	  0.17	
126.65	  0.30	
126.68	  0.44	
126.97	  0.49	
127.05	  0.64	
127.06	  0.74	
127.25	  0.78	
127.30	  0.93	
127.45	  1.01	
127.51	  1.15	
127.53	  1.11	
127.64	  1.22	
127.65	  1.26	
127.66	  1.36	
127.70	  1.52	
127.73	  1.37	
127.80	  1.22	
127.85	  1.06	
127.86	  1.24	
127.88	  1.35	
127.88	  1.49	
127.93	  1.57	
127.99	  1.52	
128.00	  1.57	
128.09	  1.76	
128.23	  1.72	
128.23	  1.84	
128.30	  2.02	
128.36	  2.15	
128.36	  2.26	
128.36	  2.15	
128.36	  2.04	
128.45	  2.24	
128.50	  2.40	
128.53	  2.26	
128.72	  2.38	
128.73	  2.24	
129.05	  2.16	
129.11	  2.05	
129.18	  1.97	
129.25	  1.79	
129.30	  1.63	
129.32	  1.67	
129.46	  1.53	
129.57	  1.41	
129.74	  1.27	
129.80	  1.19	
130.00	  1.10	
130.03	  0.98	
130.10	  0.93	
130.12	  1.02	
130.33	  0.84	
130.44	  0.80	
130.47	  0.76	
130.49	  0.92	
130.51	  0.72	
130.55	  0.60	
130.71	  0.48	
131.36	  0.28	
131.78	  0.13	
131.86	  0.04	
132.26	  0.22	
133.02	  0.28	
133.08	  0.43	
133.32	  0.62	
134.54	  0.57	
134.58	  0.65	
134.90	  0.47	
135.24	  0.31	
135.38	  0.49	
135.93	  0.30	
136.64	  0.12	
137.22	  0.04	
137.29	  0.12	
138.26	  0.04	
139.14	  0.13	
139.72	  0.27	
139.74	  0.47	
139.86	  0.37	
140.20	  0.24	
140.23	  0.38	
140.40	  0.24	
140.84	  0.27	
141.25	  0.43	
141.45	  0.24	
142.09	  0.41	
142.09	  0.37	
144.24	  0.21	
144.68	  0.04	
150.16	  0.17	
150.36	  0.33	
150.66	  0.20	
150.82	  0.32	
150.92	  0.41	
151.03	  0.55	
151.05	  0.67	
151.07	  0.77	
151.15	  0.94	
151.20	  1.04	
151.29	  1.08	
151.39	  1.21	
151.54	  1.38	
151.57	  1.57	
151.65	  1.66	
151.85	  1.85	
151.87	  1.93	
151.87	  1.76	
151.95	  1.81	
151.96	  1.87	
152.12	  1.81	
152.18	  1.70	
152.40	  1.53	
152.42	  1.34	
152.42	  1.17	
152.50	  1.31	
152.54	  1.34	
152.56	  1.54	
152.57	  1.34	
152.64	  1.45	
152.64	  1.65	
152.69	  1.50	
152.70	  1.56	
152.76	  1.72	
152.77	  1.75	
152.86	  1.56	
152.87	  1.52	
152.87	  1.33	
152.87	  1.37	
152.89	  1.40	
152.90	  1.37	
153.03	  1.28	
153.05	  1.16	
153.09	  1.12	
153.12	  1.02	
153.21	  1.07	
153.31	  1.23	
153.42	  1.10	
153.58	  1.02	
153.95	  0.88	
153.97	  0.85	
154.07	  0.75	
154.10	  0.66	
154.60	  0.63	
154.75	  0.58	
154.95	  0.53	
154.95	  0.36	
155.48	  0.20	
155.49	  0.09	
156.11	  0.04	
156.68	  0.20	
156.88	  0.04	
158.21	  0.24	
158.68	  0.33	
159.22	  0.13	
159.24	  0.26	
159.63	  0.17	
159.78	  0.34	
160.41	  0.21	
160.81	  0.41	
160.92	  0.23	
161.70	  0.04	
162.47	  0.22	
162.57	  0.27	
163.02	  0.33	
163.07	  0.28	
163.37	  0.47	
163.48	  0.61	
164.05	  0.79	
164.07	  0.91	
164.58	  1.05	
164.65	  0.91	
164.79	  1.09	
165.07	  1.24	
165.10	  1.19	
165.15	  1.28	
165.18	  1.16	
165.34	  0.98	
165.35	  0.80	
165.45	  0.91	
165.45	  0.95	
165.49	  0.77	
166.28	  0.58	
166.28	  0.75	
166.47	  0.65	
166.59	  0.54	
167.00	  0.50	
167.31	  0.34	
167.34	  0.20	
168.17	  0.04	
