  6.11	  0.24	
  6.17	  0.41	
  6.17	  0.49	
  6.19	  0.65	
  6.29	  0.75	
  6.30	  0.92	
  6.40	  1.03	
  6.46	  0.95	
  6.46	  0.78	
  6.46	  0.89	
  6.53	  1.06	
  6.54	  1.24	
  6.58	  1.30	
  6.62	  1.42	
  6.62	  1.57	
  6.68	  1.39	
  6.72	  1.49	
  6.72	  1.57	
  6.73	  1.46	
  6.74	  1.65	
  6.74	  1.74	
  6.80	  1.88	
  6.86	  1.95	
  6.88	  2.04	
  6.99	  2.12	
  7.02	  2.19	
  7.06	  2.22	
  7.10	  2.39	
  7.10	  2.31	
  7.11	  2.13	
  7.11	  2.21	
  7.11	  2.26	
  7.15	  2.44	
  7.16	  2.48	
  7.17	  2.59	
  7.18	  2.76	
  7.23	  2.84	
  7.35	  2.78	
  7.39	  2.97	
  7.39	  3.02	
  7.40	  2.97	
  7.40	  3.13	
  7.43	  3.28	
  7.44	  3.39	
  7.44	  3.54	
  7.46	  3.58	
  7.48	  3.70	
  7.48	  3.83	
  7.50	  3.93	
  7.55	  3.85	
  7.55	  3.74	
  7.56	  3.88	
  7.59	  3.99	
  7.61	  3.91	
  7.65	  4.03	
  7.65	  4.07	
  7.66	  4.18	
  7.67	  4.33	
  7.69	  4.50	
  7.69	  4.53	
  7.76	  4.67	
  7.76	  4.85	
  7.76	  4.74	
  7.77	  4.66	
  7.79	  4.70	
  7.80	  4.80	
  7.81	  4.89	
  7.83	  4.85	
  7.83	  4.68	
  7.85	  4.51	
  7.85	  4.60	
  7.88	  4.76	
  7.90	  4.62	
  7.93	  4.58	
  7.93	  4.77	
  7.95	  4.73	
  7.95	  4.78	
  7.97	  4.84	
  7.97	  4.73	
  7.98	  4.83	
  7.98	  4.98	
  7.99	  4.80	
  8.02	  4.99	
  8.02	  5.18	
  8.03	  5.30	
  8.08	  5.35	
  8.08	  5.49	
  8.10	  5.65	
  8.13	  5.60	
  8.16	  5.64	
  8.16	  5.73	
  8.18	  5.90	
  8.19	  6.02	
  8.20	  6.10	
  8.23	  5.91	
  8.25	  6.03	
  8.29	  5.92	
  8.32	  6.05	
  8.33	  6.12	
  8.34	  6.25	
  8.36	  6.38	
  8.38	  6.23	
  8.38	  6.07	
  8.40	  6.26	
  8.44	  6.39	
  8.45	  6.44	
  8.47	  6.49	
  8.47	  6.58	
  8.48	  6.73	
  8.49	  6.85	
  8.50	  7.04	
  8.53	  6.85	
  8.62	  6.67	
  8.62	  6.54	
  8.63	  6.70	
  8.68	  6.77	
  8.75	  6.73	
  8.77	  6.62	
  8.81	  6.77	
  8.82	  6.64	
  8.84	  6.51	
  8.87	  6.42	
  8.88	  6.23	
  8.88	  6.36	
  8.89	  6.47	
  8.91	  6.65	
  8.91	  6.81	
  8.93	  6.67	
  8.94	  6.50	
  8.95	  6.40	
  8.96	  6.53	
  8.96	  6.47	
  8.98	  6.30	
  9.02	  6.26	
  9.08	  6.07	
  9.13	  6.12	
  9.13	  6.21	
  9.13	  6.04	
  9.16	  6.21	
  9.16	  6.11	
  9.17	  6.14	
  9.17	  6.02	
  9.17	  5.96	
  9.17	  5.88	
  9.19	  5.78	
  9.21	  5.65	
  9.23	  5.71	
  9.24	  5.66	
  9.27	  5.58	
  9.28	  5.63	
  9.29	  5.49	
  9.30	  5.31	
  9.41	  5.42	
  9.44	  5.28	
  9.45	  5.09	
  9.47	  4.99	
  9.47	  4.88	
  9.48	  4.82	
  9.50	  4.72	
  9.61	  4.58	
  9.67	  4.54	
  9.67	  4.45	
  9.72	  4.32	
  9.74	  4.20	
  9.81	  4.11	
  9.81	  4.04	
  9.88	  3.89	
  9.92	  3.76	
  9.95	  3.60	
  9.99	  3.40	
 10.02	  3.31	
 10.05	  3.28	
 10.07	  3.12	
 10.07	  3.06	
 10.08	  3.02	
 10.12	  2.91	
 10.16	  2.88	
 10.17	  2.75	
 10.18	  2.60	
 10.19	  2.53	
 10.29	  2.37	
 10.41	  2.31	
 10.41	  2.17	
 10.45	  2.12	
 10.59	  2.30	
 10.65	  2.13	
 10.68	  2.02	
 10.69	  1.96	
 10.69	  2.03	
 10.69	  1.94	
 10.69	  1.75	
 10.78	  1.90	
 10.79	  1.74	
 10.92	  1.59	
 10.92	  1.43	
 10.98	  1.34	
 10.99	  1.38	
 10.99	  1.26	
 11.17	  1.15	
 11.23	  1.08	
 11.28	  1.23	
 11.34	  1.13	
 11.34	  1.31	
 11.36	  1.13	
 11.37	  0.95	
 11.76	  0.76	
 11.86	  0.87	
 11.87	  1.01	
 11.96	  0.98	
 12.01	  0.80	
 12.07	  0.74	
 12.21	  0.61	
 12.25	  0.79	
 12.58	  0.74	
 12.66	  0.59	
 12.97	  0.79	
 13.42	  0.84	
 13.60	  0.69	
 13.74	  0.58	
 13.86	  0.67	
 13.89	  0.50	
 13.92	  0.44	
 14.06	  0.52	
 14.25	  0.32	
 14.25	  0.41	
 14.32	  0.58	
 14.48	  0.66	
 14.59	  0.78	
 14.78	  0.95	
 14.84	  1.10	
 15.32	  1.27	
 15.38	  1.35	
 15.39	  1.54	
 15.41	  1.71	
 15.81	  1.54	
 16.03	  1.46	
 16.07	  1.52	
 16.11	  1.67	
 16.15	  1.70	
 16.22	  1.84	
 16.26	  1.67	
 16.36	  1.59	
 16.37	  1.47	
 16.44	  1.32	
 16.53	  1.23	
 16.65	  1.16	
 16.77	  1.19	
 16.78	  1.01	
 16.86	  0.87	
 17.18	  0.78	
 17.34	  0.91	
 17.70	  1.01	
 17.91	  0.84	
 17.92	  0.70	
 17.93	  0.51	
 18.05	  0.66	
 18.22	  0.85	
 18.35	  1.02	
 18.44	  1.12	
 18.54	  1.06	
 18.57	  1.23	
 18.58	  1.20	
 18.68	  1.03	
 18.99	  1.22	
 19.09	  1.03	
 19.10	  1.18	
 19.12	  1.15	
 19.20	  1.34	
 19.59	  1.53	
 19.60	  1.60	
 19.86	  1.71	
 19.88	  1.58	
 19.92	  1.69	
 19.98	  1.78	
 19.98	  1.87	
 20.05	  1.95	
 20.09	  1.88	
 20.34	  1.94	
 20.37	  2.04	
 20.38	  2.17	
 20.41	  2.37	
 20.41	  2.45	
 20.42	  2.35	
 20.42	  2.25	
 20.48	  2.44	
 20.66	  2.25	
 20.69	  2.32	
 20.71	  2.38	
 20.74	  2.33	
 20.75	  2.18	
 20.82	  2.11	
 20.84	  1.98	
 20.84	  2.15	
 20.87	  2.05	
 20.87	  2.16	
 20.89	  2.21	
 20.90	  2.06	
 20.93	  1.87	
 20.94	  2.05	
 20.94	  1.95	
 20.99	  1.78	
 21.01	  1.69	
 21.03	  1.84	
 21.11	  1.74	
 21.16	  1.55	
 21.25	  1.71	
 21.38	  1.51	
 21.47	  1.64	
 21.50	  1.82	
 21.60	  1.67	
 21.94	  1.47	
 22.08	  1.39	
 22.16	  1.46	
 22.21	  1.29	
 22.23	  1.18	
 22.28	  1.00	
 22.42	  0.84	
 22.42	  0.77	
 22.49	  0.97	
 22.76	  0.86	
 22.82	  1.04	
 22.97	  0.86	
 23.06	  0.69	
 23.06	  0.73	
 23.15	  0.64	
 23.20	  0.78	
 23.23	  0.73	
 23.31	  0.83	
 23.48	  0.96	
 23.61	  0.83	
 24.07	  0.70	
 24.08	  0.57	
 24.40	  0.53	
 25.03	  0.46	
 25.37	  0.26	
 25.70	  0.16	
 30.07	  0.23	
 30.22	  0.35	
 30.33	  0.53	
 30.34	  0.69	
 30.36	  0.82	
 30.43	  0.90	
 30.49	  1.02	
 30.51	  1.10	
 30.60	  1.15	
 30.70	  1.21	
 30.73	  1.04	
 30.79	  1.13	
 30.79	  1.26	
 30.93	  1.45	
 30.93	  1.33	
 30.95	  1.20	
 30.97	  1.33	
 31.02	  1.51	
 31.04	  1.68	
 31.05	  1.87	
 31.08	  2.06	
 31.09	  2.10	
 31.10	  2.23	
 31.13	  2.42	
 31.16	  2.59	
 31.17	  2.70	
 31.24	  2.83	
 31.24	  2.96	
 31.25	  3.09	
 31.26	  3.05	
 31.26	  2.98	
 31.28	  3.06	
 31.32	  3.17	
 31.32	  3.22	
 31.34	  3.28	
 31.34	  3.31	
 31.37	  3.48	
 31.37	  3.36	
 31.39	  3.43	
 31.44	  3.51	
 31.44	  3.32	
 31.45	  3.41	
 31.46	  3.59	
 31.46	  3.73	
 31.47	  3.90	
 31.48	  3.73	
 31.48	  3.86	
 31.50	  4.01	
 31.52	  4.08	
 31.53	  4.26	
 31.53	  4.36	
 31.57	  4.46	
 31.63	  4.53	
 31.64	  4.68	
 31.66	  4.84	
 31.66	  5.01	
 31.66	  5.20	
 31.68	  5.37	
 31.68	  5.24	
 31.71	  5.42	
 31.75	  5.62	
 31.76	  5.75	
 31.78	  5.85	
 31.81	  5.68	
 31.85	  5.51	
 31.89	  5.58	
 31.92	  5.62	
 31.93	  5.54	
 31.94	  5.68	
 31.95	  5.75	
 31.96	  5.79	
 32.00	  5.92	
 32.00	  5.98	
 32.01	  6.09	
 32.01	  6.21	
 32.02	  6.28	
 32.02	  6.20	
 32.03	  6.12	
 32.04	  6.23	
 32.08	  6.05	
 32.08	  5.86	
 32.09	  5.73	
 32.10	  5.91	
 32.14	  6.07	
 32.17	  6.23	
 32.18	  6.28	
 32.19	  6.31	
 32.21	  6.26	
 32.22	  6.41	
 32.25	  6.54	
 32.26	  6.35	
 32.26	  6.43	
 32.26	  6.62	
 32.27	  6.52	
 32.28	  6.39	
 32.30	  6.19	
 32.34	  6.08	
 32.37	  6.27	
 32.41	  6.44	
 32.41	  6.54	
 32.43	  6.43	
 32.43	  6.49	
 32.44	  6.34	
 32.44	  6.17	
 32.45	  6.32	
 32.45	  6.41	
 32.45	  6.59	
 32.52	  6.77	
 32.54	  6.96	
 32.56	  7.04	
 32.63	  7.01	
 32.63	  6.93	
 32.67	  7.00	
 32.67	  6.88	
 32.70	  6.98	
 32.70	  6.92	
 32.78	  7.03	
 32.79	  7.21	
 32.82	  7.11	
 32.84	  7.16	
 32.85	  7.00	
 32.87	  6.87	
 32.87	  6.90	
 32.88	  6.96	
 32.90	  6.91	
 32.91	  6.76	
 32.96	  6.68	
 32.99	  6.72	
 33.00	  6.59	
 33.03	  6.41	
 33.03	  6.38	
 33.05	  6.27	
 33.08	  6.20	
 33.09	  6.28	
 33.13	  6.25	
 33.13	  6.45	
 33.18	  6.27	
 33.22	  6.19	
 33.34	  6.01	
 33.39	  5.88	
 33.39	  6.01	
 33.39	  5.81	
 33.40	  5.72	
 33.44	  5.54	
 33.46	  5.36	
 33.56	  5.18	
 33.58	  5.12	
 33.59	  5.07	
 33.60	  4.92	
 33.72	  4.83	
 33.72	  4.63	
 33.74	  4.45	
 33.75	  4.36	
 33.76	  4.20	
 33.82	  4.01	
 33.88	  3.82	
 33.91	  3.78	
 33.93	  3.62	
 33.94	  3.50	
 33.94	  3.45	
 33.99	  3.37	
 34.02	  3.30	
 34.04	  3.23	
 34.06	  3.14	
 34.09	  3.01	
 34.10	  2.94	
 34.16	  2.76	
 34.16	  2.58	
 34.16	  2.50	
 34.17	  2.37	
 34.18	  2.21	
 34.21	  2.16	
 34.30	  2.05	
 34.33	  1.88	
 34.37	  1.82	
 34.37	  1.69	
 34.44	  1.51	
 34.45	  1.33	
 34.47	  1.26	
 34.55	  1.19	
 34.57	  1.12	
 34.67	  1.02	
 34.72	  0.97	
 34.76	  0.93	
 34.80	  0.80	
 34.88	  0.65	
 34.89	  0.85	
 34.94	  0.95	
 34.98	  0.75	
 35.09	  0.61	
 35.12	  0.52	
 35.23	  0.57	
 35.26	  0.76	
 35.49	  0.71	
 35.68	  0.60	
 35.82	  0.78	
 35.85	  0.90	
 35.94	  0.71	
 35.95	  0.53	
 36.08	  0.62	
 36.14	  0.76	
 36.26	  0.89	
 36.50	  1.04	
 36.67	  0.95	
 36.72	  1.06	
 36.78	  1.16	
 36.82	  1.10	
 36.90	  0.91	
 36.92	  0.80	
 37.00	  0.67	
 37.26	  0.52	
 37.34	  0.56	
 37.70	  0.63	
 37.83	  0.77	
 37.84	  0.93	
 37.88	  0.89	
 37.92	  0.77	
 38.00	  0.66	
 38.14	  0.54	
 38.61	  0.62	
 38.79	  0.48	
 39.36	  0.63	
 39.52	  0.48	
 39.77	  0.40	
 39.83	  0.58	
 39.90	  0.42	
 40.03	  0.25	
 40.23	  0.40	
 40.58	  0.52	
 40.62	  0.43	
 40.90	  0.50	
 41.19	  0.58	
 41.21	  0.64	
 41.33	  0.74	
 41.36	  0.59	
 41.37	  0.66	
 41.47	  0.54	
 41.74	  0.47	
 42.18	  0.39	
 42.39	  0.42	
 42.95	  0.33	
 43.05	  0.50	
 43.12	  0.59	
 43.19	  0.65	
 43.26	  0.77	
 43.33	  0.96	
 43.47	  0.89	
 43.47	  1.01	
 43.48	  1.18	
 43.51	  1.26	
 43.58	  1.20	
 43.82	  1.35	
 43.84	  1.26	
 43.89	  1.37	
 43.97	  1.56	
 43.98	  1.75	
 44.04	  1.82	
 44.05	  1.88	
 44.08	  1.95	
 44.09	  2.11	
 44.20	  1.95	
 44.27	  2.12	
 44.30	  2.16	
 44.34	  2.30	
 44.42	  2.38	
 44.43	  2.41	
 44.47	  2.58	
 44.55	  2.64	
 44.68	  2.58	
 44.71	  2.41	
 44.77	  2.55	
 44.79	  2.62	
 44.82	  2.75	
 44.84	  2.72	
 44.88	  2.79	
 44.90	  2.67	
 44.97	  2.83	
 44.98	  2.75	
 44.98	  2.92	
 45.02	  3.07	
 45.04	  2.96	
 45.07	  2.80	
 45.13	  2.96	
 45.14	  3.02	
 45.19	  3.19	
 45.31	  3.01	
 45.32	  3.17	
 45.33	  3.27	
 45.33	  3.19	
 45.41	  3.15	
 45.41	  3.26	
 45.46	  3.33	
 45.49	  3.44	
 45.50	  3.25	
 45.51	  3.08	
 45.82	  3.01	
 45.85	  2.93	
 45.90	  2.77	
 45.98	  2.64	
 46.01	  2.48	
 46.10	  2.54	
 46.11	  2.48	
 46.14	  2.35	
 46.16	  2.32	
 46.18	  2.22	
 46.29	  2.03	
 46.31	  1.88	
 46.35	  1.82	
 46.58	  1.75	
 46.59	  1.61	
 46.65	  1.50	
 46.72	  1.58	
 46.89	  1.76	
 46.90	  1.86	
 46.99	  1.80	
 46.99	  1.72	
 47.03	  1.85	
 47.08	  1.69	
 47.15	  1.62	
 47.36	  1.70	
 47.51	  1.59	
 47.56	  1.43	
 47.69	  1.29	
 47.75	  1.19	
 47.77	  1.13	
 47.92	  0.95	
 47.95	  0.81	
 47.99	  0.73	
 48.13	  0.56	
 48.19	  0.38	
 48.97	  0.25	
 49.07	  0.16	
 54.00	  0.26	
 54.07	  0.31	
 54.11	  0.39	
 54.35	  0.31	
 54.52	  0.50	
 54.54	  0.56	
 54.56	  0.64	
 54.60	  0.68	
 54.62	  0.76	
 54.62	  0.85	
 54.63	  0.91	
 54.64	  1.00	
 54.64	  1.13	
 54.68	  1.18	
 54.68	  1.07	
 54.75	  1.17	
 54.78	  1.35	
 54.83	  1.39	
 54.90	  1.59	
 54.90	  1.69	
 54.95	  1.75	
 54.96	  1.85	
 54.97	  1.93	
 54.98	  2.05	
 55.03	  2.13	
 55.04	  2.32	
 55.07	  2.36	
 55.08	  2.45	
 55.11	  2.50	
 55.13	  2.42	
 55.16	  2.46	
 55.16	  2.50	
 55.17	  2.70	
 55.19	  2.60	
 55.21	  2.65	
 55.24	  2.77	
 55.26	  2.91	
 55.28	  3.05	
 55.30	  2.95	
 55.35	  2.90	
 55.38	  2.84	
 55.39	  2.95	
 55.41	  2.91	
 55.42	  3.00	
 55.43	  3.11	
 55.44	  3.23	
 55.46	  3.04	
 55.51	  3.20	
 55.53	  3.31	
 55.53	  3.42	
 55.56	  3.49	
 55.58	  3.67	
 55.60	  3.78	
 55.60	  3.74	
 55.66	  3.80	
 55.69	  3.74	
 55.69	  3.91	
 55.72	  3.87	
 55.72	  4.03	
 55.77	  4.15	
 55.77	  4.23	
 55.78	  4.05	
 55.79	  3.86	
 55.84	  3.93	
 55.85	  4.06	
 55.91	  4.16	
 55.93	  4.02	
 55.95	  4.05	
 55.99	  4.17	
 55.99	  4.06	
 56.00	  4.11	
 56.01	  4.20	
 56.03	  4.08	
 56.08	  4.00	
 56.12	  4.19	
 56.17	  4.33	
 56.19	  4.26	
 56.20	  4.36	
 56.22	  4.47	
 56.22	  4.27	
 56.22	  4.16	
 56.24	  4.03	
 56.24	  3.90	
 56.24	  4.01	
 56.28	  4.05	
 56.29	  4.18	
 56.29	  4.32	
 56.30	  4.29	
 56.32	  4.35	
 56.32	  4.43	
 56.35	  4.60	
 56.40	  4.74	
 56.40	  4.77	
 56.40	  4.89	
 56.42	  4.82	
 56.44	  4.89	
 56.45	  4.99	
 56.49	  5.12	
 56.49	  5.01	
 56.52	  4.96	
 56.55	  4.85	
 56.55	  4.81	
 56.56	  4.77	
 56.56	  4.61	
 56.57	  4.67	
 56.58	  4.61	
 56.61	  4.65	
 56.62	  4.71	
 56.63	  4.83	
 56.64	  4.98	
 56.65	  5.10	
 56.69	  5.29	
 56.70	  5.10	
 56.70	  4.98	
 56.77	  4.88	
 56.78	  4.68	
 56.79	  4.77	
 56.80	  4.87	
 56.81	  4.78	
 56.85	  4.89	
 56.85	  5.02	
 56.87	  4.90	
 56.94	  4.87	
 56.97	  4.97	
 56.97	  4.81	
 56.98	  4.90	
 56.98	  5.00	
 57.09	  4.87	
 57.10	  4.75	
 57.11	  4.65	
 57.11	  4.55	
 57.11	  4.46	
 57.22	  4.41	
 57.26	  4.31	
 57.27	  4.24	
 57.32	  4.34	
 57.34	  4.25	
 57.39	  4.14	
 57.45	  4.08	
 57.47	  4.04	
 57.48	  3.89	
 57.50	  3.74	
 57.52	  3.68	
 57.55	  3.58	
 57.57	  3.54	
 57.60	  3.48	
 57.61	  3.35	
 57.67	  3.28	
 57.70	  3.21	
 57.73	  3.11	
 57.83	  2.99	
 57.84	  2.92	
 57.90	  2.79	
 57.96	  2.97	
 57.99	  2.88	
 58.00	  2.79	
 58.01	  2.75	
 58.03	  2.63	
 58.05	  2.51	
 58.07	  2.32	
 58.10	  2.19	
 58.11	  2.08	
 58.11	  2.01	
 58.14	  2.17	
 58.16	  2.08	
 58.20	  1.94	
 58.23	  1.84	
 58.27	  1.65	
 58.32	  1.49	
 58.48	  1.31	
 58.49	  1.22	
 58.74	  1.06	
 58.77	  0.98	
 58.83	  0.83	
 58.87	  0.75	
 58.95	  0.92	
 58.95	  0.82	
 59.03	  0.88	
 59.06	  1.03	
 59.20	  0.97	
 59.36	  1.02	
 59.37	  1.18	
 59.38	  1.04	
 59.41	  0.93	
 59.64	  0.78	
 59.75	  0.60	
 60.20	  0.64	
 60.27	  0.59	
 60.66	  0.54	
 60.70	  0.35	
 60.72	  0.53	
 60.92	  0.64	
 60.96	  0.74	
 61.88	  0.58	
 62.03	  0.54	
 62.18	  0.36	
 62.42	  0.45	
 62.71	  0.55	
 62.98	  0.45	
 63.04	  0.35	
 63.15	  0.41	
 63.30	  0.55	
 63.42	  0.41	
 63.43	  0.57	
 63.50	  0.47	
 63.52	  0.63	
 63.76	  0.69	
 64.08	  0.63	
 64.28	  0.54	
 64.32	  0.59	
 64.37	  0.73	
 64.42	  0.57	
 64.44	  0.73	
 64.90	  0.88	
 65.08	  0.82	
 65.40	  0.89	
 65.68	  1.06	
 65.77	  1.00	
 65.86	  0.83	
 65.87	  0.89	
 65.88	  0.95	
 65.93	  0.90	
 66.40	  1.09	
 66.45	  0.93	
 66.51	  0.79	
 66.95	  0.65	
 67.06	  0.72	
 67.26	  0.81	
 67.38	  0.89	
 67.54	  0.70	
 67.64	  0.74	
 67.68	  0.94	
 67.68	  0.99	
 67.70	  1.06	
 67.77	  1.26	
 68.01	  1.38	
 68.06	  1.46	
 68.06	  1.37	
 68.07	  1.30	
 68.09	  1.38	
 68.09	  1.32	
 68.10	  1.37	
 68.15	  1.48	
 68.18	  1.57	
 68.21	  1.64	
 68.23	  1.74	
 68.23	  1.68	
 68.26	  1.87	
 68.26	  1.79	
 68.28	  1.83	
 68.37	  2.02	
 68.38	  2.22	
 68.40	  2.26	
 68.50	  2.45	
 68.57	  2.64	
 68.59	  2.70	
 68.59	  2.52	
 68.66	  2.58	
 68.83	  2.72	
 68.86	  2.67	
 68.93	  2.74	
 68.94	  2.66	
 68.97	  2.70	
 69.00	  2.65	
 69.08	  2.71	
 69.14	  2.51	
 69.20	  2.31	
 69.33	  2.51	
 69.36	  2.45	
 69.40	  2.49	
 69.43	  2.61	
 69.48	  2.41	
 69.48	  2.51	
 69.48	  2.66	
 69.57	  2.54	
 69.59	  2.47	
 69.68	  2.28	
 69.68	  2.08	
 69.87	  2.05	
 69.88	  1.95	
 70.02	  1.81	
 70.06	  1.71	
 70.15	  1.51	
 70.20	  1.47	
 70.27	  1.28	
 70.28	  1.23	
 70.28	  1.39	
 70.33	  1.35	
 70.50	  1.15	
 70.60	  1.11	
 70.64	  1.04	
 70.64	  1.10	
 70.72	  1.27	
 70.80	  1.22	
 70.81	  1.12	
 70.88	  1.06	
 70.90	  0.96	
 70.94	  0.84	
 70.98	  0.92	
 71.07	  0.84	
 71.25	  0.79	
 71.40	  0.73	
 71.67	  0.55	
 72.40	  0.40	
 72.79	  0.24	
 72.96	  0.16	
 78.01	  0.34	
 78.14	  0.47	
 78.17	  0.59	
 78.22	  0.67	
 78.32	  0.76	
 78.32	  0.93	
 78.37	  1.08	
 78.43	  1.18	
 78.49	  1.27	
 78.52	  1.40	
 78.54	  1.55	
 78.66	  1.75	
 78.69	  1.82	
 78.72	  1.98	
 78.74	  2.12	
 78.75	  2.25	
 78.78	  2.37	
 78.81	  2.50	
 78.81	  2.58	
 78.85	  2.67	
 78.85	  2.73	
 78.89	  2.81	
 78.98	  2.88	
 78.98	  2.94	
 79.01	  3.11	
 79.02	  3.18	
 79.04	  3.21	
 79.06	  3.27	
 79.06	  3.38	
 79.07	  3.42	
 79.08	  3.49	
 79.09	  3.69	
 79.12	  3.57	
 79.12	  3.64	
 79.15	  3.60	
 79.17	  3.55	
 79.21	  3.66	
 79.22	  3.52	
 79.24	  3.69	
 79.26	  3.82	
 79.27	  3.74	
 79.27	  3.65	
 79.30	  3.84	
 79.32	  4.01	
 79.36	  4.20	
 79.39	  4.27	
 79.41	  4.41	
 79.46	  4.34	
 79.48	  4.38	
 79.51	  4.57	
 79.54	  4.60	
 79.56	  4.51	
 79.60	  4.60	
 79.64	  4.51	
 79.64	  4.40	
 79.64	  4.56	
 79.64	  4.66	
 79.68	  4.49	
 79.70	  4.61	
 79.71	  4.46	
 79.74	  4.51	
 79.74	  4.56	
 79.78	  4.72	
 79.81	  4.83	
 79.82	  4.91	
 79.84	  4.97	
 79.85	  5.14	
 79.85	  5.19	
 79.87	  5.33	
 79.89	  5.26	
 79.90	  5.44	
 79.92	  5.62	
 79.93	  5.70	
 79.93	  5.55	
 79.94	  5.68	
 80.02	  5.53	
 80.02	  5.47	
 80.02	  5.42	
 80.03	  5.45	
 80.09	  5.52	
 80.11	  5.35	
 80.16	  5.43	
 80.18	  5.48	
 80.19	  5.63	
 80.20	  5.73	
 80.21	  5.81	
 80.23	  5.78	
 80.28	  5.85	
 80.29	  5.89	
 80.29	  5.94	
 80.30	  6.10	
 80.31	  6.27	
 80.32	  6.32	
 80.38	  6.25	
 80.39	  6.07	
 80.40	  6.26	
 80.40	  6.40	
 80.42	  6.34	
 80.42	  6.49	
 80.45	  6.69	
 80.46	  6.88	
 80.47	  6.70	
 80.47	  6.53	
 80.50	  6.38	
 80.50	  6.25	
 80.51	  6.18	
 80.53	  6.33	
 80.62	  6.46	
 80.63	  6.29	
 80.72	  6.24	
 80.77	  6.37	
 80.78	  6.53	
 80.79	  6.65	
 80.81	  6.77	
 80.85	  6.92	
 80.87	  6.79	
 80.87	  6.90	
 80.87	  7.00	
 80.88	  7.12	
 80.93	  7.01	
 80.94	  6.97	
 80.95	  6.86	
 80.95	  6.91	
 80.97	  6.99	
 81.01	  6.85	
 81.03	  6.80	
 81.04	  6.90	
 81.07	  6.84	
 81.08	  6.99	
 81.12	  6.94	
 81.13	  7.11	
 81.14	  7.29	
 81.15	  7.38	
 81.19	  7.30	
 81.20	  7.36	
 81.21	  7.51	
 81.23	  7.35	
 81.27	  7.26	
 81.28	  7.09	
 81.29	  7.01	
 81.30	  6.88	
 81.31	  6.95	
 81.33	  7.03	
 81.34	  6.90	
 81.34	  6.77	
 81.34	  6.66	
 81.36	  6.83	
 81.38	  6.65	
 81.40	  6.57	
 81.43	  6.43	
 81.46	  6.23	
 81.49	  6.04	
 81.50	  5.89	
 81.51	  5.96	
 81.51	  5.90	
 81.51	  5.70	
 81.55	  5.64	
 81.56	  5.46	
 81.59	  5.40	
 81.59	  5.35	
 81.60	  5.27	
 81.65	  5.22	
 81.67	  5.15	
 81.68	  5.03	
 81.69	  4.99	
 81.72	  4.79	
 81.73	  4.62	
 81.73	  4.51	
 81.74	  4.44	
 81.77	  4.28	
 81.78	  4.13	
 81.84	  3.94	
 81.89	  3.89	
 81.91	  3.77	
 81.94	  3.57	
 81.94	  3.75	
 81.94	  3.60	
 81.98	  3.46	
 82.00	  3.36	
 82.04	  3.20	
 82.09	  3.15	
 82.10	  2.95	
 82.11	  2.87	
 82.16	  2.96	
 82.17	  2.85	
 82.22	  2.96	
 82.33	  3.13	
 82.36	  2.95	
 82.36	  2.87	
 82.45	  2.79	
 82.52	  2.63	
 82.53	  2.53	
 82.55	  2.36	
 82.55	  2.24	
 82.56	  2.10	
 82.57	  1.98	
 82.58	  2.05	
 82.59	  1.98	
 82.67	  1.84	
 82.68	  1.77	
 82.72	  1.72	
 82.75	  1.92	
 82.78	  1.82	
 82.80	  1.69	
 82.89	  1.54	
 82.91	  1.46	
 82.97	  1.42	
 83.02	  1.26	
 83.12	  1.14	
 83.30	  1.06	
 83.34	  0.88	
 83.35	  0.75	
 83.40	  0.94	
 83.57	  0.79	
 83.65	  0.97	
 83.88	  0.79	
 84.16	  0.94	
 84.38	  0.76	
 84.47	  0.56	
 84.52	  0.66	
 84.60	  0.86	
 85.09	  1.03	
 85.32	  0.88	
 85.33	  1.06	
 85.51	  1.16	
 85.51	  1.09	
 85.60	  0.92	
 85.66	  0.73	
 85.96	  0.55	
 86.13	  0.63	
 86.45	  0.53	
 86.82	  0.43	
 86.98	  0.23	
 87.02	  0.41	
 87.02	  0.48	
 87.21	  0.30	
 87.61	  0.42	
 87.72	  0.61	
 87.97	  0.71	
 88.15	  0.87	
 88.30	  1.02	
 88.33	  1.13	
 88.40	  1.31	
 88.48	  1.17	
 88.66	  1.26	
 89.02	  1.16	
 89.05	  1.09	
 89.07	  1.02	
 89.20	  1.09	
 89.26	  0.91	
 89.54	  0.73	
 89.74	  0.56	
 90.31	  0.44	
 90.57	  0.35	
 90.64	  0.43	
 90.75	  0.59	
 90.78	  0.63	
 90.88	  0.55	
 91.10	  0.44	
 91.10	  0.59	
 91.28	  0.76	
 91.31	  0.89	
 91.32	  0.94	
 91.35	  0.78	
 91.49	  0.94	
 91.56	  1.11	
 91.63	  1.18	
 91.66	  1.24	
 91.68	  1.08	
 91.71	  1.25	
 91.80	  1.39	
 91.82	  1.53	
 91.91	  1.39	
 91.91	  1.31	
 91.96	  1.42	
 91.99	  1.50	
 92.01	  1.43	
 92.01	  1.54	
 92.02	  1.68	
 92.03	  1.80	
 92.06	  1.76	
 92.07	  1.90	
 92.08	  2.01	
 92.12	  2.16	
 92.14	  2.20	
 92.19	  2.28	
 92.23	  2.36	
 92.27	  2.51	
 92.30	  2.44	
 92.37	  2.37	
 92.43	  2.43	
 92.43	  2.31	
 92.46	  2.47	
 92.48	  2.54	
 92.55	  2.63	
 92.74	  2.51	
 92.88	  2.40	
 92.89	  2.47	
 93.11	  2.55	
 93.11	  2.40	
 93.19	  2.49	
 93.39	  2.42	
 93.39	  2.52	
 93.42	  2.57	
 93.53	  2.52	
 93.59	  2.37	
 93.70	  2.55	
 93.77	  2.64	
 93.79	  2.47	
 93.80	  2.32	
 93.84	  2.22	
 93.90	  2.07	
 94.00	  1.99	
 94.10	  1.86	
 94.10	  1.69	
 94.22	  1.55	
 94.26	  1.37	
 94.37	  1.29	
 94.46	  1.21	
 94.52	  1.14	
 94.58	  1.00	
 94.64	  0.89	
 94.91	  0.84	
 94.94	  0.70	
 95.05	  0.65	
 95.10	  0.57	
 95.19	  0.75	
 95.21	  0.67	
 95.91	  0.61	
 96.14	  0.43	
 96.17	  0.34	
 97.15	  0.16	
102.07	  0.29	
102.09	  0.34	
102.09	  0.42	
102.20	  0.55	
102.22	  0.72	
102.26	  0.83	
102.27	  0.97	
102.29	  1.06	
102.30	  1.23	
102.32	  1.37	
102.33	  1.54	
102.41	  1.69	
102.44	  1.72	
102.45	  1.84	
102.45	  1.96	
102.51	  2.00	
102.54	  2.18	
102.55	  2.22	
102.59	  2.33	
102.63	  2.36	
102.68	  2.47	
102.78	  2.36	
102.82	  2.56	
102.82	  2.64	
102.87	  2.72	
102.90	  2.86	
102.93	  3.00	
103.00	  3.05	
103.01	  3.08	
103.02	  3.23	
103.03	  3.37	
103.10	  3.42	
103.13	  3.46	
103.14	  3.49	
103.16	  3.53	
103.19	  3.68	
103.19	  3.85	
103.20	  3.82	
103.24	  3.97	
103.26	  3.88	
103.27	  4.01	
103.29	  4.12	
103.31	  4.21	
103.31	  4.26	
103.33	  4.38	
103.36	  4.47	
103.36	  4.58	
103.41	  4.41	
103.43	  4.48	
103.45	  4.57	
103.46	  4.40	
103.49	  4.45	
103.50	  4.61	
103.50	  4.77	
103.50	  4.72	
103.51	  4.86	
103.51	  4.95	
103.51	  5.12	
103.56	  5.26	
103.58	  5.40	
103.63	  5.26	
103.64	  5.14	
103.66	  5.10	
103.67	  5.17	
103.68	  5.24	
103.70	  5.13	
103.70	  5.03	
103.71	  5.20	
103.72	  5.30	
103.72	  5.19	
103.73	  5.05	
103.74	  5.22	
103.77	  5.10	
103.77	  4.96	
103.80	  5.00	
103.81	  4.97	
103.81	  4.84	
103.81	  4.99	
103.86	  4.92	
103.88	  5.05	
103.89	  5.25	
103.92	  5.41	
103.99	  5.32	
104.00	  5.51	
104.02	  5.58	
104.05	  5.75	
104.06	  5.72	
104.08	  5.64	
104.09	  5.71	
104.09	  5.82	
104.10	  5.99	
104.12	  6.14	
104.12	  6.21	
104.15	  6.17	
104.17	  6.13	
104.17	  6.25	
104.18	  6.35	
104.21	  6.27	
104.23	  6.10	
104.24	  5.95	
104.26	  6.14	
104.27	  6.31	
104.27	  6.47	
104.30	  6.33	
104.30	  6.44	
104.31	  6.31	
104.34	  6.41	
104.34	  6.22	
104.37	  6.27	
104.40	  6.30	
104.41	  6.34	
104.41	  6.51	
104.42	  6.65	
104.45	  6.52	
104.45	  6.72	
104.46	  6.82	
104.49	  6.72	
104.53	  6.55	
104.58	  6.50	
104.59	  6.63	
104.60	  6.77	
104.61	  6.68	
104.61	  6.83	
104.62	  6.70	
104.63	  6.84	
104.66	  6.73	
104.66	  6.89	
104.67	  6.75	
104.69	  6.69	
104.70	  6.53	
104.71	  6.45	
104.72	  6.62	
104.72	  6.81	
104.72	  6.66	
104.75	  6.62	
104.76	  6.44	
104.81	  6.63	
104.82	  6.77	
104.85	  6.89	
104.87	  7.08	
104.88	  7.11	
104.88	  6.96	
104.94	  6.91	
104.96	  7.11	
104.99	  6.96	
104.99	  6.78	
105.02	  6.85	
105.02	  6.74	
105.03	  6.56	
105.05	  6.70	
105.05	  6.51	
105.06	  6.44	
105.06	  6.26	
105.07	  6.30	
105.09	  6.12	
105.12	  6.03	
105.14	  5.89	
105.15	  6.00	
105.18	  5.93	
105.18	  6.07	
105.19	  5.93	
105.26	  5.78	
105.28	  5.64	
105.31	  5.44	
105.40	  5.49	
105.41	  5.40	
105.41	  5.46	
105.43	  5.43	
105.43	  5.61	
105.44	  5.74	
105.49	  5.70	
105.52	  5.56	
105.55	  5.41	
105.55	  5.21	
105.55	  5.09	
105.57	  5.05	
105.59	  4.91	
105.62	  4.84	
105.63	  4.73	
105.66	  4.53	
105.66	  4.44	
105.70	  4.25	
105.72	  4.09	
105.77	  3.97	
105.78	  3.80	
105.79	  3.63	
105.84	  3.53	
105.99	  3.36	
106.01	  3.26	
106.20	  3.19	
106.21	  3.05	
106.22	  2.95	
106.22	  2.82	
106.24	  2.79	
106.30	  2.64	
106.31	  2.61	
106.33	  2.51	
106.37	  2.32	
106.38	  2.13	
106.45	  2.10	
106.45	  2.02	
106.60	  1.86	
106.63	  1.76	
106.67	  1.73	
106.73	  1.58	
106.85	  1.61	
106.85	  1.55	
106.88	  1.60	
106.89	  1.48	
106.96	  1.34	
106.97	  1.17	
107.00	  0.97	
107.07	  1.01	
107.25	  1.06	
107.29	  1.20	
107.34	  1.16	
107.36	  1.01	
107.42	  0.87	
107.43	  0.81	
107.47	  0.65	
107.55	  0.69	
107.58	  0.52	
107.60	  0.59	
107.61	  0.68	
107.93	  0.63	
108.01	  0.79	
108.30	  0.87	
108.34	  0.84	
108.48	  0.90	
108.63	  0.97	
108.80	  0.92	
108.86	  0.83	
108.87	  0.68	
109.03	  0.82	
109.15	  0.74	
109.18	  0.71	
109.22	  0.87	
109.37	  0.83	
109.45	  0.76	
109.56	  0.60	
109.66	  0.74	
109.84	  0.89	
109.99	  0.81	
110.02	  0.94	
110.17	  0.87	
110.22	  0.92	
110.40	  1.03	
110.44	  0.89	
110.46	  0.73	
110.51	  0.59	
110.58	  0.79	
110.91	  0.64	
110.98	  0.81	
111.21	  0.93	
111.89	  1.02	
111.92	  1.07	
111.93	  1.21	
112.07	  1.29	
112.09	  1.15	
112.10	  1.22	
112.11	  1.09	
112.20	  1.27	
112.21	  1.08	
112.30	  1.00	
112.36	  0.88	
112.54	  0.83	
112.75	  0.98	
112.91	  1.05	
112.97	  0.86	
113.13	  0.75	
113.62	  0.84	
113.64	  0.68	
113.69	  0.60	
114.17	  0.75	
114.19	  0.92	
114.33	  1.00	
114.35	  0.93	
114.40	  0.84	
114.66	  0.80	
114.87	  0.64	
115.03	  0.50	
115.06	  0.55	
115.16	  0.67	
115.24	  0.62	
115.34	  0.71	
115.40	  0.84	
115.50	  0.75	
115.52	  0.87	
115.60	  0.97	
115.67	  0.90	
115.74	  1.05	
115.96	  1.21	
116.04	  1.40	
116.06	  1.51	
116.09	  1.61	
116.10	  1.81	
116.15	  1.91	
116.15	  2.09	
116.18	  2.23	
116.22	  2.39	
116.22	  2.57	
116.23	  2.38	
116.24	  2.53	
116.41	  2.64	
116.47	  2.71	
116.48	  2.78	
116.49	  2.91	
116.54	  3.03	
116.56	  3.23	
116.56	  3.29	
116.58	  3.42	
116.66	  3.54	
116.70	  3.42	
116.75	  3.30	
116.78	  3.18	
116.81	  3.08	
116.85	  3.22	
116.88	  3.30	
116.97	  3.12	
117.00	  3.24	
117.03	  3.32	
117.06	  3.12	
117.18	  3.16	
117.18	  3.04	
117.26	  2.85	
117.28	  2.70	
117.30	  2.58	
117.46	  2.46	
117.47	  2.66	
117.48	  2.49	
117.57	  2.31	
117.66	  2.20	
117.70	  2.06	
117.90	  1.97	
118.00	  2.06	
118.08	  1.94	
118.17	  1.86	
118.20	  1.77	
118.43	  1.69	
118.47	  1.57	
118.59	  1.48	
118.66	  1.42	
118.68	  1.25	
118.71	  1.09	
118.73	  0.94	
118.80	  1.01	
118.88	  0.86	
119.08	  0.73	
119.11	  0.53	
119.29	  0.73	
119.39	  0.66	
119.52	  0.58	
119.62	  0.46	
120.02	  0.42	
120.36	  0.36	
121.54	  0.16	
126.09	  0.26	
126.14	  0.45	
126.18	  0.55	
126.25	  0.74	
126.26	  0.78	
126.35	  0.91	
126.48	  0.73	
126.50	  0.77	
126.54	  0.94	
126.56	  1.02	
126.56	  1.17	
126.58	  1.25	
126.60	  1.42	
126.62	  1.60	
126.65	  1.74	
126.68	  1.88	
126.69	  2.06	
126.72	  2.11	
126.80	  2.17	
126.80	  2.21	
126.81	  2.31	
126.86	  2.34	
126.92	  2.25	
126.97	  2.29	
127.05	  2.44	
127.06	  2.55	
127.08	  2.74	
127.08	  2.88	
127.10	  2.70	
127.12	  2.76	
127.13	  2.81	
127.16	  2.94	
127.16	  3.10	
127.18	  3.18	
127.25	  3.22	
127.25	  3.19	
127.30	  3.34	
127.35	  3.52	
127.41	  3.58	
127.45	  3.65	
127.46	  3.73	
127.47	  3.91	
127.50	  4.00	
127.51	  4.14	
127.52	  4.32	
127.52	  4.44	
127.53	  4.40	
127.54	  4.34	
127.57	  4.26	
127.57	  4.46	
127.57	  4.65	
127.59	  4.55	
127.64	  4.66	
127.65	  4.70	
127.66	  4.80	
127.67	  4.83	
127.68	  4.67	
127.70	  4.83	
127.71	  5.03	
127.72	  4.85	
127.73	  4.70	
127.73	  4.75	
127.74	  4.93	
127.75	  4.87	
127.79	  4.97	
127.80	  4.82	
127.85	  4.66	
127.86	  4.83	
127.88	  4.95	
127.88	  5.09	
127.90	  5.19	
127.93	  5.27	
127.94	  5.16	
127.96	  5.30	
127.97	  5.17	
127.99	  5.12	
128.00	  5.17	
128.02	  5.21	
128.03	  5.33	
128.09	  5.53	
128.11	  5.35	
128.15	  5.17	
128.15	  5.26	
128.22	  5.20	
128.22	  5.01	
128.23	  4.96	
128.23	  5.08	
128.24	  5.19	
128.29	  5.28	
128.29	  5.42	
128.29	  5.33	
128.29	  5.37	
128.30	  5.56	
128.33	  5.70	
128.36	  5.83	
128.36	  5.94	
128.36	  5.83	
128.36	  5.72	
128.37	  5.90	
128.44	  5.95	
128.45	  6.11	
128.45	  6.31	
128.45	  6.49	
128.46	  6.36	
128.46	  6.24	
128.50	  6.36	
128.50	  6.52	
128.51	  6.43	
128.52	  6.47	
128.53	  6.33	
128.59	  6.14	
128.68	  6.09	
128.72	  6.18	
128.72	  6.30	
128.73	  6.16	
128.76	  6.33	
128.79	  6.14	
128.79	  6.19	
128.83	  5.99	
128.88	  5.91	
128.94	  6.08	
128.99	  6.19	
128.99	  5.99	
129.01	  5.89	
129.05	  5.81	
129.11	  5.70	
129.12	  5.54	
129.13	  5.40	
129.13	  5.37	
129.14	  5.24	
129.15	  5.06	
129.16	  5.17	
129.18	  5.08	
129.22	  4.94	
129.23	  4.97	
129.25	  4.80	
129.27	  4.98	
129.29	  4.84	
129.29	  4.90	
129.30	  4.75	
129.32	  4.57	
129.32	  4.60	
129.35	  4.56	
129.36	  4.51	
129.36	  4.63	
129.46	  4.50	
129.48	  4.36	
129.50	  4.45	
129.50	  4.31	
129.53	  4.14	
129.57	  4.02	
129.59	  3.93	
129.65	  3.75	
129.66	  3.65	
129.73	  3.62	
129.74	  3.48	
129.74	  3.39	
129.78	  3.20	
129.78	  3.16	
129.80	  3.08	
129.88	  2.96	
129.99	  2.86	
130.00	  2.76	
130.01	  2.71	
130.03	  2.60	
130.10	  2.55	
130.11	  2.43	
130.12	  2.53	
130.13	  2.33	
130.15	  2.18	
130.18	  2.09	
130.30	  2.13	
130.33	  1.95	
130.39	  1.83	
130.40	  1.65	
130.44	  1.61	
130.47	  1.58	
130.49	  1.73	
130.51	  1.54	
130.55	  1.42	
130.71	  1.30	
130.97	  1.26	
131.07	  1.18	
131.17	  1.14	
131.25	  0.96	
131.36	  0.76	
131.43	  0.94	
131.48	  0.90	
131.66	  0.86	
131.78	  0.81	
131.78	  0.66	
131.86	  0.57	
131.87	  0.45	
132.00	  0.38	
132.01	  0.57	
132.23	  0.38	
132.26	  0.57	
132.33	  0.52	
133.02	  0.58	
133.08	  0.73	
133.32	  0.92	
133.45	  1.04	
133.97	  0.86	
134.28	  0.94	
134.54	  0.88	
134.58	  0.97	
134.83	  0.85	
134.90	  0.66	
135.11	  0.76	
135.24	  0.61	
135.36	  0.78	
135.38	  0.96	
135.54	  0.88	
135.62	  1.08	
135.75	  1.17	
135.81	  0.97	
135.93	  0.78	
135.98	  0.86	
136.32	  1.02	
136.38	  1.13	
136.64	  0.95	
136.65	  0.78	
136.67	  0.83	
136.77	  0.98	
136.96	  0.89	
137.01	  0.81	
137.22	  0.73	
137.29	  0.81	
137.35	  0.71	
137.53	  0.77	
137.69	  0.67	
138.09	  0.79	
138.26	  0.71	
138.33	  0.55	
138.58	  0.40	
138.77	  0.28	
138.81	  0.31	
138.99	  0.25	
139.14	  0.34	
139.28	  0.51	
139.28	  0.66	
139.55	  0.70	
139.67	  0.85	
139.72	  0.99	
139.74	  1.19	
139.86	  1.09	
139.87	  1.23	
139.93	  1.07	
139.96	  1.19	
139.96	  1.38	
139.97	  1.35	
140.06	  1.47	
140.08	  1.53	
140.12	  1.47	
140.13	  1.51	
140.17	  1.61	
140.20	  1.48	
140.23	  1.62	
140.24	  1.67	
140.40	  1.53	
140.60	  1.66	
140.63	  1.49	
140.68	  1.53	
140.69	  1.72	
140.82	  1.66	
140.84	  1.70	
140.88	  1.77	
140.92	  1.64	
140.92	  1.79	
141.13	  1.68	
141.13	  1.83	
141.23	  1.64	
141.25	  1.80	
141.35	  1.99	
141.43	  1.79	
141.45	  1.60	
141.50	  1.45	
141.96	  1.41	
142.00	  1.31	
142.01	  1.19	
142.05	  1.04	
142.06	  0.85	
142.09	  1.02	
142.09	  0.98	
142.24	  1.11	
142.49	  1.04	
142.52	  1.00	
142.89	  1.03	
142.90	  1.00	
142.90	  0.86	
142.92	  0.81	
142.96	  0.92	
143.69	  0.81	
143.87	  0.66	
144.24	  0.50	
144.50	  0.37	
144.68	  0.19	
145.49	  0.16	
150.16	  0.29	
150.17	  0.39	
150.36	  0.55	
150.37	  0.63	
150.44	  0.79	
150.47	  0.91	
150.48	  1.07	
150.60	  1.10	
150.66	  0.97	
150.70	  1.16	
150.74	  1.23	
150.79	  1.43	
150.82	  1.54	
150.92	  1.64	
150.94	  1.78	
150.94	  1.87	
150.95	  1.93	
151.01	  1.98	
151.03	  2.12	
151.05	  2.24	
151.07	  2.34	
151.10	  2.42	
151.12	  2.46	
151.14	  2.57	
151.15	  2.74	
151.16	  2.79	
151.18	  2.89	
151.20	  2.99	
151.23	  3.07	
151.25	  3.26	
151.29	  3.30	
151.30	  3.43	
151.30	  3.51	
151.34	  3.59	
151.38	  3.76	
151.39	  3.89	
151.41	  4.02	
151.47	  4.06	
151.49	  4.21	
151.50	  4.26	
151.54	  4.43	
151.56	  4.35	
151.57	  4.44	
151.57	  4.63	
151.58	  4.80	
151.65	  4.67	
151.65	  4.76	
151.66	  4.94	
151.69	  4.88	
151.69	  4.95	
151.70	  5.00	
151.70	  5.05	
151.71	  5.18	
151.76	  5.37	
151.77	  5.41	
151.77	  5.57	
151.79	  5.73	
151.80	  5.83	
151.84	  6.02	
151.85	  6.21	
151.87	  6.29	
151.87	  6.12	
151.90	  6.29	
151.91	  6.37	
151.93	  6.44	
151.94	  6.58	
151.95	  6.62	
151.96	  6.68	
151.97	  6.55	
152.05	  6.39	
152.08	  6.47	
152.10	  6.38	
152.12	  6.32	
152.18	  6.21	
152.19	  6.32	
152.20	  6.29	
152.21	  6.45	
152.22	  6.53	
152.25	  6.60	
152.25	  6.65	
152.26	  6.50	
152.26	  6.55	
152.32	  6.62	
152.34	  6.50	
152.35	  6.67	
152.35	  6.86	
152.40	  6.69	
152.41	  6.79	
152.41	  6.87	
152.42	  6.68	
152.42	  6.51	
152.45	  6.68	
152.48	  6.77	
152.48	  6.70	
152.49	  6.83	
152.50	  6.97	
152.50	  7.16	
152.50	  7.00	
152.54	  7.04	
152.54	  7.22	
152.56	  7.27	
152.56	  7.46	
152.57	  7.27	
152.60	  7.21	
152.63	  7.36	
152.64	  7.47	
152.64	  7.66	
152.69	  7.52	
152.70	  7.57	
152.75	  7.49	
152.76	  7.32	
152.76	  7.48	
152.76	  7.30	
152.77	  7.33	
152.77	  7.39	
152.78	  7.32	
152.84	  7.22	
152.86	  7.03	
152.87	  6.99	
152.87	  6.79	
152.87	  6.83	
152.89	  6.87	
152.90	  6.84	
152.93	  6.76	
152.93	  6.72	
152.95	  6.77	
152.96	  6.59	
152.98	  6.47	
153.03	  6.38	
153.05	  6.27	
153.07	  6.34	
153.08	  6.27	
153.09	  6.23	
153.12	  6.13	
153.13	  6.25	
153.18	  6.06	
153.19	  5.97	
153.21	  6.01	
153.24	  5.93	
153.26	  5.74	
153.27	  5.85	
153.31	  6.02	
153.32	  6.22	
153.35	  6.11	
153.36	  6.29	
153.38	  6.11	
153.42	  5.98	
153.42	  5.80	
153.45	  5.74	
153.48	  5.69	
153.50	  5.64	
153.50	  5.45	
153.52	  5.37	
153.56	  5.27	
153.56	  5.17	
153.58	  5.09	
153.69	  5.02	
153.77	  4.96	
153.78	  4.89	
153.83	  4.84	
153.88	  4.80	
153.90	  4.68	
153.90	  4.81	
153.91	  4.71	
153.92	  4.61	
153.92	  4.55	
153.93	  4.41	
153.95	  4.28	
153.96	  4.16	
153.97	  4.13	
154.04	  4.08	
154.07	  3.98	
154.10	  3.90	
154.13	  3.85	
154.15	  3.65	
154.15	  3.48	
154.15	  3.32	
154.19	  3.17	
154.27	  3.05	
154.27	  2.91	
154.32	  2.87	
154.37	  2.70	
154.37	  2.56	
154.38	  2.51	
154.45	  2.38	
154.47	  2.21	
154.48	  2.33	
154.53	  2.25	
154.60	  2.21	
154.70	  2.03	
154.74	  1.84	
154.74	  1.66	
154.75	  1.61	
154.95	  1.56	
154.95	  1.40	
155.02	  1.31	
155.07	  1.25	
155.13	  1.09	
155.28	  0.97	
155.28	  0.89	
155.48	  0.73	
155.49	  0.62	
155.54	  0.54	
155.85	  0.58	
156.11	  0.53	
156.12	  0.33	
156.39	  0.20	
156.52	  0.37	
156.68	  0.52	
156.86	  0.48	
156.88	  0.33	
156.96	  0.41	
157.29	  0.33	
157.73	  0.52	
157.82	  0.63	
157.92	  0.81	
158.21	  1.00	
158.23	  0.80	
158.23	  0.63	
158.25	  0.83	
158.37	  0.66	
158.44	  0.73	
158.46	  0.91	
158.68	  1.00	
158.72	  1.18	
159.14	  1.00	
159.22	  0.80	
159.24	  0.93	
159.28	  0.73	
159.45	  0.66	
159.63	  0.57	
159.73	  0.65	
159.78	  0.82	
160.15	  0.64	
160.29	  0.54	
160.41	  0.41	
160.81	  0.60	
160.90	  0.71	
160.92	  0.53	
161.14	  0.70	
161.70	  0.51	
161.85	  0.54	
162.47	  0.72	
162.53	  0.65	
162.57	  0.70	
162.58	  0.86	
162.75	  1.01	
162.88	  0.86	
163.02	  0.92	
163.03	  0.95	
163.07	  0.90	
163.17	  0.80	
163.29	  0.83	
163.30	  0.96	
163.37	  1.15	
163.41	  1.21	
163.48	  1.35	
163.48	  1.54	
163.56	  1.71	
163.58	  1.79	
163.62	  1.97	
163.65	  1.78	
163.70	  1.75	
163.73	  1.58	
163.78	  1.45	
163.80	  1.42	
163.96	  1.38	
163.96	  1.44	
164.04	  1.57	
164.05	  1.75	
164.07	  1.87	
164.09	  2.05	
164.14	  2.20	
164.34	  2.05	
164.37	  2.13	
164.45	  2.19	
164.58	  2.33	
164.59	  2.50	
164.61	  2.44	
164.65	  2.30	
164.67	  2.46	
164.71	  2.29	
164.73	  2.41	
164.74	  2.53	
164.79	  2.71	
164.85	  2.65	
164.85	  2.52	
164.87	  2.45	
165.01	  2.53	
165.03	  2.60	
165.07	  2.42	
165.07	  2.57	
165.08	  2.69	
165.10	  2.63	
165.15	  2.73	
165.18	  2.61	
165.19	  2.72	
165.26	  2.56	
165.28	  2.73	
165.34	  2.55	
165.34	  2.38	
165.35	  2.20	
165.45	  2.31	
165.45	  2.35	
165.46	  2.17	
165.49	  1.99	
165.65	  1.87	
165.69	  1.75	
165.89	  1.68	
166.06	  1.52	
166.12	  1.44	
166.28	  1.25	
166.28	  1.41	
166.33	  1.36	
166.47	  1.26	
166.59	  1.15	
167.00	  1.11	
167.04	  1.02	
167.15	  1.22	
167.31	  1.06	
167.34	  0.92	
167.91	  0.75	
168.05	  0.63	
168.08	  0.52	
168.17	  0.36	
168.54	  0.16	
