 37.56	  0.35	  0.57	 38.13	     2	
 42.04	  0.68	  0.69	 42.72	     2	
 59.32	  0.64	  0.52	 59.84	     2	
 64.18	  0.46	  0.66	 64.84	     2	
109.90	  0.42	  0.60	110.50	     2	
110.37	  0.40	  0.73	111.10	     2	
140.69	  0.68	  0.62	141.31	     2	
152.31	  0.31	  0.51	152.83	     2	
