  6.19	  0.16	  1.64	  7.83	     4	
  6.30	  0.17	  0.16	  6.46	     4	
  6.46	  0.11	  0.27	  6.73	     4	
  6.54	  0.18	  0.13	  6.68	     4	
  6.74	  0.19	  1.79	  8.53	     4	
  6.74	  0.09	  0.36	  7.10	     4	
  7.02	  0.06	  0.33	  7.35	     4	
  7.10	  0.17	  1.88	  8.98	     4	
  7.15	  0.18	  0.84	  7.99	     4	
  7.17	  0.11	  0.38	  7.55	     4	
  7.39	  0.05	  1.63	  9.02	     4	
  7.44	  0.10	  1.33	  8.77	     4	
  7.44	  0.16	  2.62	 10.07	     4	
  7.76	  0.18	  2.93	 10.69	     4	
  7.79	  0.04	  2.29	 10.08	     4	
  7.88	  0.16	  2.07	  9.95	     4	
  8.16	  0.04	  0.59	  8.75	     4	
  8.34	  0.13	  0.48	  8.82	     4	
  8.36	  0.13	  0.86	  9.21	     4	
  8.40	  0.19	  0.69	  9.08	     4	
  8.47	  0.06	  0.70	  9.17	     4	
  8.47	  0.09	  0.40	  8.87	     4	
  8.56	  0.25	  0.60	  9.16	     3	
  9.17	  0.03	  2.79	 11.96	     4	
  9.23	  0.06	  1.46	 10.69	     4	
 10.18	  0.25	  0.60	 10.78	     3	
 10.25	  0.25	  0.60	 10.85	     3	
 10.26	  0.25	  0.60	 10.86	     3	
 10.99	  0.05	  1.59	 12.58	     4	
 11.02	  0.25	  0.60	 11.62	     3	
 11.33	  0.25	  0.60	 11.93	     3	
 11.34	  0.18	  0.41	 11.76	     4	
 11.45	  0.25	  0.60	 12.05	     3	
 12.06	  0.25	  0.60	 12.66	     3	
 12.60	  0.25	  0.60	 13.20	     3	
 13.09	  0.25	  0.60	 13.69	     3	
 13.33	  0.25	  0.60	 13.93	     3	
 14.06	  0.07	  2.60	 16.65	     4	
 15.11	  0.25	  0.60	 15.71	     3	
 15.67	  0.25	  0.60	 16.27	     3	
 16.11	  0.15	  0.34	 16.44	     4	
 16.80	  0.25	  0.60	 17.40	     3	
 16.95	  0.25	  0.60	 17.55	     3	
 17.22	  0.28	  1.11	 18.33	     5	
 17.34	  0.12	  2.53	 19.88	     4	
 17.36	  0.25	  0.60	 17.96	     3	
 17.39	  0.25	  0.60	 17.99	     3	
 17.88	  0.25	  0.60	 18.48	     3	
 18.35	  0.17	  0.34	 18.68	     4	
 18.99	  0.19	  2.17	 21.16	     4	
 19.10	  0.15	  1.80	 20.90	     4	
 19.37	  0.25	  0.60	 19.97	     3	
 19.43	  0.25	  0.60	 20.03	     3	
 19.59	  0.19	  1.34	 20.93	     4	
 19.73	  0.25	  0.60	 20.33	     3	
 19.76	  0.25	  0.60	 20.36	     3	
 19.90	  0.25	  0.60	 20.50	     3	
 20.59	  0.25	  0.60	 21.19	     3	
 20.69	  0.07	  0.13	 20.82	     4	
 20.73	  0.25	  0.60	 21.33	     3	
 20.87	  0.11	  1.36	 22.23	     4	
 20.94	  0.18	  1.34	 22.28	     4	
 21.03	  0.15	  0.57	 21.60	     4	
 21.21	  0.25	  0.60	 21.81	     3	
 21.27	  0.25	  0.60	 21.87	     3	
 21.42	  0.25	  0.60	 22.02	     3	
 21.47	  0.13	  2.61	 24.08	     4	
 22.02	  1.01	  1.18	 23.20	     1	
 22.16	  0.07	  2.86	 25.03	     4	
 22.43	  0.25	  0.60	 23.03	     3	
 22.82	  0.18	  0.15	 22.97	     4	
 23.31	  0.10	  2.38	 25.70	     4	
 23.36	  0.25	  0.60	 23.96	     3	
 23.68	  0.25	  0.60	 24.28	     3	
 23.96	  0.25	  0.60	 24.56	     3	
 30.36	  0.13	  0.57	 30.93	     4	
 31.08	  0.20	  2.65	 33.72	     4	
 31.10	  0.12	  0.27	 31.37	     4	
 31.16	  0.17	  0.64	 31.81	     4	
 31.17	  0.10	  1.17	 32.34	     4	
 31.24	  0.13	  1.03	 32.28	     4	
 31.28	  0.08	  2.71	 33.99	     4	
 31.32	  0.05	  1.58	 32.90	     4	
 31.34	  0.05	  2.87	 34.21	     4	
 31.39	  0.07	  2.78	 34.16	     4	
 31.50	  0.15	  0.94	 32.44	     4	
 31.53	  0.10	  0.74	 32.27	     4	
 31.66	  0.19	  0.59	 32.26	     4	
 31.71	  0.18	  0.14	 31.85	     4	
 31.96	  0.05	  2.76	 34.72	     4	
 32.18	  0.05	  1.41	 33.59	     4	
 32.25	  0.14	  1.84	 34.09	     4	
 32.41	  0.17	  2.04	 34.45	     4	
 32.45	  0.16	  0.40	 32.85	     4	
 32.45	  0.08	  1.30	 33.75	     4	
 32.45	  0.18	  1.71	 34.16	     4	
 32.52	  0.18	  0.66	 33.18	     4	
 32.72	  0.25	  0.60	 33.32	     3	
 32.78	  0.11	  2.90	 35.68	     4	
 32.78	  0.25	  0.60	 33.38	     3	
 32.87	  0.03	  0.16	 33.03	     4	
 32.99	  0.04	  1.77	 34.76	     4	
 33.13	  0.20	  0.26	 33.39	     4	
 33.17	  0.25	  0.60	 33.77	     3	
 33.20	  0.25	  0.60	 33.80	     3	
 33.39	  0.13	  1.70	 35.09	     4	
 33.39	  0.25	  0.60	 33.99	     3	
 34.20	  0.25	  0.60	 34.80	     3	
 35.82	  0.18	  0.14	 35.95	     4	
 36.05	  0.25	  0.60	 36.65	     3	
 36.26	  0.25	  0.60	 36.86	     3	
 36.30	  0.25	  0.60	 36.90	     3	
 36.31	  0.25	  0.60	 36.91	     3	
 37.15	  0.25	  0.60	 37.75	     3	
 37.45	  0.25	  0.60	 38.05	     3	
 37.55	  0.25	  0.60	 38.15	     3	
 37.56	  0.35	  0.57	 38.13	     2	
 37.68	  0.25	  0.60	 38.28	     3	
 37.70	  0.08	  2.07	 39.77	     4	
 37.84	  0.16	  2.07	 39.90	     4	
 37.93	  0.25	  0.60	 38.53	     3	
 37.97	  0.25	  0.60	 38.57	     3	
 38.38	  0.25	  0.60	 38.98	     3	
 38.54	  0.25	  0.60	 39.14	     3	
 39.30	  0.25	  0.60	 39.90	     3	
 40.58	  0.12	  0.89	 41.47	     4	
 41.19	  0.08	  0.99	 42.18	     4	
 41.33	  0.10	  1.62	 42.95	     4	
 41.77	  0.25	  0.60	 42.37	     3	
 42.04	  0.68	  0.69	 42.72	     2	
 42.31	  0.25	  0.60	 42.91	     3	
 42.89	  1.73	  0.96	 43.85	     1	
 43.05	  0.17	  2.46	 45.51	     4	
 43.10	  0.25	  0.60	 43.70	     3	
 43.15	  0.25	  0.60	 43.75	     3	
 43.19	  0.06	  1.50	 44.68	     4	
 43.33	  0.19	  2.16	 45.50	     4	
 43.36	  0.25	  0.60	 43.96	     3	
 43.48	  0.17	  0.73	 44.20	     4	
 43.89	  0.11	  1.16	 45.04	     4	
 44.04	  0.08	  1.29	 45.33	     4	
 44.43	  0.03	  1.73	 46.16	     4	
 44.98	  0.18	  2.94	 47.92	     4	
 45.02	  0.15	  2.93	 47.95	     4	
 45.32	  0.16	  2.25	 47.56	     4	
 45.33	  0.09	  0.85	 46.18	     4	
 46.10	  0.06	  0.88	 46.99	     4	
 46.51	  0.25	  0.60	 47.11	     3	
 46.89	  0.25	  0.60	 47.49	     3	
 46.89	  0.17	  1.24	 48.13	     4	
 47.03	  0.13	  1.94	 48.97	     4	
 47.43	  0.25	  0.60	 48.03	     3	
 47.89	  0.25	  0.60	 48.49	     3	
 48.11	  0.25	  0.60	 48.71	     3	
 48.38	  0.25	  0.60	 48.98	     3	
 52.33	  0.22	  2.85	 55.18	     5	
 54.07	  0.04	  2.49	 56.56	     4	
 54.54	  0.06	  0.84	 55.38	     4	
 54.60	  0.04	  0.82	 55.41	     4	
 54.64	  0.09	  0.66	 55.30	     4	
 54.78	  0.19	  0.99	 55.78	     4	
 54.96	  0.10	  0.23	 55.19	     4	
 55.03	  0.08	  1.05	 56.08	     4	
 55.17	  0.20	  1.60	 56.78	     4	
 55.43	  0.11	  0.79	 56.22	     4	
 55.44	  0.12	  0.59	 56.03	     4	
 55.72	  0.16	  0.84	 56.56	     4	
 55.74	  0.24	  0.92	 56.66	     5	
 55.77	  0.11	  2.26	 58.03	     4	
 56.12	  0.19	  0.58	 56.70	     4	
 56.17	  0.15	  1.33	 57.50	     4	
 56.29	  0.14	  2.54	 58.83	     4	
 56.35	  0.18	  2.13	 58.48	     4	
 56.40	  0.03	  0.54	 56.94	     4	
 56.40	  0.13	  1.65	 58.05	     4	
 56.45	  0.10	  1.54	 58.00	     4	
 56.49	  0.13	  1.71	 58.20	     4	
 56.57	  0.06	  2.63	 59.20	     4	
 56.65	  0.11	  0.45	 57.10	     4	
 56.67	  0.25	  0.60	 57.27	     3	
 56.91	  0.25	  0.60	 57.51	     3	
 56.98	  0.09	  1.00	 57.99	     4	
 57.00	  0.25	  0.60	 57.60	     3	
 57.28	  0.25	  0.60	 57.88	     3	
 57.32	  0.10	  1.64	 58.95	     4	
 57.62	  0.25	  0.60	 58.22	     3	
 58.12	  0.25	  0.60	 58.72	     3	
 58.27	  0.23	  2.03	 60.30	     5	
 58.81	  0.25	  0.60	 59.41	     3	
 59.32	  0.64	  0.52	 59.84	     2	
 59.98	  2.22	  1.09	 61.07	     1	
 60.25	  0.25	  0.60	 60.85	     3	
 60.54	  0.25	  0.60	 61.14	     3	
 60.72	  0.18	  1.45	 62.18	     4	
 60.74	  0.25	  0.60	 61.34	     3	
 60.84	  0.25	  0.60	 61.44	     3	
 60.91	  0.25	  0.60	 61.51	     3	
 61.02	  0.25	  0.60	 61.62	     3	
 61.25	  0.12	  1.80	 63.05	     5	
 62.42	  0.25	  0.60	 63.02	     3	
 62.87	  0.17	  0.34	 63.21	     5	
 63.33	  0.25	  0.60	 63.93	     3	
 63.52	  0.16	  2.93	 66.45	     4	
 63.76	  0.06	  1.31	 65.08	     4	
 63.98	  0.25	  0.60	 64.58	     3	
 64.18	  0.46	  0.66	 64.84	     2	
 64.65	  0.25	  0.60	 65.25	     3	
 65.40	  0.07	  0.37	 65.77	     4	
 65.52	  0.18	  2.69	 68.21	     5	
 66.07	  0.13	  3.83	 69.90	     5	
 66.19	  0.25	  0.60	 66.79	     3	
 66.47	  0.25	  0.60	 67.07	     3	
 67.06	  0.08	  1.02	 68.07	     4	
 67.35	  0.25	  0.60	 67.95	     3	
 67.38	  0.08	  1.55	 68.94	     4	
 67.47	  0.25	  0.60	 68.07	     3	
 67.70	  0.07	  2.94	 70.64	     4	
 68.26	  0.20	  1.22	 69.48	     4	
 68.34	  0.25	  0.60	 68.94	     3	
 68.57	  0.19	  1.11	 69.68	     4	
 68.59	  0.25	  0.60	 69.19	     3	
 68.59	  0.06	  0.77	 69.36	     4	
 68.83	  0.25	  0.60	 69.43	     3	
 69.16	  0.25	  0.60	 69.76	     3	
 69.32	  0.25	  0.60	 69.92	     3	
 69.33	  0.19	  0.82	 70.15	     4	
 69.83	  0.25	  0.60	 70.43	     3	
 69.92	  0.25	  0.60	 70.52	     3	
 70.04	  0.25	  0.60	 70.64	     3	
 70.17	  0.25	  0.60	 70.77	     3	
 70.28	  0.16	  2.50	 72.79	     4	
 70.61	  0.25	  0.60	 71.21	     3	
 70.68	  0.25	  0.60	 71.28	     3	
 70.70	  0.25	  0.60	 71.30	     3	
 70.80	  0.25	  0.60	 71.40	     3	
 70.83	  0.25	  0.60	 71.43	     3	
 70.94	  0.25	  0.60	 71.54	     3	
 71.98	  0.25	  0.60	 72.58	     3	
 72.23	  0.25	  0.60	 72.83	     3	
 77.86	  1.90	  0.52	 78.38	     1	
 78.10	  0.27	  0.92	 79.02	     5	
 78.37	  0.15	  1.65	 80.02	     4	
 78.43	  0.10	  1.21	 79.64	     4	
 78.69	  0.07	  0.77	 79.46	     4	
 78.72	  0.15	  2.78	 81.50	     4	
 78.81	  0.12	  2.87	 81.68	     4	
 78.98	  0.07	  2.76	 81.74	     4	
 79.02	  0.07	  2.65	 81.67	     4	
 79.12	  0.07	  2.43	 81.55	     4	
 79.21	  0.11	  1.74	 80.95	     4	
 79.36	  0.19	  2.02	 81.38	     4	
 79.39	  0.07	  1.03	 80.42	     4	
 79.54	  0.03	  0.69	 80.23	     4	
 79.74	  0.05	  1.85	 81.59	     4	
 79.90	  0.19	  1.59	 81.49	     4	
 80.20	  0.11	  1.97	 82.17	     4	
 80.21	  0.08	  1.39	 81.60	     4	
 80.30	  0.15	  1.74	 82.04	     4	
 80.31	  0.17	  0.16	 80.47	     4	
 80.45	  0.20	  1.27	 81.72	     4	
 80.79	  0.12	  1.76	 82.55	     4	
 80.87	  0.25	  0.60	 81.47	     3	
 80.87	  0.09	  1.91	 82.78	     4	
 81.15	  0.09	  1.22	 82.36	     4	
 81.86	  0.25	  0.60	 82.46	     3	
 81.96	  0.25	  0.60	 82.56	     3	
 82.38	  0.25	  0.60	 82.98	     3	
 82.42	  0.25	  0.60	 83.02	     3	
 82.58	  0.07	  2.93	 85.51	     4	
 82.79	  0.25	  0.60	 83.39	     3	
 83.20	  0.25	  0.60	 83.80	     3	
 83.30	  0.25	  0.60	 83.90	     3	
 83.40	  0.19	  2.25	 85.66	     4	
 83.46	  0.25	  0.60	 84.06	     3	
 84.48	  0.25	  0.60	 85.08	     3	
 84.52	  0.10	  2.30	 86.82	     4	
 84.60	  0.19	  2.38	 86.98	     4	
 85.00	  0.25	  0.60	 85.60	     3	
 85.13	  0.25	  0.60	 85.73	     3	
 85.70	  0.25	  0.60	 86.30	     3	
 86.13	  0.07	  2.92	 89.05	     4	
 86.57	  0.25	  0.60	 87.17	     3	
 86.65	  0.25	  0.60	 87.25	     3	
 87.25	  0.25	  0.60	 87.85	     3	
 87.36	  0.25	  0.60	 87.96	     3	
 87.51	  0.50	  0.56	 88.07	     2	
 87.61	  0.12	  2.71	 90.31	     4	
 87.90	  0.25	  0.60	 88.50	     3	
 88.17	  0.25	  0.60	 88.77	     3	
 88.33	  0.11	  2.77	 91.10	     4	
 88.41	  0.25	  0.60	 89.01	     3	
 89.33	  0.25	  0.60	 89.93	     3	
 89.47	  0.25	  0.60	 90.07	     3	
 89.47	  0.25	  0.60	 90.07	     3	
 90.50	  0.25	  0.60	 91.10	     3	
 90.76	  0.25	  0.60	 91.36	     3	
 90.90	  0.25	  0.60	 91.50	     3	
 91.01	  0.25	  0.60	 91.61	     3	
 91.10	  0.15	  2.80	 93.90	     4	
 91.18	  0.25	  0.60	 91.78	     3	
 91.35	  0.25	  0.60	 91.95	     3	
 91.49	  0.16	  2.32	 93.80	     4	
 91.56	  0.18	  2.70	 94.26	     4	
 91.64	  0.25	  0.60	 92.24	     3	
 91.92	  0.25	  0.60	 92.52	     3	
 92.01	  0.10	  2.62	 94.64	     4	
 92.07	  0.14	  2.15	 94.22	     4	
 92.13	  0.25	  0.60	 92.73	     3	
 92.26	  0.25	  0.60	 92.86	     3	
 92.55	  0.08	  1.82	 94.37	     4	
 92.81	  0.14	  2.19	 95.00	     5	
 93.19	  0.09	  2.01	 95.21	     4	
 93.39	  0.10	  0.45	 93.84	     4	
 93.62	  0.25	  0.60	 94.22	     3	
 93.95	  0.14	  0.33	 94.28	     5	
 93.97	  0.25	  0.60	 94.57	     3	
 94.10	  0.23	  3.11	 97.21	     5	
 94.20	  0.25	  0.60	 94.80	     3	
 94.36	  0.25	  0.60	 94.96	     3	
 94.58	  0.25	  0.60	 95.18	     3	
 94.89	  2.33	  0.30	 95.19	     1	
 94.97	  0.25	  0.60	 95.57	     3	
 95.20	  0.25	  0.60	 95.80	     3	
 95.38	  0.25	  0.60	 95.98	     3	
 95.46	  0.25	  0.60	 96.06	     3	
 95.98	  0.25	  0.60	 96.58	     3	
102.07	  0.13	  2.55	104.62	     4	
102.20	  0.13	  1.61	103.81	     4	
102.22	  0.17	  2.32	104.53	     4	
102.26	  0.10	  1.44	103.70	     4	
102.27	  0.14	  2.87	105.14	     4	
102.29	  0.09	  0.97	103.26	     4	
102.45	  0.12	  1.20	103.64	     4	
102.63	  0.03	  0.57	103.20	     4	
102.90	  0.15	  2.08	104.99	     4	
103.00	  0.05	  1.58	104.58	     4	
103.01	  0.04	  1.06	104.06	     4	
103.03	  0.14	  0.60	103.63	     4	
103.14	  0.03	  1.03	104.17	     4	
103.16	  0.04	  2.40	105.57	     4	
103.19	  0.15	  0.58	103.77	     4	
103.36	  0.09	  2.05	105.41	     4	
103.36	  0.11	  0.36	103.72	     4	
103.43	  0.07	  2.78	106.20	     4	
103.49	  0.04	  0.66	104.15	     4	
103.51	  0.13	  2.71	106.22	     4	
103.74	  0.17	  2.25	105.99	     4	
103.80	  0.04	  2.65	106.45	     4	
103.81	  0.16	  1.74	105.55	     4	
103.92	  0.16	  2.68	106.60	     4	
104.02	  0.07	  1.15	105.18	     4	
104.17	  0.11	  0.85	105.02	     4	
104.40	  0.03	  1.84	106.24	     4	
104.60	  0.13	  2.82	107.42	     4	
104.72	  0.19	  1.65	106.37	     4	
104.88	  0.03	  1.79	106.67	     4	
104.97	  0.25	  0.60	105.57	     3	
105.05	  0.14	  1.91	106.96	     4	
105.17	  0.25	  0.60	105.77	     3	
105.40	  0.04	  1.95	107.34	     4	
105.44	  0.25	  0.60	106.04	     3	
105.44	  0.25	  0.60	106.04	     3	
106.29	  0.25	  0.60	106.89	     3	
106.78	  0.25	  0.60	107.38	     3	
106.88	  0.05	  1.92	108.80	     4	
107.00	  0.25	  0.60	107.60	     3	
107.07	  0.04	  2.30	109.37	     4	
107.54	  0.25	  0.60	108.14	     3	
107.58	  0.25	  0.60	108.18	     3	
108.04	  0.25	  0.60	108.64	     3	
108.28	  0.25	  0.60	108.88	     3	
108.40	  0.25	  0.60	109.00	     3	
108.48	  0.07	  1.69	110.17	     4	
109.22	  0.25	  0.60	109.82	     3	
109.46	  0.25	  0.60	110.06	     3	
109.66	  0.14	  0.85	110.51	     4	
109.84	  0.15	  1.07	110.91	     4	
109.90	  0.42	  0.60	110.50	     2	
110.28	  0.25	  0.60	110.88	     3	
110.30	  1.92	  1.10	111.40	     1	
110.37	  0.40	  0.73	111.10	     2	
110.40	  0.11	  2.73	113.13	     4	
110.58	  0.19	  1.63	112.21	     4	
110.70	  0.25	  0.60	111.30	     3	
110.73	  0.25	  0.60	111.33	     3	
110.74	  0.10	  0.61	111.35	     5	
110.75	  0.25	  0.60	111.35	     3	
110.98	  0.17	  2.66	113.64	     4	
111.89	  0.09	  2.50	114.40	     4	
111.92	  0.04	  2.74	114.66	     4	
111.94	  0.25	  0.60	112.54	     3	
112.38	  0.25	  0.60	112.98	     3	
112.75	  0.15	  2.12	114.87	     4	
113.67	  0.25	  0.60	114.27	     3	
114.40	  0.25	  0.60	115.00	     3	
114.58	  0.25	  0.60	115.18	     3	
114.71	  0.13	  2.84	117.56	     5	
115.16	  0.12	  2.02	117.18	     4	
115.22	  0.25	  0.60	115.82	     3	
115.34	  0.09	  2.86	118.20	     4	
116.22	  0.16	  2.50	118.71	     4	
116.24	  0.15	  2.50	118.73	     4	
116.32	  0.25	  0.60	116.92	     3	
116.48	  0.07	  2.91	119.39	     4	
116.94	  0.25	  0.60	117.54	     3	
117.03	  0.08	  0.87	117.90	     4	
117.40	  0.25	  0.60	118.00	     3	
117.48	  2.26	  0.51	117.99	     1	
117.49	  0.25	  0.60	118.09	     3	
117.51	  0.25	  0.60	118.11	     3	
117.51	  0.25	  0.60	118.11	     3	
117.75	  0.25	  0.60	118.35	     3	
117.76	  0.23	  2.64	120.41	     5	
118.64	  0.25	  0.60	119.24	     3	
119.29	  0.20	  2.25	121.54	     4	
119.37	  0.25	  0.60	119.97	     3	
119.55	  0.25	  0.60	120.15	     3	
120.19	  0.25	  0.60	120.79	     3	
122.62	  0.21	  1.65	124.27	     5	
126.01	  0.12	  3.73	129.74	     5	
126.35	  0.13	  1.62	127.97	     4	
126.50	  0.04	  2.85	129.35	     4	
126.56	  0.08	  1.73	128.29	     4	
126.60	  0.16	  1.08	127.68	     4	
126.62	  0.19	  1.53	128.15	     4	
126.80	  0.06	  0.95	127.75	     4	
126.81	  0.10	  0.78	127.59	     4	
126.86	  0.03	  0.39	127.25	     4	
127.08	  0.20	  1.76	128.83	     4	
127.12	  0.06	  0.41	127.54	     4	
127.16	  0.15	  2.99	130.15	     4	
127.35	  0.18	  1.96	129.32	     4	
127.41	  0.06	  0.81	128.22	     4	
127.47	  0.18	  1.12	128.59	     4	
127.57	  0.20	  1.42	128.99	     4	
127.67	  0.03	  2.07	129.73	     4	
127.71	  0.19	  2.42	130.13	     4	
127.79	  0.10	  1.22	129.01	     4	
127.90	  0.10	  2.09	129.99	     4	
128.15	  0.09	  2.03	130.18	     4	
128.25	  1.93	  0.49	128.74	     1	
128.29	  0.14	  1.21	129.50	     4	
128.33	  0.14	  0.95	129.29	     4	
128.37	  0.18	  0.79	129.15	     4	
128.45	  0.18	  1.95	130.40	     4	
128.59	  0.25	  0.60	129.19	     3	
128.69	  0.25	  0.60	129.29	     3	
128.76	  0.16	  0.77	129.53	     4	
128.79	  0.05	  2.99	131.78	     4	
129.27	  0.18	  1.98	131.25	     4	
129.29	  0.07	  2.71	132.00	     4	
129.56	  0.25	  0.60	130.16	     3	
129.78	  0.25	  0.60	130.38	     3	
130.90	  0.25	  0.60	131.50	     3	
131.13	  0.25	  0.60	131.73	     3	
131.41	  0.25	  0.60	132.01	     3	
131.53	  0.25	  0.60	132.13	     3	
131.56	  0.25	  0.60	132.16	     3	
132.78	  0.25	  0.60	133.38	     3	
133.40	  0.25	  0.60	134.00	     3	
133.42	  0.25	  0.60	134.02	     3	
133.77	  0.25	  0.60	134.37	     3	
134.23	  0.25	  0.60	134.83	     3	
134.66	  2.26	  0.64	135.30	     1	
134.68	  0.25	  0.60	135.28	     3	
134.84	  0.25	  0.60	135.44	     3	
135.08	  0.25	  0.60	135.68	     3	
135.11	  0.10	  2.58	137.69	     4	
135.53	  0.25	  0.60	136.13	     3	
135.57	  0.25	  0.60	136.17	     3	
135.61	  0.25	  0.60	136.21	     3	
135.97	  0.25	  0.60	136.57	     3	
135.98	  0.08	  1.03	137.01	     4	
136.38	  0.10	  0.98	137.35	     4	
136.54	  0.25	  0.60	137.14	     3	
136.67	  0.06	  2.31	138.99	     4	
136.76	  0.25	  0.60	137.36	     3	
137.64	  0.25	  0.60	138.24	     3	
137.77	  0.25	  0.60	138.37	     3	
138.09	  0.13	  0.68	138.77	     4	
138.10	  0.25	  0.60	138.70	     3	
138.30	  0.25	  0.60	138.90	     3	
138.54	  0.25	  0.60	139.14	     3	
139.03	  0.25	  0.60	139.63	     3	
139.47	  0.25	  0.60	140.07	     3	
140.04	  0.25	  0.60	140.64	     3	
140.13	  0.04	  2.76	142.90	     4	
140.60	  0.25	  0.60	141.20	     3	
140.67	  0.25	  0.60	141.27	     3	
140.69	  0.68	  0.62	141.31	     2	
140.86	  0.25	  0.60	141.46	     3	
140.88	  0.07	  1.61	142.49	     4	
140.92	  0.16	  2.95	143.87	     4	
141.12	  0.25	  0.60	141.72	     3	
141.35	  0.19	  0.71	142.06	     4	
141.73	  0.25	  0.60	142.33	     3	
142.33	  0.25	  0.60	142.93	     3	
142.47	  0.25	  0.60	143.07	     3	
143.63	  0.25	  0.60	144.23	     3	
144.10	  0.27	  0.85	144.95	     5	
144.10	  0.25	  0.60	144.70	     3	
144.27	  0.25	  0.60	144.87	     3	
150.47	  0.12	  2.51	152.98	     4	
150.70	  0.18	  2.06	152.76	     4	
150.94	  0.10	  2.98	153.92	     4	
151.14	  0.12	  1.20	152.34	     4	
151.30	  0.12	  0.35	151.65	     4	
151.38	  0.17	  2.04	153.42	     4	
151.47	  0.04	  2.85	154.32	     4	
151.58	  0.16	  2.79	154.37	     4	
151.69	  0.07	  1.76	153.45	     4	
151.70	  0.05	  2.43	154.13	     4	
151.84	  0.18	  2.90	154.74	     4	
151.91	  0.08	  2.62	154.53	     4	
151.93	  0.07	  1.15	153.08	     4	
152.08	  0.08	  0.85	152.93	     4	
152.31	  0.31	  0.51	152.83	     2	
152.41	  0.10	  1.15	153.56	     4	
152.54	  0.18	  0.84	153.38	     4	
152.71	  0.25	  0.60	153.31	     3	
152.76	  0.11	  0.60	153.35	     5	
152.95	  0.04	  1.09	154.04	     4	
153.07	  0.08	  2.47	155.54	     4	
153.13	  0.12	  0.83	153.96	     4	
153.37	  0.25	  0.60	153.97	     3	
153.39	  0.25	  0.60	153.99	     3	
153.42	  0.25	  0.60	154.02	     3	
153.89	  0.25	  0.60	154.49	     3	
153.97	  0.25	  0.60	154.57	     3	
154.38	  0.25	  0.60	154.98	     3	
154.44	  0.25	  0.60	155.04	     3	
154.48	  0.11	  0.80	155.28	     4	
155.12	  0.25	  0.60	155.72	     3	
155.26	  0.25	  0.60	155.86	     3	
155.28	  0.25	  0.60	155.88	     3	
155.63	  0.25	  0.60	156.23	     3	
155.70	  0.25	  0.60	156.30	     3	
156.02	  0.25	  0.60	156.62	     3	
157.08	  0.25	  0.60	157.68	     3	
157.16	  0.25	  0.60	157.76	     3	
157.59	  0.25	  0.60	158.19	     3	
157.69	  0.25	  0.60	158.29	     3	
157.83	  0.25	  0.60	158.43	     3	
158.35	  0.25	  0.60	158.95	     3	
158.52	  0.25	  0.60	159.12	     3	
158.91	  0.25	  0.60	159.51	     3	
159.31	  0.25	  0.60	159.91	     3	
159.85	  0.25	  0.60	160.45	     3	
159.93	  0.25	  0.60	160.53	     3	
160.72	  0.25	  0.60	161.32	     3	
160.89	  0.25	  0.60	161.49	     3	
160.89	  2.18	  0.92	161.81	     1	
161.05	  0.25	  0.60	161.65	     3	
161.57	  0.25	  0.60	162.17	     3	
161.71	  0.25	  0.60	162.31	     3	
161.76	  0.25	  0.60	162.36	     3	
161.76	  0.25	  0.60	162.36	     3	
162.26	  0.25	  0.60	162.86	     3	
162.47	  0.25	  0.60	163.07	     3	
162.85	  0.25	  0.60	163.45	     3	
162.91	  0.25	  0.60	163.51	     3	
163.29	  0.03	  0.51	163.80	     4	
163.48	  0.19	  0.17	163.65	     4	
163.56	  0.17	  1.78	165.34	     4	
163.62	  0.18	  1.85	165.46	     4	
163.77	  0.25	  0.60	164.37	     3	
163.95	  0.25	  0.60	164.55	     3	
163.96	  0.06	  0.88	164.85	     4	
164.04	  0.12	  0.81	164.85	     4	
164.16	  0.25	  0.60	164.76	     3	
164.21	  0.25	  0.60	164.81	     3	
164.42	  0.25	  0.60	165.02	     3	
164.46	  0.25	  0.60	165.06	     3	
164.67	  0.16	  1.39	166.06	     4	
164.73	  0.11	  0.97	165.69	     4	
164.93	  0.25	  0.60	165.53	     3	
165.01	  0.09	  2.03	167.04	     4	
165.08	  0.11	  2.97	168.05	     4	
165.09	  0.25	  0.60	165.69	     3	
165.19	  0.11	  2.89	168.08	     4	
165.28	  0.18	  2.63	167.91	     4	
165.91	  0.25	  0.60	166.51	     3	
166.03	  0.25	  0.60	166.63	     3	
166.94	  0.25	  0.60	167.54	     3	
167.38	  0.25	  0.60	167.98	     3	
167.84	  0.25	  0.60	168.44	     3	
167.90	  0.25	  0.60	168.50	     3	
168.09	  0.25	  0.60	168.69	     3	
