  0.00	  0.01	
  0.25	  0.01	
  0.50	  0.01	
  0.75	  0.01	
  1.00	  0.01	
  1.25	  0.01	
  1.50	  0.01	
  1.75	  0.01	
  2.00	  0.01	
  2.25	  0.01	
  2.50	  0.01	
  2.75	  0.01	
  3.00	  0.01	
  3.25	  0.01	
  3.50	  0.01	
  3.75	  0.01	
  4.00	  0.01	
  4.25	  0.01	
  4.50	  0.01	
  4.75	  0.01	
  5.00	  0.01	
  5.25	  0.01	
  5.50	  0.01	
  5.75	  0.01	
  6.00	  0.01	
  6.25	  0.01	
  6.50	  0.01	
  6.75	  0.01	
  7.00	  0.01	
  7.25	  0.01	
  7.50	  0.01	
  7.75	  0.01	
  8.00	  0.01	
  8.25	  0.01	
  8.50	  0.01	
  8.75	  0.01	
  9.00	  0.01	
  9.25	  0.01	
  9.50	  0.01	
  9.75	  0.01	
 10.00	  0.01	
 10.25	  0.01	
 10.50	  0.01	
 10.75	  0.01	
 11.00	  0.01	
 11.25	  0.01	
 11.50	  0.01	
 11.75	  0.01	
 12.00	  0.01	
 12.25	  0.01	
 12.50	  0.01	
 12.75	  0.01	
 13.00	  0.01	
 13.25	  0.01	
 13.50	  0.01	
 13.75	  0.01	
 14.00	  0.01	
 14.25	  0.01	
 14.50	  0.01	
 14.75	  0.01	
 15.00	  0.01	
 15.25	  0.01	
 15.50	  0.01	
 15.75	  0.01	
 16.00	  0.01	
 16.25	  0.01	
 16.50	  0.01	
 16.75	  0.01	
 17.00	  0.01	
 17.25	  0.01	
 17.50	  0.01	
 17.75	  0.01	
 18.00	  0.01	
 18.25	  0.01	
 18.50	  0.01	
 18.75	  0.01	
 19.00	  0.01	
 19.25	  0.01	
 19.50	  0.01	
 19.75	  0.01	
 20.00	  0.01	
 20.25	  0.01	
 20.50	  0.01	
 20.75	  0.01	
 21.00	  0.01	
 21.25	  0.01	
 21.50	  0.01	
 21.75	  0.01	
 22.00	  0.01	
 22.25	  0.01	
 22.50	  0.01	
 22.75	  0.01	
 23.00	  0.01	
 23.25	  0.01	
 23.50	  0.01	
 23.75	  0.01	
 24.00	  0.01	
 24.25	  0.01	
 24.50	  0.01	
 24.75	  0.01	
 25.00	  0.01	
 25.25	  0.01	
 25.50	  0.01	
 25.75	  0.01	
 26.00	  0.01	
 26.25	  0.01	
 26.50	  0.01	
 26.75	  0.01	
 27.00	  0.01	
 27.25	  0.01	
 27.50	  0.01	
 27.75	  0.01	
 28.00	  0.01	
 28.25	  0.01	
 28.50	  0.01	
 28.75	  0.01	
 29.00	  0.01	
 29.25	  0.01	
 29.50	  0.01	
 29.75	  0.01	
 30.00	  0.01	
 30.25	  0.01	
 30.50	  0.01	
 30.75	  0.01	
 31.00	  0.01	
 31.25	  0.01	
 31.50	  0.01	
 31.75	  0.01	
 32.00	  0.01	
 32.25	  0.01	
 32.50	  0.01	
 32.75	  0.01	
 33.00	  0.01	
 33.25	  0.01	
 33.50	  0.01	
 33.75	  0.01	
 34.00	  0.01	
 34.25	  2.11	
 34.50	  2.42	
 34.75	  2.42	
 35.00	  0.46	
 35.25	  0.01	
 35.50	  0.01	
 35.75	  0.01	
 36.00	  0.01	
 36.25	  1.05	
 36.50	  1.05	
 36.75	  0.01	
 37.00	  0.01	
 37.25	  0.01	
 37.50	  0.01	
 37.75	  0.01	
 38.00	  0.01	
 38.25	  0.01	
 38.50	  0.01	
 38.75	  0.01	
 39.00	  0.01	
 39.25	  0.01	
 39.50	  0.01	
 39.75	  0.01	
 40.00	  0.01	
 40.25	  0.01	
 40.50	  0.01	
 40.75	  0.01	
 41.00	  0.01	
 41.25	  0.01	
 41.50	  0.01	
 41.75	  0.01	
 42.00	  0.01	
 42.25	  0.01	
 42.50	  0.01	
 42.75	  0.01	
 43.00	  0.01	
 43.25	  0.01	
 43.50	  0.01	
 43.75	  0.01	
 44.00	  0.01	
 44.25	  0.01	
 44.50	  0.01	
 44.75	  0.01	
 45.00	  0.01	
 45.25	  0.01	
 45.50	  0.01	
 45.75	  0.01	
 46.00	  0.01	
 46.25	  0.01	
 46.50	  0.01	
 46.75	  0.01	
 47.00	  0.01	
 47.25	  0.01	
 47.50	  0.01	
 47.75	  0.01	
 48.00	  0.01	
 48.25	  0.01	
 48.50	  0.01	
 48.75	  0.01	
 49.00	  0.01	
 49.25	  0.01	
 49.50	  0.01	
 49.75	  0.01	
 50.00	  0.01	
 50.25	  0.01	
 50.50	  0.01	
 50.75	  0.01	
 51.00	  0.01	
 51.25	  0.01	
 51.50	  0.01	
 51.75	  0.01	
 52.00	  0.01	
 52.25	  0.01	
 52.50	  0.01	
 52.75	  0.01	
 53.00	  0.01	
 53.25	  0.01	
 53.50	  0.01	
 53.75	  0.01	
 54.00	  0.01	
 54.25	  0.01	
 54.50	  0.01	
 54.75	  0.01	
 55.00	  0.01	
 55.25	  0.01	
 55.50	  0.01	
 55.75	  0.01	
 56.00	  0.01	
 56.25	  0.01	
 56.50	  0.01	
 56.75	  0.01	
 57.00	  0.01	
 57.25	  0.01	
 57.50	  0.01	
 57.75	  0.01	
 58.00	  0.01	
 58.25	  0.01	
 58.50	  0.01	
 58.75	  0.01	
 59.00	  0.01	
 59.25	  0.01	
 59.50	  0.01	
 59.75	  0.01	
 60.00	  0.01	
 60.25	  0.01	
 60.50	  0.01	
 60.75	  0.01	
 61.00	  0.01	
 61.25	  0.01	
 61.50	  0.01	
 61.75	  0.01	
 62.00	  0.62	
 62.25	  0.68	
 62.50	  0.01	
 62.75	  0.01	
 63.00	  0.01	
 63.25	  0.01	
 63.50	  0.01	
 63.75	  0.01	
 64.00	  0.01	
 64.25	  0.01	
 64.50	  0.01	
 64.75	  0.01	
 65.00	  0.01	
 65.25	  0.01	
 65.50	  0.01	
 65.75	  0.01	
 66.00	  0.01	
 66.25	  0.01	
 66.50	  0.01	
 66.75	  0.01	
 67.00	  0.01	
 67.25	  0.01	
 67.50	  0.01	
 67.75	  0.01	
 68.00	  0.01	
 68.25	  0.01	
 68.50	  0.01	
 68.75	  0.01	
 69.00	  0.01	
 69.25	  0.61	
 69.50	  2.46	
 69.75	  2.27	
 70.00	  0.01	
 70.25	  0.01	
 70.50	  0.01	
 70.75	  0.01	
 71.00	  0.01	
 71.25	  0.01	
 71.50	  0.01	
 71.75	  0.01	
 72.00	  0.01	
 72.25	  0.01	
 72.50	  0.01	
 72.75	  0.01	
 73.00	  0.01	
 73.25	  0.01	
 73.50	  0.01	
 73.75	  0.01	
 74.00	  0.01	
 74.25	  0.01	
 74.50	  0.01	
 74.75	  0.01	
 75.00	  0.01	
 75.25	  0.01	
 75.50	  0.01	
 75.75	  0.01	
 76.00	  0.01	
 76.25	  0.01	
 76.50	  0.01	
 76.75	  0.01	
 77.00	  0.01	
 77.25	  0.01	
 77.50	  0.01	
 77.75	  0.01	
 78.00	  0.01	
 78.25	  0.01	
 78.50	  0.01	
 78.75	  0.01	
 79.00	  0.01	
 79.25	  0.01	
 79.50	  0.01	
 79.75	  0.01	
 80.00	  0.01	
 80.25	  0.01	
 80.50	  0.01	
 80.75	  0.01	
 81.00	  0.01	
 81.25	  0.01	
 81.50	  0.01	
 81.75	  0.01	
 82.00	  0.01	
 82.25	  0.01	
 82.50	  0.01	
 82.75	  0.01	
 83.00	  0.01	
 83.25	  0.01	
 83.50	  0.01	
 83.75	  0.01	
 84.00	  0.01	
 84.25	  0.01	
 84.50	  0.01	
 84.75	  0.01	
 85.00	  0.01	
 85.25	  0.01	
 85.50	  0.01	
 85.75	  0.01	
 86.00	  0.01	
 86.25	  0.01	
 86.50	  0.01	
 86.75	  0.01	
 87.00	  0.01	
 87.25	  0.01	
 87.50	  0.01	
 87.75	  0.01	
 88.00	  0.01	
 88.25	  0.01	
 88.50	  0.29	
 88.75	  3.80	
 89.00	  3.80	
 89.25	  2.04	
 89.50	  1.65	
 89.75	  0.01	
 90.00	  0.01	
 90.25	  0.01	
 90.50	  0.01	
 90.75	  0.01	
 91.00	  0.01	
 91.25	  0.01	
 91.50	  0.01	
 91.75	  0.01	
 92.00	  0.01	
 92.25	  0.01	
 92.50	  0.01	
 92.75	  0.01	
 93.00	  0.01	
 93.25	  0.01	
 93.50	  0.01	
 93.75	  0.01	
 94.00	  0.01	
 94.25	  0.01	
 94.50	  0.01	
 94.75	  0.01	
 95.00	  0.01	
 95.25	  0.01	
 95.50	  0.01	
 95.75	  0.01	
 96.00	  0.01	
 96.25	  0.01	
 96.50	  0.01	
 96.75	  0.01	
 97.00	  0.01	
 97.25	  0.01	
 97.50	  0.01	
 97.75	  0.01	
 98.00	  0.01	
 98.25	  0.01	
 98.50	  0.01	
 98.75	  0.01	
 99.00	  0.01	
 99.25	  0.01	
 99.50	  0.01	
 99.75	  0.01	
100.00	  0.01	
100.25	  0.01	
100.50	  0.01	
100.75	  0.01	
101.00	  0.01	
101.25	  0.01	
101.50	  0.01	
101.75	  0.01	
102.00	  0.01	
102.25	  0.01	
102.50	  0.01	
102.75	  0.01	
103.00	  0.01	
103.25	  0.01	
103.50	  0.01	
103.75	  0.01	
104.00	  0.01	
104.25	  0.01	
104.50	  0.01	
104.75	  0.01	
105.00	  0.01	
105.25	  0.01	
105.50	  1.24	
105.75	  2.15	
106.00	  2.09	
106.25	  0.01	
106.50	  0.01	
106.75	  0.01	
107.00	  0.01	
107.25	  0.01	
107.50	  0.01	
107.75	  0.01	
108.00	  0.01	
108.25	  0.01	
108.50	  0.01	
108.75	  0.01	
109.00	  0.01	
109.25	  0.01	
109.50	  0.01	
109.75	  0.01	
110.00	  0.01	
110.25	  0.01	
110.50	  0.01	
110.75	  0.01	
111.00	  0.01	
111.25	  0.01	
111.50	  0.01	
111.75	  0.01	
112.00	  0.01	
112.25	  0.01	
112.50	  0.01	
112.75	  0.01	
113.00	  0.01	
113.25	  0.01	
113.50	  0.01	
113.75	  0.01	
114.00	  0.01	
114.25	  0.01	
114.50	  0.01	
114.75	  0.01	
115.00	  0.01	
115.25	  0.01	
115.50	  0.01	
115.75	  0.01	
116.00	  0.01	
116.25	  0.01	
116.50	  0.01	
116.75	  0.01	
117.00	  0.01	
117.25	  0.01	
117.50	  0.01	
117.75	  0.01	
118.00	  0.01	
118.25	  0.01	
118.50	  0.01	
118.75	  0.01	
119.00	  0.01	
119.25	  0.01	
119.50	  0.01	
119.75	  0.01	
120.00	  0.01	
120.25	  0.01	
120.50	  0.01	
120.75	  0.01	
121.00	  0.01	
121.25	  0.01	
121.50	  0.01	
121.75	  0.01	
122.00	  0.01	
122.25	  0.01	
122.50	  0.01	
122.75	  0.01	
123.00	  0.01	
123.25	  0.01	
123.50	  0.01	
123.75	  0.01	
124.00	  0.01	
124.25	  0.01	
124.50	  0.01	
124.75	  0.01	
125.00	  0.01	
125.25	  0.01	
125.50	  0.01	
125.75	  0.01	
126.00	  0.01	
126.25	  0.01	
126.50	  0.01	
126.75	  0.01	
127.00	  0.01	
127.25	  0.01	
127.50	  0.01	
127.75	  0.01	
128.00	  0.01	
128.25	  0.01	
128.50	  0.01	
128.75	  0.01	
129.00	  0.01	
129.25	  0.01	
129.50	  0.01	
129.75	  0.01	
130.00	  0.01	
130.25	  0.01	
130.50	  0.01	
130.75	  0.01	
131.00	  0.01	
131.25	  0.01	
131.50	  0.01	
131.75	  0.01	
132.00	  0.01	
132.25	  0.01	
132.50	  0.01	
132.75	  0.01	
133.00	  0.01	
133.25	  0.01	
133.50	  0.01	
133.75	  0.01	
134.00	  0.30	
134.25	  1.11	
134.50	  1.11	
134.75	  0.75	
135.00	  0.01	
135.25	  0.01	
135.50	  0.01	
135.75	  0.01	
136.00	  0.01	
136.25	  0.01	
136.50	  0.01	
136.75	  0.01	
137.00	  0.01	
137.25	  0.01	
137.50	  0.01	
137.75	  0.01	
138.00	  0.01	
138.25	  0.01	
138.50	  0.01	
138.75	  0.01	
139.00	  0.01	
139.25	  0.01	
139.50	  0.01	
139.75	  0.01	
140.00	  0.01	
140.25	  0.01	
140.50	  0.01	
140.75	  0.01	
141.00	  0.01	
141.25	  0.01	
141.50	  0.01	
141.75	  0.01	
142.00	  0.01	
142.25	  0.01	
142.50	  0.01	
142.75	  0.01	
143.00	  0.01	
143.25	  0.01	
143.50	  0.01	
143.75	  0.01	
144.00	  0.01	
144.25	  0.01	
144.50	  0.01	
144.75	  0.01	
145.00	  0.01	
145.25	  0.01	
145.50	  0.01	
145.75	  0.01	
146.00	  0.01	
146.25	  0.01	
146.50	  0.01	
146.75	  0.01	
147.00	  0.01	
147.25	  0.01	
147.50	  0.01	
147.75	  0.01	
148.00	  0.01	
148.25	  0.01	
148.50	  0.01	
148.75	  0.01	
149.00	  0.01	
149.25	  0.01	
149.50	  1.04	
149.75	  1.85	
150.00	  0.67	
150.25	  0.01	
150.50	  0.01	
150.75	  0.01	
151.00	  0.01	
151.25	  0.01	
151.50	  0.01	
151.75	  0.01	
152.00	  0.01	
152.25	  0.01	
152.50	  0.01	
152.75	  0.01	
153.00	  0.01	
153.25	  0.01	
153.50	  0.01	
153.75	  0.01	
154.00	  0.01	
154.25	  0.01	
154.50	  0.01	
154.75	  0.01	
155.00	  0.01	
155.25	  0.01	
155.50	  0.01	
155.75	  0.01	
156.00	  0.01	
156.25	  0.01	
156.50	  0.13	
156.75	  1.20	
157.00	  1.20	
157.25	  1.20	
157.50	  1.20	
157.75	  0.06	
158.00	  0.01	
158.25	  0.01	
158.50	  0.01	
158.75	  0.01	
159.00	  0.01	
159.25	  0.01	
159.50	  0.01	
159.75	  0.01	
160.00	  0.01	
160.25	  0.01	
160.50	  0.01	
160.75	  0.01	
161.00	  0.01	
161.25	  0.01	
161.50	  0.01	
161.75	  0.01	
162.00	  0.01	
162.25	  0.01	
162.50	  0.01	
162.75	  0.01	
163.00	  0.01	
163.25	  0.01	
163.50	  0.01	
163.75	  0.01	
164.00	  0.01	
164.25	  0.01	
164.50	  0.01	
164.75	  0.01	
165.00	  0.01	
165.25	  0.01	
165.50	  0.01	
165.75	  0.29	
166.00	  1.21	
166.25	  1.21	
166.50	  1.21	
166.75	  0.76	
167.00	  0.01	
167.25	  0.01	
167.50	  0.01	
167.75	  0.01	
168.00	  0.01	
